0.0001 0 130.31
0.0001 0.000197151862464 129.831635968
0.0001 0.000394303724928 129.795392457
0.0001 0.000591455587393 129.461325032
0.0001 0.000788607449857 129.256095491
0.0001 0.000985759312321 128.623978949
0.0001 0.00118291117479 127.699534445
0.0001 0.00138006303725 127.293561752
0.0001 0.00157721489971 126.900410894
0.0001 0.00177436676218 126.557552289
0.0001 0.00197151862464 126.600163786
0.0001 0.00216867048711 126.1073601
0.0001 0.00236582234957 125.802019479
0.0001 0.00256297421203 125.589984588
0.0001 0.0027601260745 124.917113052
0.0001 0.00295727793696 124.618456229
0.0001 0.00315442979943 124.372055258
0.0001 0.00335158166189 124.425191801
0.0001 0.00354873352436 124.095758165
0.0001 0.00374588538682 123.952179825
0.0001 0.00394303724928 123.270917867
0.0001 0.00414018911175 122.92119782
0.0001 0.00433734097421 122.720868184
0.0001 0.00453449283668 122.896399422
0.0001 0.00473164469914 122.778950017
0.0001 0.0049287965616 122.182614675
0.0001 0.00512594842407 121.892981888
0.0001 0.00532310028653 121.899620011
0.0001 0.005520252149 121.45153543
0.0001 0.00571740401146 121.42368084
0.0001 0.00591455587393 120.894164954
0.0001 0.00611170773639 120.641684794
0.0001 0.00630885959885 120.44065881
0.0001 0.00650601146132 120.569637836
0.0001 0.00670316332378 120.299362184
0.0001 0.00690031518625 119.801984799
0.0001 0.00709746704871 119.507492713
0.0001 0.00729461891117 119.625968508
0.0001 0.00749177077364 119.235763516
0.0001 0.0076889226361 119.132453213
0.0001 0.00788607449857 118.451576894
0.0001 0.00808322636103 118.11135071
0.0001 0.0082803782235 118.160361547
0.0001 0.00847753008596 117.851701695
0.0001 0.00867468194842 117.260826989
0.0001 0.00887183381089 117.05
0.0001 0.00906898567335 117.179612945
0.0001 0.00926613753582 116.668522579
0.0001 0.00946328939828 116.262806751
0.0001 0.00966044126074 115.577501206
0.0001 0.00985759312321 115.110655638
0.0001 0.0100547449857 115.158155577
0.0001 0.0102518968481 114.744476672
0.0001 0.0104490487106 114.001912782
0.0001 0.0106462005731 113.425765976
0.0001 0.0108433524355 112.933651529
0.0001 0.011040504298 112.819414812
0.0001 0.0112376561605 112.295721286
0.0001 0.0114348080229 111.531532602
0.0001 0.0116319598854 110.967316586
0.0001 0.0118291117479 110.47317854
0.0001 0.0120262636103 110.292164426
0.0001 0.0122234154728 109.536824942
0.0001 0.0124205673352 108.709981131
0.0001 0.0126177191977 108.0085041
0.0001 0.0128148710602 107.390082099
0.0001 0.0130120229226 107.132339457
0.0001 0.0132091747851 106.410514134
0.0001 0.0134063266476 105.247681786
0.0001 0.01360347851 104.211657292
0.0001 0.0138006303725 103.36868096
0.0001 0.013997782235 102.426501618
0.0001 0.0141949340974 101.868714878
0.0001 0.0143920859599 101.001601401
0.0001 0.0145892378223 99.9214114491
0.0001 0.0147863896848 99.2523104436
0.0001 0.0149835415473 97.6700867103
0.0001 0.0151806934097 96.3914807241
0.0001 0.0153778452722 95.063946874
0.0001 0.0155749971347 93.6750495018
0.0001 0.0157721489971 92.5610975136
0.0001 0.0159693008596 91.3752159716
0.0001 0.0161664527221 89.6114284229
0.0001 0.0163636045845 87.6677943917
0.0001 0.016560756447 85.4910428114
0.0001 0.0167579083095 84.8642273967
0.0001 0.0169550601719 85.573722063
0.0001 0.0171522120344 86.7937611522
0.0001 0.0173493638968 88.041773639
0.0001 0.0175465157593 89.5318110185
0.0001 0.0177436676218 91.3710235218
0.0001 0.0179408194842 92.3959032951
0.0001 0.0181379713467 93.5848144852
0.0001 0.0183351232092 94.5987652184
0.0001 0.0185322750716 96.1044588507
0.0001 0.0187294269341 97.1473688618
0.0001 0.0189265787966 98.0700883089
0.0001 0.019123730659 98.9355492731
0.0001 0.0193208825215 100.222683317
0.0001 0.019518034384 101.651860517
0.0001 0.0197151862464 102.457170692
0.0001 0.0199123381089 103.402406877
0.0001 0.0201094899713 104.152690805
0.0001 0.0203066418338 105.148254986
0.0001 0.0205037936963 106.208279656
0.0001 0.0207009455587 107.135498567
0.0001 0.0208980974212 107.979314525
0.0001 0.0210952492837 108.759088825
0.0001 0.0212924011461 109.580206792
0.0001 0.0214895530086 110.583509186
0.0001 0.0216867048711 111.235412607
0.0001 0.0218838567335 111.932787159
0.0001 0.022081008596 112.381336148
0.0001 0.0222781604585 113.025409105
0.0001 0.0224753123209 113.747621777
0.0001 0.0226724641834 114.487827371
0.0001 0.0228696160458 115.088800143
0.0001 0.0230667679083 115.782465645
0.0001 0.0232639197708 116.558597407
0.0001 0.0234610716332 117.1642456
0.0001 0.0236582234957 117.513573918
0.0001 0.0238553753582 118.411021801
0.0001 0.0240525272206 118.633009005
0.0001 0.0242496790831 119.131782558
0.0001 0.0244468309456 119.880814616
0.0001 0.024643982808 120.694116202
0.0001 0.0248411346705 120.927875153
0.0001 0.025038286533 121.493092802
0.0001 0.0252354383954 122.025036579
0.0001 0.0254325902579 122.894567462
0.0001 0.0256297421203 123.101342707
0.0001 0.0258268939828 123.664156236
0.0001 0.0260240458453 124.03052448
0.0001 0.0262211977077 124.055849845
0.0001 0.0264183495702 124.407196318
0.0001 0.0266155014327 124.779406378
0.0001 0.0268126532951 125.369698445
0.0001 0.0270098051576 125.681610315
0.0001 0.0272069570201 125.76176736
0.0001 0.0274041088825 126.075597041
0.0001 0.027601260745 126.471023508
0.0001 0.0277984126074 127.162354346
0.0001 0.0279955644699 127.18401485
0.0001 0.0281927163324 127.539247412
0.0001 0.0283898681948 128.127556372
0.0001 0.0285870200573 129.034696825
0.0001 0.0287841719198 129.202895893
0.0001 0.0289813237822 129.20790281
0.0001 0.0291784756447 129.537246968
0.0001 0.0293756275072 130.392266769
0.0001 0.0295727793696 130.781465411
0.0001 0.0297699312321 131.205318956
0.0001 0.0299670830946 131.434173299
0.0001 0.030164234957 131.345550509
0.0001 0.0303613868195 131.553104686
0.0001 0.0305585386819 131.961134067
0.0001 0.0307556905444 132.556166971
0.0001 0.0309528424069 132.364073128
0.0001 0.0311499942693 132.479156484
0.0001 0.0313471461318 133.025235855
0.0001 0.0315442979943 133.326927808
0.0001 0.0317414498567 133.123584204
0.0001 0.0319386017192 133.376104471
0.0001 0.0321357535817 133.320208829
0.0001 0.0323329054441 133.236833965
0.0001 0.0325300573066 133.184966402
0.0001 0.0327272091691 133.11584105
0.0001 0.0329243610315 132.900702901
0.0001 0.033121512894 132.896962751
0.0001 0.0333186647564 132.787598918
0.0001 0.0335158166189 132.329247646
0.0001 0.0337129684814 131.89967258
0.0001 0.0339101203438 131.801135965
0.0001 0.0341072722063 131.384779554
0.0001 0.0343044240688 130.506611288
0.0001 0.0345015759312 130.258071599
0.0001 0.0346987277937 129.640991404
0.0001 0.0348958796562 129.350407852
0.0001 0.0350930315186 128.849542398
0.0001 0.0352901833811 128.396480217
0.0001 0.0354873352436 128.039953477
0.0001 0.035684487106 127.418718142
0.0001 0.0358816389685 126.949241627
0.0001 0.0360787908309 126.440291237
0.0001 0.0362759426934 126.234697198
0.0001 0.0364730945559 126.161318052
0.0001 0.0366702464183 125.557654667
0.0001 0.0368673982808 125.637097774
0.0001 0.0370645501433 125.113840178
0.0001 0.0372617020057 124.658062165
0.0001 0.0374588538682 124.357389502
0.0001 0.0376560057307 124.35855659
0.0001 0.0378531575931 124.115063334
0.0001 0.0380503094556 124.083930217
0.0001 0.0382474613181 123.528021044
0.0001 0.0384446131805 123.100898281
0.0001 0.038641765043 122.87326767
0.0001 0.0388389169054 122.867335542
0.0001 0.0390360687679 122.513506658
0.0001 0.0392332206304 122.332954506
0.0001 0.0394303724928 121.900117984
0.0001 0.0396275243553 121.765099835
0.0001 0.0398246762178 121.571128534
0.0001 0.0400218280802 121.215424365
0.0001 0.0402189799427 121.215819007
0.0001 0.0404161318052 120.744452964
0.0001 0.0406132836676 120.475618401
0.0001 0.0408104355301 120.398510613
0.0001 0.0410075873926 120.144692186
0.0001 0.041204739255 119.993238115
0.0001 0.0414018911175 119.532602077
0.0001 0.0415990429799 119.447594877
0.0001 0.0417961948424 119.040466412
0.0001 0.0419933467049 119.071107232
0.0001 0.0421904985673 118.648182972
0.0001 0.0423876504298 118.244903273
0.0001 0.0425848022923 118.198859716
0.0001 0.0427819541547 117.837995647
0.0001 0.0429791060172 117.652101531
0.0001 0.0431762578797 117.08094805
0.0001 0.0433734097421 116.960413221
0.0001 0.0435705616046 116.968114231
0.0001 0.043767713467 116.295520798
0.0001 0.0439648653295 116.150653763
0.0001 0.044162017192 115.458793222
0.0001 0.0443591690544 115.105430538
0.0001 0.0445563209169 114.598594886
0.0001 0.0447534727794 114.28563428
0.0001 0.0449506246418 113.637440569
0.0001 0.0451477765043 113.13591612
0.0001 0.0453449283668 112.763320828
0.0001 0.0455420802292 112.399567996
0.0001 0.0457392320917 112.02595575
0.0001 0.0459363839542 111.229489016
0.0001 0.0461335358166 110.701280506
0.0001 0.0463306876791 110.310269907
0.0001 0.0465278395415 109.789509556
0.0001 0.046724991404 109.349956282
0.0001 0.0469221432665 108.352815287
0.0001 0.0471192951289 107.618339723
0.0001 0.0473164469914 107.031448356
0.0001 0.0475135988539 106.805934936
0.0001 0.0477107507163 105.841826143
0.0001 0.0479079025788 105.144371548
0.0001 0.0481050544413 103.978318666
0.0001 0.0483022063037 103.024559997
0.0001 0.0484993581662 102.183006549
0.0001 0.0486965100287 101.563754463
0.0001 0.0488936618911 100.294849968
0.0001 0.0490908137536 99.6620718704
0.0001 0.049287965616 98.4274618997
0.0001 0.0494851174785 96.9256243639
0.0001 0.049682269341 95.7002231199
0.0001 0.0498794212034 94.3746514134
0.0001 0.0500765730659 93.1716263334
0.0001 0.0502737249284 92.1664094039
0.0001 0.0504708767908 90.1680895415
0.0001 0.0506680286533 88.517929724
0.0001 0.0508651805158 86.5246455362
0.0001 0.0510623323782 85.0897519393
0.0001 0.0512594842407 85.1063159914
0.0001 0.0514566361032 86.7847988984
0.0001 0.0516537879656 87.5849197708
0.0001 0.0518509398281 88.9709150821
0.0001 0.0520480916905 90.3941569225
0.0001 0.052245243553 92.0288256136
0.0001 0.0524423954155 93.4635614439
0.0001 0.0526395472779 94.0764995547
0.0001 0.0528366991404 95.4206375512
0.0001 0.0530338510029 96.9388247006
0.0001 0.0532310028653 98.1299416092
0.0001 0.0534281547278 98.6778225813
0.0001 0.0536253065903 99.66946623
0.0001 0.0538224584527 100.835716332
0.0001 0.0540196103152 102.35099117
0.0001 0.0542167621777 103.228810888
0.0001 0.0544139140401 103.918308008
0.0001 0.0546110659026 104.63626581
0.0001 0.054808217765 105.557510602
0.0001 0.0550053696275 106.674426361
0.0001 0.05520252149 107.314038109
0.0001 0.0553996733524 108.056495415
0.0001 0.0555968252149 108.945143553
0.0001 0.0557939770774 109.929018313
0.0001 0.0559911289398 111.203219382
0.0001 0.0561882808023 111.685563428
0.0001 0.0563854326648 112.151881058
0.0001 0.0565825845272 112.787614251
0.0001 0.0567797363897 113.529556447
0.0001 0.0569768882521 114.097420057
0.0001 0.0571740401146 114.806232378
0.0001 0.0573711919771 115.495939336
0.0001 0.0575683438395 116.117927914
0.0001 0.057765495702 116.815957281
0.0001 0.0579626475645 117.509118911
0.0001 0.0581597994269 118.142662509
0.0001 0.0583569512894 118.45884482
0.0001 0.0585541031519 118.988112976
0.0001 0.0587512550143 119.579467291
0.0001 0.0589484068768 120.320105485
0.0001 0.0591455587393 120.672771583
0.0001 0.0593427106017 121.066971961
0.0001 0.0595398624642 121.708993198
0.0001 0.0597370143266 122.479096959
0.0001 0.0599341661891 123.125339343
0.0001 0.0601313180516 123.44706841
0.0001 0.060328469914 123.769562211
0.0001 0.0605256217765 124.06
0.0001 0.060722773639 124.302217049
0.0001 0.0609199255014 124.664284339
0.0001 0.0611170773639 125.225584556
0.0001 0.0613142292264 125.376369218
0.0001 0.0615113810888 125.706322827
0.0001 0.0617085329513 126.046389685
0.0001 0.0619056848138 126.475121981
0.0001 0.0621028366762 127.124778301
0.0001 0.0622999885387 127.449846666
0.0001 0.0624971404011 127.621548524
0.0001 0.0626942922636 128.118928709
0.0001 0.0628914441261 128.687743901
0.0001 0.0630885959885 128.89259015
0.0001 0.063285747851 129.282891297
0.0001 0.0634828997135 129.537663687
0.0001 0.0636800515759 129.967907407
0.0001 0.0638772034384 130.576773888
0.0001 0.0640743553009 130.584797233
0.0001 0.0642715071633 130.878717237
0.0001 0.0644686590258 131.322018653
0.0001 0.0646658108883 131.520457473
0.0001 0.0648629627507 131.758003102
0.0001 0.0650601146132 132.113976338
0.0001 0.0652572664756 132.568011753
0.0001 0.0654544183381 132.500072191
0.0001 0.0656515702006 132.747978061
0.0001 0.065848722063 133.286110966
0.0001 0.0660458739255 133.152783322
0.0001 0.066243025788 133.456566588
0.0001 0.0664401776504 133.516814709
0.0001 0.0666373295129 133.359133285
0.0001 0.0668344813754 133.575062082
0.0001 0.0670316332378 133.57870663
0.0001 0.0672287851003 133.079077688
0.0001 0.0674259369628 133.27180065
0.0001 0.0676230888252 133.0605913
0.0001 0.0678202406877 132.737492668
0.0001 0.0680173925501 132.110767965
0.0001 0.0682145444126 132.209891356
0.0001 0.0684116962751 131.78982235
0.0001 0.0686088481375 131.322566885
0.0001 0.068806 130.31
