"T","Temperatura (C)","arc_length","Points:0","Points:1","Points:2"
386.04,112.89,0,0.0091423,0.0015,0.0038998
385.93,112.78,6.0648e-05,0.0091967,0.0015,0.0039266
385.62,112.47,0.00011473,0.0092179,0.0015,0.0038768
385.27,112.12,0.00019641,0.0092491,0.0015,0.0038014
385.04,111.89,0.00030576,0.0092903,0.0015,0.0037001
384.88,111.73,0.00038482,0.0093188,0.0015,0.0036263
384.59,111.44,0.00051732,0.0093665,0.0015,0.0035027
384.44,111.29,0.0006003,0.0093947,0.0015,0.0034247
384.11,110.96,0.00073396,0.0094402,0.0015,0.003299
383.95,110.8,0.00081857,0.0094672,0.0015,0.0032188
383.77,110.62,0.00095303,0.0095102,0.0015,0.0030914
383.67,110.52,0.0010385,0.0095357,0.0015,0.0030098
383.43,110.28,0.0011741,0.0095762,0.0015,0.0028804
383.25,110.1,0.0012603,0.0096001,0.0015,0.0027976
382.95,109.8,0.001397,0.009638,0.0015,0.0026663
382.77,109.62,0.0014839,0.0096603,0.0015,0.0025823
382.69,109.54,0.0016217,0.0096955,0.0015,0.002449
382.61,109.46,0.0017093,0.009716,0.0015,0.0023638
382.61,109.46,0.0018482,0.0097485,0.0015,0.0022288
382.52,109.37,0.0019365,0.0097672,0.0015,0.0021425
382.21,109.06,0.0020765,0.0097968,0.0015,0.0020057
382.15,109,0.0021654,0.0098137,0.0015,0.0019184
381.89,108.74,0.0023064,0.0098403,0.0015,0.0017799
381.74,108.59,0.0023961,0.0098553,0.0015,0.0016915
381.66,108.51,0.0025381,0.0098789,0.0015,0.0015515
381.53,108.38,0.0026283,0.0098919,0.0015,0.0014622
381.21,108.06,0.0027713,0.0099124,0.0015,0.0013207
381.1,107.95,0.0028622,0.0099234,0.0015,0.0012305
380.9,107.75,0.0030061,0.0099407,0.0015,0.0010876
380.69,107.54,0.0030976,0.0099496,0.0015,0.00099652
380.49,107.34,0.0032425,0.0099636,0.0015,0.00085232
380.49,107.34,0.0033346,0.0099705,0.0015,0.00076052
380.58,107.43,0.0034803,0.0099811,0.0015,0.00061514
380.52,107.37,0.0035729,0.0099857,0.0015,0.00052264
380.36,107.21,0.0037196,0.0099929,0.0015,0.00037618
380.19,107.04,0.0038127,0.0099954,0.0015,0.00028306
379.91,106.76,0.0039602,0.0099991,0.0015,0.00013565
379.89,106.74,0.0040539,0.0099993,0.0015,4.1985e-05
379.86,106.71,0.0042021,0.0099994,0.0015,-0.00010627
379.74,106.59,0.0042963,0.0099974,0.0015,-0.0002004
379.48,106.33,0.0044453,0.0099939,0.0015,-0.00034936
379.31,106.16,0.0045399,0.0099895,0.0015,-0.00044388
379.06,105.91,0.0046896,0.0099824,0.0015,-0.00059343
378.96,105.81,0.0047847,0.0099757,0.0015,-0.00068826
378.76,105.61,0.0049351,0.0099648,0.0015,-0.00083826
378.64,105.49,0.0050305,0.0099557,0.0015,-0.00093331
378.41,105.26,0.0051816,0.0099411,0.0015,-0.0010836
378.26,105.11,0.0052774,0.0099297,0.0015,-0.0011788
378.09,104.94,0.0054291,0.0099113,0.0015,-0.0013293
378.07,104.92,0.0055253,0.0098974,0.0015,-0.0014245
377.94,104.79,0.0056775,0.0098752,0.0015,-0.0015751
377.84,104.69,0.005774,0.0098589,0.0015,-0.0016703
377.59,104.44,0.0059267,0.0098329,0.0015,-0.0018207
377.44,104.29,0.0060236,0.0098142,0.0015,-0.0019157
377.29,104.14,0.0061767,0.0097843,0.0015,-0.0020659
377.14,103.99,0.0062739,0.0097631,0.0015,-0.0021608
377.14,104,0.0064274,0.0097294,0.0015,-0.0023106
377.01,103.86,0.0065248,0.0097058,0.0015,-0.002405
376.74,103.59,0.0066787,0.0096683,0.0015,-0.0025543
376.57,103.42,0.0067763,0.0096423,0.0015,-0.0026484
376.31,103.16,0.0069306,0.0096009,0.0015,-0.002797
376.24,103.09,0.0070284,0.0095725,0.0015,-0.0028905
376,102.85,0.0071829,0.0095273,0.0015,-0.0030383
375.91,102.76,0.0072808,0.0094965,0.0015,-0.0031313
375.66,102.51,0.0074355,0.0094475,0.0015,-0.003278
375.46,102.31,0.0075336,0.0094143,0.0015,-0.0033703
375.18,102.03,0.0076885,0.0093615,0.0015,-0.003516
375.01,101.86,0.0077867,0.009326,0.0015,-0.0036075
374.98,101.83,0.0079417,0.0092695,0.0015,-0.0037519
374.85,101.7,0.00804,0.0092316,0.0015,-0.0038425
374.59,101.44,0.0081951,0.0091715,0.0015,-0.0039855
374.38,101.23,0.0082933,0.0091313,0.0015,-0.0040752
373.91,100.76,0.0084485,0.0090675,0.0015,-0.0042166
373.74,100.59,0.0085467,0.0090251,0.0015,-0.0043052
373.48,100.33,0.0087018,0.0089578,0.0015,-0.0044449
373.25,100.1,0.0088001,0.0089132,0.0015,-0.0045324
373.01,99.861,0.0089551,0.0088424,0.0015,-0.0046704
372.91,99.759,0.0090533,0.0087955,0.0015,-0.0047567
372.65,99.503,0.0092082,0.0087214,0.0015,-0.0048926
372.41,99.257,0.0093062,0.0086724,0.0015,-0.0049776
371.99,98.839,0.009461,0.0085949,0.0015,-0.0051115
371.78,98.633,0.0095589,0.0085439,0.0015,-0.0051952
371.5,98.351,0.0097134,0.0084631,0.0015,-0.0053269
371.35,98.202,0.0098112,0.0084101,0.0015,-0.0054091
371.03,97.883,0.0099655,0.0083262,0.0015,-0.0055385
370.94,97.791,0.010063,0.0082712,0.0015,-0.0056191
370.53,97.378,0.010217,0.0081842,0.0015,-0.0057461
370.25,97.099,0.010314,0.0081274,0.0015,-0.0058252
369.88,96.726,0.010468,0.0080375,0.0015,-0.0059497
369.59,96.443,0.010565,0.0079788,0.0015,-0.0060271
369.34,96.188,0.010718,0.0078861,0.0015,-0.006149
369.2,96.054,0.010815,0.0078257,0.0015,-0.0062247
368.88,95.728,0.010968,0.0077302,0.0015,-0.0063438
368.52,95.372,0.011064,0.0076681,0.0015,-0.0064178
367.98,94.829,0.011216,0.00757,0.0015,-0.0065341
367.71,94.556,0.011313,0.0075063,0.0015,-0.0066063
367.31,94.163,0.011464,0.0074058,0.0015,-0.0067197
367.04,93.889,0.01156,0.0073406,0.0015,-0.00679
366.46,93.309,0.011711,0.0072376,0.0015,-0.0069005
366.14,92.986,0.011807,0.007171,0.0015,-0.0069689
365.53,92.381,0.011957,0.0070658,0.0015,-0.0070764
365.2,92.053,0.012052,0.0069978,0.0015,-0.0071428
365,91.846,0.012202,0.0068904,0.0015,-0.0072472
364.76,91.615,0.012297,0.0068212,0.0015,-0.0073116
364.38,91.226,0.012446,0.0067119,0.0015,-0.0074129
363.92,90.773,0.01254,0.0066414,0.0015,-0.0074753
363.18,90.032,0.012688,0.0065302,0.0015,-0.0075734
362.8,89.648,0.012782,0.0064586,0.0015,-0.0076338
362.2,89.047,0.012929,0.0063457,0.0015,-0.0077286
361.91,88.756,0.013022,0.0062731,0.0015,-0.007787
361.45,88.299,0.013169,0.0061586,0.0015,-0.0078786
361.11,87.962,0.013261,0.006085,0.0015,-0.0079348
360.56,87.406,0.013407,0.005969,0.0015,-0.0080231
360.19,87.035,0.013499,0.0058946,0.0015,-0.0080773
359.58,86.427,0.013644,0.0057773,0.0015,-0.0081623
359.19,86.038,0.013736,0.005702,0.0015,-0.0082143
358.47,85.325,0.01388,0.0055835,0.0015,-0.008296
357.86,84.712,0.01397,0.0055076,0.0015,-0.008346
356.98,83.83,0.014113,0.005388,0.0015,-0.0084243
356.48,83.328,0.014204,0.0053114,0.0015,-0.0084722
355.7,82.552,0.014346,0.0051909,0.0015,-0.0085472
355.3,82.152,0.014435,0.0051138,0.0015,-0.0085929
354.52,81.371,0.014576,0.0049924,0.0015,-0.0086646
354.05,80.904,0.014665,0.0049148,0.0015,-0.0087082
353.14,79.994,0.014805,0.0047927,0.0015,-0.0087767
352.77,79.616,0.014894,0.0047148,0.0015,-0.0088182
352.03,78.883,0.015032,0.0045921,0.0015,-0.0088833
351.35,78.205,0.01512,0.0045138,0.0015,-0.0089227
350.33,77.185,0.015258,0.0043907,0.0015,-0.0089845
349.66,76.508,0.015345,0.0043122,0.0015,-0.0090219
348.84,75.695,0.015481,0.0041887,0.0015,-0.0090804
348.23,75.082,0.015568,0.0041101,0.0015,-0.0091157
347.2,74.051,0.015703,0.0039863,0.0015,-0.0091711
346.59,73.437,0.015789,0.0039076,0.0015,-0.0092044
345.52,72.375,0.015923,0.0037836,0.0015,-0.0092566
344.92,71.769,0.016008,0.003705,0.0015,-0.0092877
344,70.853,0.016141,0.0035807,0.0015,-0.0093369
343.38,70.229,0.016224,0.003503,0.0015,-0.0093658
342.27,69.12,0.016357,0.0033788,0.0015,-0.0094119
341.68,68.534,0.016436,0.0033043,0.0015,-0.0094377
340.92,67.767,0.016546,0.0032007,0.0015,-0.0094739
340.58,67.429,0.016627,0.0031229,0.0015,-0.0094995
340.43,67.285,0.016681,0.0030718,0.0015,-0.0095164
340.59,67.437,0.016753,0.0030808,0.0015,-0.0094454
340.75,67.598,0.016859,0.0030946,0.0015,-0.0093403
341.3,68.15,0.016941,0.0031056,0.0015,-0.0092585
342.31,69.156,0.017086,0.0031229,0.0015,-0.0091151
343.14,69.993,0.017201,0.0031372,0.0015,-0.0090005
344.01,70.863,0.017332,0.0031508,0.0015,-0.0088705
344.71,71.563,0.017451,0.0031633,0.0015,-0.0087516
345.5,72.35,0.017581,0.0031737,0.0015,-0.0086226
346.27,73.116,0.017702,0.0031829,0.0015,-0.0085023
347.09,73.944,0.017832,0.003189,0.0015,-0.0083722
347.86,74.706,0.017954,0.0031938,0.0015,-0.0082504
348.72,75.565,0.018086,0.0031946,0.0015,-0.0081185
349.54,76.393,0.018209,0.0031939,0.0015,-0.0079946
350.49,77.344,0.018344,0.0031883,0.0015,-0.0078602
351.35,78.201,0.01847,0.0031814,0.0015,-0.0077341
352.2,79.051,0.018607,0.0031692,0.0015,-0.0075982
352.91,79.762,0.018734,0.0031567,0.0015,-0.0074713
353.74,80.586,0.018871,0.003139,0.0015,-0.0073355
354.47,81.322,0.018998,0.0031218,0.0015,-0.0072098
355.15,81.999,0.019133,0.0030996,0.0015,-0.0070762
355.84,82.687,0.019258,0.0030786,0.0015,-0.0069533
356.6,83.445,0.01939,0.003053,0.0015,-0.0068239
357.34,84.195,0.019511,0.0030292,0.0015,-0.0067057
358.09,84.939,0.019637,0.003001,0.0015,-0.0065823
358.63,85.484,0.019752,0.0029753,0.0015,-0.0064707
359.21,86.056,0.019871,0.0029457,0.0015,-0.0063554
359.78,86.628,0.019978,0.002919,0.0015,-0.006252
360.35,87.198,0.020088,0.0028885,0.0015,-0.0061456
360.94,87.786,0.020188,0.0028604,0.0015,-0.0060495
361.51,88.358,0.020294,0.0028278,0.0015,-0.0059494
362.05,88.903,0.02039,0.0027971,0.0015,-0.0058577
362.55,89.396,0.020494,0.0027611,0.0015,-0.0057608
362.94,89.786,0.02059,0.0027266,0.0015,-0.0056705
363.54,90.39,0.020696,0.0026859,0.0015,-0.0055735
364.08,90.928,0.020796,0.0026462,0.0015,-0.0054816
364.53,91.375,0.020906,0.0025993,0.0015,-0.0053813
364.93,91.781,0.021013,0.0025534,0.0015,-0.0052849
365.45,92.297,0.021132,0.0024992,0.0015,-0.0051788
366.02,92.871,0.021247,0.0024468,0.0015,-0.0050771
366.61,93.465,0.021373,0.0023864,0.0015,-0.0049667
367.23,94.08,0.021492,0.0023292,0.0015,-0.0048623
367.77,94.619,0.021621,0.0022644,0.0015,-0.0047507
368.33,95.179,0.021741,0.002204,0.0015,-0.0046466
368.85,95.703,0.02187,0.0021369,0.0015,-0.0045368
369.16,96.005,0.021988,0.002075,0.0015,-0.0044359
369.76,96.611,0.022113,0.0020073,0.0015,-0.0043311
370.21,97.062,0.022226,0.0019457,0.0015,-0.0042363
370.7,97.547,0.022343,0.0018793,0.0015,-0.0041396
371.13,97.982,0.022448,0.0018197,0.0015,-0.0040537
371.46,98.306,0.022555,0.0017561,0.0015,-0.0039676
371.71,98.556,0.02265,0.0016986,0.0015,-0.0038913
372.07,98.917,0.02275,0.0016363,0.0015,-0.0038136
372.43,99.28,0.022841,0.0015786,0.0015,-0.003743
372.81,99.663,0.022939,0.0015145,0.0015,-0.0036694
373.18,100.03,0.02303,0.0014538,0.0015,-0.0036006
373.4,100.25,0.023131,0.001385,0.0015,-0.0035268
373.71,100.56,0.023229,0.0013187,0.0015,-0.0034557
373.99,100.84,0.023338,0.0012423,0.0015,-0.0033773
374.4,101.25,0.023446,0.0011675,0.0015,-0.0032998
374.83,101.68,0.023568,0.0010809,0.0015,-0.0032131
375,101.85,0.023688,0.00099641,0.0015,-0.0031279
375.41,102.26,0.023822,0.00089992,0.0015,-0.0030348
375.86,102.71,0.023951,0.00080723,0.0015,-0.0029458
376.38,103.23,0.024092,0.00070285,0.0015,-0.0028512
376.89,103.74,0.024224,0.00060373,0.0015,-0.002763
377.26,104.11,0.024368,0.00049346,0.0015,-0.0026717
377.6,104.45,0.0245,0.00038971,0.0015,-0.0025888
378.04,104.89,0.024642,0.00027552,0.0015,-0.0025058
378.36,105.21,0.024771,0.00016894,0.0015,-0.0024328
378.74,105.59,0.024906,5.2831e-05,0.0015,-0.0023628
379.1,105.95,0.025029,-5.4781e-05,0.0015,-0.0023043
379.48,106.33,0.025156,-0.00017083,0.0015,-0.0022524
379.88,106.73,0.02527,-0.0002778,0.0015,-0.0022125
380.17,107.02,0.025389,-0.0003926,0.0015,-0.0021812
380.43,107.28,0.025498,-0.00049893,0.0015,-0.0021593
380.75,107.6,0.025613,-0.00061343,0.0015,-0.0021451
380.98,107.83,0.02572,-0.00072025,0.0015,-0.0021372
381.24,108.09,0.025836,-0.00083576,0.0015,-0.0021357
381.49,108.34,0.025944,-0.00094423,0.0015,-0.0021376
381.71,108.56,0.026062,-0.0010621,0.0015,-0.0021445
381.99,108.84,0.026174,-0.0011733,0.0015,-0.002152
382.11,108.96,0.026296,-0.0012948,0.0015,-0.0021628
382.25,109.1,0.026411,-0.0014101,0.0015,-0.0021718
382.47,109.32,0.026538,-0.0015364,0.0015,-0.0021822
382.71,109.56,0.026658,-0.0016565,0.0015,-0.0021892
383.01,109.86,0.02679,-0.0017879,0.0015,-0.0021969
383.28,110.13,0.026914,-0.0019122,0.0015,-0.0022016
383.64,110.49,0.027049,-0.0020472,0.0015,-0.0022074
383.82,110.67,0.027177,-0.0021742,0.0015,-0.0022108
383.9,110.75,0.027314,-0.0023115,0.0015,-0.0022156
384.05,110.9,0.027442,-0.0024399,0.0015,-0.0022186
384.26,111.11,0.02758,-0.002578,0.0015,-0.0022235
384.39,111.24,0.027709,-0.0027064,0.0015,-0.0022269
384.51,111.36,0.027846,-0.0028437,0.0015,-0.0022329
384.78,111.63,0.027974,-0.0029708,0.0015,-0.0022378
385.11,111.96,0.028109,-0.0031059,0.0015,-0.0022458
385.33,112.18,0.028234,-0.0032303,0.0015,-0.0022531
385.61,112.46,0.028366,-0.0033619,0.0015,-0.002264
385.81,112.66,0.028487,-0.0034829,0.0015,-0.0022742
386.11,112.96,0.028616,-0.0036111,0.0015,-0.0022881
386.26,113.11,0.028735,-0.0037293,0.0015,-0.002301
386.48,113.33,0.028862,-0.0038549,0.0015,-0.0023175
386.85,113.7,0.028979,-0.0039711,0.0015,-0.0023328
387.09,113.94,0.029104,-0.0040948,0.0015,-0.0023517
387.33,114.18,0.02922,-0.0042096,0.0015,-0.002369
387.49,114.34,0.029344,-0.0043323,0.0015,-0.00239
387.49,114.34,0.02946,-0.0044465,0.0015,-0.0024091
387.64,114.49,0.029585,-0.0045689,0.0015,-0.0024317
387.82,114.67,0.029701,-0.0046832,0.0015,-0.0024522
387.95,114.8,0.029826,-0.004806,0.0015,-0.0024763
388.09,114.94,0.029943,-0.0049211,0.0015,-0.0024981
388.24,115.09,0.03007,-0.005045,0.0015,-0.0025236
388.32,115.17,0.030188,-0.0051612,0.0015,-0.0025469
388.46,115.31,0.030316,-0.0052864,0.0015,-0.0025743
388.59,115.44,0.030437,-0.005404,0.0015,-0.0025994
388.64,115.49,0.030567,-0.005531,0.0015,-0.002629
388.6,115.45,0.030689,-0.0056503,0.0015,-0.0026563
388.85,115.7,0.030822,-0.0057792,0.0015,-0.0026884
388.94,115.79,0.030947,-0.0059007,0.0015,-0.0027182
389,115.85,0.031083,-0.0060319,0.0015,-0.0027533
389.17,116.02,0.031211,-0.0061557,0.0015,-0.002786
388.93,115.78,0.03135,-0.0062896,0.0015,-0.0028244
389.12,115.97,0.031482,-0.0064159,0.0015,-0.0028603
389.31,116.16,0.031624,-0.0065519,0.0015,-0.0029019
389.39,116.24,0.031757,-0.006679,0.0015,-0.0029403
389.53,116.38,0.031899,-0.0068144,0.0015,-0.0029839
389.35,116.2,0.03203,-0.0069395,0.0015,-0.0030235
389.22,116.07,0.032169,-0.007071,0.0015,-0.0030678
388.91,115.76,0.032295,-0.0071911,0.0015,-0.0031075
388.78,115.63,0.032427,-0.0073158,0.0015,-0.003151
388.8,115.65,0.032546,-0.0074279,0.0015,-0.0031893
388.66,115.51,0.032668,-0.0075425,0.0015,-0.0032307
388.66,115.51,0.032775,-0.0076438,0.0015,-0.0032666
388.56,115.41,0.032884,-0.0077452,0.0015,-0.0033044
388.4,115.25,0.032977,-0.0078327,0.0015,-0.0033365
388.32,115.17,0.033069,-0.0079186,0.0015,-0.0033697
388.26,115.11,0.033148,-0.0079925,0.0015,-0.0033979
388.26,115.11,0.033228,-0.0080665,0.0015,-0.0034276
388.21,115.06,0.033299,-0.0081324,0.0015,-0.0034538
388.12,114.97,0.033373,-0.008201,0.0015,-0.0034824
388.01,114.86,0.033442,-0.0082649,0.0015,-0.0035086
387.9,114.75,0.033518,-0.0083346,0.0015,-0.0035384
387.88,114.73,0.033591,-0.0084026,0.0015,-0.0035667
387.74,114.59,0.033675,-0.008479,0.0015,-0.0035997
387.6,114.45,0.033756,-0.0085539,0.0015,-0.0036313
387.47,114.32,0.033848,-0.0086378,0.0015,-0.0036681
387.26,114.11,0.033936,-0.0087187,0.0015,-0.003703
387.07,113.92,0.034036,-0.0088098,0.0015,-0.0037443
386.74,113.59,0.034127,-0.0088929,0.0015,-0.0037815
386.31,113.16,0.034244,-0.0089992,0.0015,-0.0038316
386.14,112.99,0.034313,-0.0090613,0.0015,-0.0038605
385.98,112.83,0.034403,-0.0091423,0.0015,-0.0038998
385.9,112.75,0.034463,-0.0091967,0.0015,-0.0039266
385.59,112.44,0.034518,-0.0092179,0.0015,-0.0038768
385.24,112.09,0.034599,-0.0092491,0.0015,-0.0038014
384.93,111.78,0.034709,-0.0092903,0.0015,-0.0037001
384.76,111.61,0.034788,-0.0093188,0.0015,-0.0036263
384.5,111.35,0.03492,-0.0093665,0.0015,-0.0035027
384.36,111.21,0.035003,-0.0093947,0.0015,-0.0034247
384.19,111.04,0.035137,-0.0094402,0.0015,-0.003299
383.98,110.83,0.035221,-0.0094672,0.0015,-0.0032188
383.75,110.6,0.035356,-0.0095102,0.0015,-0.0030914
383.61,110.46,0.035441,-0.0095357,0.0015,-0.0030098
383.32,110.17,0.035577,-0.0095762,0.0015,-0.0028804
383.27,110.12,0.035663,-0.0096001,0.0015,-0.0027976
383.15,110,0.0358,-0.009638,0.0015,-0.0026663
383.07,109.92,0.035887,-0.0096603,0.0015,-0.0025823
382.81,109.66,0.036024,-0.0096955,0.0015,-0.002449
382.59,109.44,0.036112,-0.009716,0.0015,-0.0023638
382.36,109.21,0.036251,-0.0097485,0.0015,-0.0022288
382.26,109.11,0.036339,-0.0097672,0.0015,-0.0021425
382.14,108.99,0.036479,-0.0097968,0.0015,-0.0020057
382.13,108.98,0.036568,-0.0098137,0.0015,-0.0019184
382.12,108.97,0.036709,-0.0098403,0.0015,-0.0017799
381.95,108.8,0.036799,-0.0098553,0.0015,-0.0016915
381.62,108.47,0.036941,-0.0098789,0.0015,-0.0015515
381.45,108.3,0.037031,-0.0098919,0.0015,-0.0014622
381.18,108.03,0.037174,-0.0099124,0.0015,-0.0013207
381.06,107.91,0.037265,-0.0099234,0.0015,-0.0012305
380.81,107.66,0.037409,-0.0099407,0.0015,-0.0010876
380.67,107.52,0.0375,-0.0099496,0.0015,-0.00099652
380.59,107.44,0.037645,-0.0099636,0.0015,-0.00085232
380.52,107.37,0.037737,-0.0099705,0.0015,-0.00076052
380.25,107.1,0.037883,-0.0099811,0.0015,-0.00061514
380.11,106.96,0.037976,-0.0099857,0.0015,-0.00052264
379.95,106.8,0.038122,-0.0099929,0.0015,-0.00037618
379.8,106.65,0.038216,-0.0099954,0.0015,-0.00028306
379.67,106.52,0.038363,-0.0099991,0.0015,-0.00013565
379.56,106.41,0.038457,-0.0099993,0.0015,-4.1985e-05
379.49,106.34,0.038605,-0.0099994,0.0015,0.00010627
379.46,106.31,0.038699,-0.0099974,0.0015,0.0002004
379.25,106.1,0.038848,-0.0099939,0.0015,0.00034936
379.06,105.91,0.038943,-0.0099895,0.0015,0.00044388
378.83,105.68,0.039092,-0.0099824,0.0015,0.00059343
378.78,105.63,0.039187,-0.0099757,0.0015,0.00068826
378.68,105.53,0.039338,-0.0099648,0.0015,0.00083826
378.56,105.41,0.039433,-0.0099557,0.0015,0.00093331
378.36,105.21,0.039584,-0.0099411,0.0015,0.0010836
378.25,105.1,0.03968,-0.0099297,0.0015,0.0011788
378.06,104.91,0.039832,-0.0099113,0.0015,0.0013293
377.89,104.74,0.039928,-0.0098974,0.0015,0.0014245
377.58,104.43,0.04008,-0.0098752,0.0015,0.0015751
377.54,104.39,0.040177,-0.0098589,0.0015,0.0016703
377.42,104.27,0.040329,-0.0098329,0.0015,0.0018207
377.34,104.19,0.040426,-0.0098142,0.0015,0.0019157
377.26,104.11,0.04058,-0.0097843,0.0015,0.0020659
377.11,103.96,0.040677,-0.0097631,0.0015,0.0021608
376.96,103.81,0.04083,-0.0097294,0.0015,0.0023106
376.86,103.71,0.040928,-0.0097058,0.0015,0.002405
376.68,103.53,0.041082,-0.0096683,0.0015,0.0025543
376.55,103.4,0.041179,-0.0096423,0.0015,0.0026484
376.28,103.13,0.041333,-0.0096009,0.0015,0.002797
376.18,103.03,0.041431,-0.0095725,0.0015,0.0028905
375.99,102.84,0.041586,-0.0095273,0.0015,0.0030383
375.83,102.68,0.041684,-0.0094965,0.0015,0.0031313
375.64,102.49,0.041838,-0.0094475,0.0015,0.003278
375.57,102.42,0.041936,-0.0094143,0.0015,0.0033703
375.52,102.37,0.042091,-0.0093615,0.0015,0.003516
375.37,102.22,0.042189,-0.009326,0.0015,0.0036075
375,101.85,0.042345,-0.0092695,0.0015,0.0037519
374.84,101.69,0.042443,-0.0092316,0.0015,0.0038425
374.51,101.36,0.042598,-0.0091715,0.0015,0.0039855
374.4,101.25,0.042696,-0.0091313,0.0015,0.0040752
374.28,101.13,0.042851,-0.0090675,0.0015,0.0042166
374.03,100.88,0.04295,-0.0090251,0.0015,0.0043052
373.65,100.5,0.043105,-0.0089578,0.0015,0.0044449
373.4,100.25,0.043203,-0.0089132,0.0015,0.0045324
373.02,99.873,0.043358,-0.0088424,0.0015,0.0046704
372.88,99.73,0.043456,-0.0087955,0.0015,0.0047567
372.67,99.518,0.043611,-0.0087214,0.0015,0.0048926
372.44,99.293,0.043709,-0.0086724,0.0015,0.0049776
372.13,98.977,0.043864,-0.0085949,0.0015,0.0051115
371.98,98.835,0.043962,-0.0085439,0.0015,0.0051952
371.67,98.52,0.044116,-0.0084631,0.0015,0.0053269
371.4,98.252,0.044214,-0.0084101,0.0015,0.0054091
371.03,97.88,0.044368,-0.0083262,0.0015,0.0055385
370.81,97.659,0.044466,-0.0082712,0.0015,0.0056191
370.58,97.43,0.04462,-0.0081842,0.0015,0.0057461
370.38,97.23,0.044717,-0.0081274,0.0015,0.0058252
369.95,96.799,0.044871,-0.0080375,0.0015,0.0059497
369.76,96.606,0.044968,-0.0079788,0.0015,0.0060271
369.2,96.052,0.045121,-0.0078861,0.0015,0.006149
368.92,95.774,0.045218,-0.0078257,0.0015,0.0062247
368.63,95.483,0.045371,-0.0077302,0.0015,0.0063438
368.36,95.207,0.045467,-0.0076681,0.0015,0.0064178
368.05,94.901,0.045619,-0.00757,0.0015,0.0065341
367.81,94.656,0.045716,-0.0075063,0.0015,0.0066063
367.4,94.249,0.045867,-0.0074058,0.0015,0.0067197
367.11,93.955,0.045963,-0.0073406,0.0015,0.00679
366.6,93.446,0.046114,-0.0072376,0.0015,0.0069005
366.29,93.145,0.04621,-0.007171,0.0015,0.0069689
365.7,92.546,0.04636,-0.0070658,0.0015,0.0070764
365.26,92.112,0.046455,-0.0069978,0.0015,0.0071428
364.66,91.51,0.046605,-0.0068904,0.0015,0.0072472
364.34,91.192,0.046699,-0.0068212,0.0015,0.0073116
363.81,90.66,0.046848,-0.0067119,0.0015,0.0074129
363.6,90.451,0.046942,-0.0066414,0.0015,0.0074753
363.04,89.888,0.047091,-0.0065302,0.0015,0.0075734
362.65,89.501,0.047184,-0.0064586,0.0015,0.0076338
362.21,89.058,0.047332,-0.0063457,0.0015,0.0077286
361.84,88.692,0.047425,-0.0062731,0.0015,0.007787
361.35,88.195,0.047572,-0.0061586,0.0015,0.0078786
361.03,87.885,0.047664,-0.006085,0.0015,0.0079348
360.43,87.281,0.04781,-0.005969,0.0015,0.0080231
359.94,86.787,0.047902,-0.0058946,0.0015,0.0080773
359.18,86.031,0.048047,-0.0057773,0.0015,0.0081623
358.72,85.569,0.048138,-0.005702,0.0015,0.0082143
357.98,84.834,0.048282,-0.0055835,0.0015,0.008296
357.63,84.48,0.048373,-0.0055076,0.0015,0.008346
357.04,83.891,0.048516,-0.005388,0.0015,0.0084243
356.5,83.348,0.048607,-0.0053114,0.0015,0.0084722
355.69,82.537,0.048749,-0.0051909,0.0015,0.0085472
355.21,82.057,0.048838,-0.0051138,0.0015,0.0085929
354.39,81.245,0.048979,-0.0049924,0.0015,0.0086646
353.94,80.792,0.049068,-0.0049148,0.0015,0.0087082
353.1,79.946,0.049208,-0.0047927,0.0015,0.0087767
352.46,79.309,0.049296,-0.0047148,0.0015,0.0088182
351.52,78.368,0.049435,-0.0045921,0.0015,0.0088833
350.99,77.837,0.049523,-0.0045138,0.0015,0.0089227
350.23,77.083,0.049661,-0.0043907,0.0015,0.0089845
349.82,76.667,0.049748,-0.0043122,0.0015,0.0090219
348.97,75.817,0.049884,-0.0041887,0.0015,0.0090804
348.36,75.213,0.049971,-0.0041101,0.0015,0.0091157
347.39,74.245,0.050106,-0.0039863,0.0015,0.0091711
346.71,73.562,0.050192,-0.0039076,0.0015,0.0092044
345.67,72.523,0.050326,-0.0037836,0.0015,0.0092566
345.01,71.858,0.050411,-0.003705,0.0015,0.0092877
343.95,70.801,0.050544,-0.0035807,0.0015,0.0093369
343.28,70.128,0.050627,-0.003503,0.0015,0.0093658
342.18,69.034,0.05076,-0.0033788,0.0015,0.0094119
341.66,68.506,0.050839,-0.0033043,0.0015,0.0094377
340.84,67.693,0.050948,-0.0032007,0.0015,0.0094739
340.5,67.348,0.05103,-0.0031229,0.0015,0.0094995
340.36,67.21,0.051084,-0.0030718,0.0015,0.0095164
340.51,67.357,0.051155,-0.0030808,0.0015,0.0094454
340.73,67.579,0.051262,-0.0030946,0.0015,0.0093403
341.27,68.117,0.051344,-0.0031056,0.0015,0.0092585
342.26,69.108,0.051488,-0.0031229,0.0015,0.0091151
342.99,69.845,0.051604,-0.0031372,0.0015,0.0090005
343.83,70.682,0.051735,-0.0031508,0.0015,0.0088705
344.58,71.43,0.051854,-0.0031633,0.0015,0.0087516
345.42,72.272,0.051984,-0.0031737,0.0015,0.0086226
346.26,73.105,0.052104,-0.0031829,0.0015,0.0085023
347.13,73.977,0.052235,-0.003189,0.0015,0.0083722
347.87,74.716,0.052356,-0.0031938,0.0015,0.0082504
348.62,75.469,0.052488,-0.0031946,0.0015,0.0081185
349.34,76.188,0.052612,-0.0031939,0.0015,0.0079946
350.26,77.113,0.052747,-0.0031883,0.0015,0.0078602
351.15,77.997,0.052873,-0.0031814,0.0015,0.0077341
351.99,78.836,0.05301,-0.0031692,0.0015,0.0075982
352.69,79.536,0.053137,-0.0031567,0.0015,0.0074713
353.48,80.333,0.053274,-0.003139,0.0015,0.0073355
354.28,81.13,0.053401,-0.0031218,0.0015,0.0072098
355.1,81.948,0.053536,-0.0030996,0.0015,0.0070762
355.83,82.68,0.053661,-0.0030786,0.0015,0.0069533
356.61,83.46,0.053793,-0.003053,0.0015,0.0068239
357.32,84.174,0.053913,-0.0030292,0.0015,0.0067057
357.99,84.838,0.05404,-0.003001,0.0015,0.0065823
358.54,85.385,0.054154,-0.0029753,0.0015,0.0064707
359.18,86.033,0.054274,-0.0029457,0.0015,0.0063554
359.78,86.627,0.05438,-0.002919,0.0015,0.006252
360.41,87.258,0.054491,-0.0028885,0.0015,0.0061456
361.04,87.888,0.054591,-0.0028604,0.0015,0.0060495
361.69,88.537,0.054696,-0.0028278,0.0015,0.0059494
362.19,89.041,0.054793,-0.0027971,0.0015,0.0058577
362.63,89.478,0.054897,-0.0027611,0.0015,0.0057608
363.1,89.949,0.054993,-0.0027266,0.0015,0.0056705
363.5,90.348,0.055098,-0.0026859,0.0015,0.0055735
364.03,90.878,0.055199,-0.0026462,0.0015,0.0054816
364.6,91.446,0.055309,-0.0025993,0.0015,0.0053813
365.05,91.897,0.055416,-0.0025534,0.0015,0.0052849
365.63,92.477,0.055535,-0.0024992,0.0015,0.0051788
366.09,92.938,0.05565,-0.0024468,0.0015,0.0050771
366.65,93.498,0.055775,-0.0023864,0.0015,0.0049667
367.09,93.942,0.055894,-0.0023292,0.0015,0.0048623
367.72,94.574,0.056023,-0.0022644,0.0015,0.0047507
368.28,95.126,0.056144,-0.002204,0.0015,0.0046466
368.74,95.591,0.056272,-0.0021369,0.0015,0.0045368
369.28,96.13,0.056391,-0.002075,0.0015,0.0044359
369.68,96.526,0.056516,-0.0020073,0.0015,0.0043311
370.04,96.888,0.056629,-0.0019457,0.0015,0.0042363
370.54,97.387,0.056746,-0.0018793,0.0015,0.0041396
370.93,97.779,0.056851,-0.0018197,0.0015,0.0040537
371.27,98.117,0.056958,-0.0017561,0.0015,0.0039676
371.69,98.54,0.057053,-0.0016986,0.0015,0.0038913
372.07,98.924,0.057153,-0.0016363,0.0015,0.0038136
372.42,99.269,0.057244,-0.0015786,0.0015,0.003743
372.84,99.689,0.057341,-0.0015145,0.0015,0.0036694
373.09,99.944,0.057433,-0.0014538,0.0015,0.0036006
373.5,100.35,0.057534,-0.001385,0.0015,0.0035268
373.91,100.76,0.057631,-0.0013187,0.0015,0.0034557
374.21,101.06,0.057741,-0.0012423,0.0015,0.0033773
374.5,101.35,0.057849,-0.0011675,0.0015,0.0032998
374.78,101.63,0.057971,-0.0010809,0.0015,0.0032131
375.11,101.96,0.058091,-0.00099641,0.0015,0.0031279
375.57,102.42,0.058225,-0.00089992,0.0015,0.0030348
376.06,102.91,0.058354,-0.00080723,0.0015,0.0029458
376.47,103.32,0.058495,-0.00070285,0.0015,0.0028512
376.78,103.63,0.058627,-0.00060373,0.0015,0.002763
377.23,104.08,0.05877,-0.00049346,0.0015,0.0026717
377.55,104.4,0.058903,-0.00038971,0.0015,0.0025888
377.94,104.79,0.059044,-0.00027552,0.0015,0.0025058
378.24,105.09,0.059174,-0.00016894,0.0015,0.0024328
378.68,105.53,0.059309,-5.2831e-05,0.0015,0.0023628
379.27,106.12,0.059432,5.4781e-05,0.0015,0.0023043
379.71,106.56,0.059559,0.00017083,0.0015,0.0022524
380.05,106.9,0.059673,0.0002778,0.0015,0.0022125
380.34,107.19,0.059792,0.0003926,0.0015,0.0021812
380.58,107.43,0.0599,0.00049893,0.0015,0.0021593
380.87,107.72,0.060016,0.00061343,0.0015,0.0021451
381.14,107.99,0.060123,0.00072025,0.0015,0.0021372
381.44,108.29,0.060238,0.00083576,0.0015,0.0021357
381.58,108.43,0.060347,0.00094423,0.0015,0.0021376
381.61,108.46,0.060465,0.0010621,0.0015,0.0021445
381.67,108.52,0.060576,0.0011733,0.0015,0.002152
381.87,108.72,0.060698,0.0012948,0.0015,0.0021628
382.15,109,0.060814,0.0014101,0.0015,0.0021718
382.35,109.2,0.060941,0.0015364,0.0015,0.0021822
382.47,109.32,0.061061,0.0016565,0.0015,0.0021892
382.72,109.57,0.061193,0.0017879,0.0015,0.0021969
383.02,109.87,0.061317,0.0019122,0.0015,0.0022016
383.25,110.1,0.061452,0.0020472,0.0015,0.0022074
383.45,110.3,0.061579,0.0021742,0.0015,0.0022108
383.63,110.48,0.061717,0.0023115,0.0015,0.0022156
383.76,110.61,0.061845,0.0024399,0.0015,0.0022186
384.16,111.01,0.061983,0.002578,0.0015,0.0022235
384.43,111.28,0.062112,0.0027064,0.0015,0.0022269
384.69,111.54,0.062249,0.0028437,0.0015,0.0022329
384.91,111.76,0.062376,0.0029708,0.0015,0.0022378
385.05,111.9,0.062512,0.0031059,0.0015,0.0022458
385.37,112.22,0.062636,0.0032303,0.0015,0.0022531
385.57,112.42,0.062768,0.0033619,0.0015,0.002264
385.88,112.73,0.06289,0.0034829,0.0015,0.0022742
386.01,112.86,0.063019,0.0036111,0.0015,0.0022881
386.11,112.96,0.063138,0.0037293,0.0015,0.002301
386.45,113.3,0.063264,0.0038549,0.0015,0.0023175
386.64,113.49,0.063382,0.0039711,0.0015,0.0023328
386.93,113.78,0.063507,0.0040948,0.0015,0.0023517
387.07,113.92,0.063623,0.0042096,0.0015,0.002369
387.28,114.13,0.063747,0.0043323,0.0015,0.00239
387.38,114.23,0.063863,0.0044465,0.0015,0.0024091
387.52,114.37,0.063987,0.0045689,0.0015,0.0024317
387.75,114.6,0.064104,0.0046832,0.0015,0.0024522
387.97,114.82,0.064229,0.004806,0.0015,0.0024763
388.07,114.92,0.064346,0.0049211,0.0015,0.0024981
388.18,115.03,0.064472,0.005045,0.0015,0.0025236
388.33,115.18,0.064591,0.0051612,0.0015,0.0025469
388.43,115.28,0.064719,0.0052864,0.0015,0.0025743
388.55,115.4,0.064839,0.005404,0.0015,0.0025994
388.68,115.53,0.06497,0.005531,0.0015,0.002629
388.81,115.66,0.065092,0.0056503,0.0015,0.0026563
389.04,115.89,0.065225,0.0057792,0.0015,0.0026884
389.12,115.97,0.06535,0.0059007,0.0015,0.0027182
389.16,116.01,0.065486,0.0060319,0.0015,0.0027533
389.04,115.89,0.065614,0.0061557,0.0015,0.002786
389.05,115.9,0.065753,0.0062896,0.0015,0.0028244
389.19,116.04,0.065884,0.0064159,0.0015,0.0028603
389.39,116.24,0.066027,0.0065519,0.0015,0.0029019
389.46,116.31,0.06616,0.006679,0.0015,0.0029403
389.23,116.08,0.066302,0.0068144,0.0015,0.0029839
389.08,115.93,0.066433,0.0069395,0.0015,0.0030235
389.05,115.9,0.066572,0.007071,0.0015,0.0030678
389.09,115.94,0.066698,0.0071911,0.0015,0.0031075
389.14,115.99,0.06683,0.0073158,0.0015,0.003151
389.14,115.99,0.066949,0.0074279,0.0015,0.0031893
389.11,115.96,0.067071,0.0075425,0.0015,0.0032307
389.07,115.92,0.067178,0.0076438,0.0015,0.0032666
388.91,115.76,0.067286,0.0077452,0.0015,0.0033044
388.8,115.65,0.06738,0.0078327,0.0015,0.0033365
388.67,115.52,0.067472,0.0079186,0.0015,0.0033697
388.51,115.36,0.067551,0.0079925,0.0015,0.0033979
388.34,115.19,0.06763,0.0080665,0.0015,0.0034276
388.14,114.99,0.067701,0.0081324,0.0015,0.0034538
388.05,114.9,0.067776,0.008201,0.0015,0.0034824
388.02,114.87,0.067845,0.0082649,0.0015,0.0035086
388.05,114.9,0.067921,0.0083346,0.0015,0.0035384
387.97,114.82,0.067994,0.0084026,0.0015,0.0035667
387.72,114.57,0.068077,0.008479,0.0015,0.0035997
387.54,114.39,0.068159,0.0085539,0.0015,0.0036313
387.37,114.22,0.06825,0.0086378,0.0015,0.0036681
387.19,114.04,0.068338,0.0087187,0.0015,0.003703
387.04,113.89,0.068439,0.0088098,0.0015,0.0037443
386.8,113.65,0.06853,0.0088929,0.0015,0.0037815
386.44,113.29,0.068647,0.0089992,0.0015,0.0038316
386.27,113.12,0.068716,0.0090613,0.0015,0.0038605
386.04,112.89,0.068806,0.0091423,0.0015,0.0038998
