"T","Temperatura (C)","arc_length","Points:0","Points:1","Points:2"
330.12,56.965,0,0.0096811,0.008,0.00029895
329.92,56.769,6.0496e-05,0.0097414,0.008,0.00030333
329.58,56.43,0.0001871,0.0098677,0.008,0.00031186
329.39,56.243,0.00025642,0.0099368,0.008,0.00031795
329.28,56.133,0.00031452,0.0099947,0.008,0.00032264
329.29,56.145,0.0003633,0.0099962,0.008,0.00027389
329.38,56.225,0.00046819,0.0099981,0.008,0.00016901
329.52,56.368,0.00054585,0.0099996,0.008,9.1367e-05
329.72,56.571,0.00066547,0.0099994,0.008,-2.826e-05
329.79,56.644,0.00074961,0.0099994,0.008,-0.00011239
329.88,56.728,0.00087857,0.0099966,0.008,-0.00024133
329.92,56.774,0.00096477,0.0099946,0.008,-0.0003275
330,56.853,0.0010961,0.0099889,0.008,-0.00045867
330.04,56.895,0.0011833,0.0099851,0.008,-0.00054586
330.16,57.011,0.0013161,0.0099764,0.008,-0.00067835
330.23,57.08,0.0014042,0.0099706,0.008,-0.00076622
330.33,57.178,0.0015381,0.0099589,0.008,-0.00089961
330.39,57.245,0.0016269,0.0099511,0.008,-0.00098806
330.49,57.341,0.0017619,0.0099363,0.008,-0.0011223
330.53,57.377,0.0018514,0.0099264,0.008,-0.0012112
330.59,57.442,0.0019875,0.0099084,0.008,-0.0013461
330.61,57.462,0.0020777,0.0098964,0.008,-0.0014356
330.65,57.499,0.0022149,0.0098753,0.008,-0.0015711
330.68,57.528,0.0023058,0.0098611,0.008,-0.0016609
330.75,57.596,0.002444,0.0098367,0.008,-0.0017969
330.77,57.62,0.0025356,0.0098203,0.008,-0.001887
330.81,57.657,0.0026748,0.0097926,0.008,-0.0020234
330.84,57.695,0.002767,0.009774,0.008,-0.0021138
330.86,57.707,0.0029072,0.0097429,0.008,-0.0022505
330.89,57.737,0.0030001,0.0097221,0.008,-0.002341
330.93,57.776,0.0031413,0.0096876,0.008,-0.0024779
330.92,57.77,0.0032348,0.0096645,0.008,-0.0025685
330.93,57.784,0.0033768,0.0096265,0.008,-0.0027054
330.93,57.783,0.003471,0.0096011,0.008,-0.002796
330.92,57.772,0.0036139,0.0095596,0.008,-0.0029328
330.93,57.775,0.0037086,0.009532,0.008,-0.0030234
330.92,57.765,0.0038525,0.009487,0.008,-0.00316
330.92,57.766,0.0039477,0.009457,0.008,-0.0032505
330.89,57.744,0.0040924,0.0094084,0.008,-0.0033867
330.9,57.751,0.0041882,0.0093761,0.008,-0.0034769
330.91,57.764,0.0043337,0.009324,0.008,-0.0036127
330.9,57.747,0.00443,0.0092893,0.008,-0.0037026
330.84,57.69,0.0045762,0.0092336,0.008,-0.0038378
330.8,57.65,0.004673,0.0091966,0.008,-0.0039272
330.78,57.629,0.00482,0.0091373,0.008,-0.0040617
330.76,57.608,0.0049172,0.0090979,0.008,-0.0041506
330.72,57.565,0.0050649,0.0090351,0.008,-0.0042842
330.67,57.524,0.0051626,0.0089934,0.008,-0.0043726
330.62,57.47,0.0053109,0.008927,0.008,-0.0045052
330.58,57.434,0.005409,0.0088829,0.008,-0.0045928
330.52,57.368,0.0055578,0.008813,0.008,-0.0047243
330.46,57.315,0.0056564,0.0087666,0.008,-0.0048112
330.35,57.203,0.0058058,0.0086932,0.008,-0.0049413
330.3,57.148,0.0059047,0.0086444,0.008,-0.0050273
330.23,57.08,0.0060546,0.0085675,0.008,-0.0051561
330.19,57.037,0.0061538,0.0085165,0.008,-0.0052411
330.17,57.021,0.0063043,0.0084362,0.008,-0.0053683
330.14,56.992,0.0064037,0.0083828,0.008,-0.0054523
330.06,56.915,0.0065546,0.0082991,0.008,-0.0055778
330.03,56.877,0.0066544,0.0082436,0.008,-0.0056607
329.97,56.823,0.0068056,0.0081565,0.008,-0.0057844
329.91,56.756,0.0069056,0.0080988,0.008,-0.005866
329.83,56.682,0.0070572,0.0080084,0.008,-0.0059877
329.74,56.586,0.0071574,0.0079485,0.008,-0.006068
329.66,56.505,0.0073093,0.0078549,0.008,-0.0061877
329.62,56.469,0.0074097,0.0077929,0.008,-0.0062666
329.5,56.351,0.0075618,0.0076962,0.008,-0.006384
329.42,56.271,0.0076623,0.0076321,0.008,-0.0064615
329.28,56.129,0.0078146,0.0075323,0.008,-0.0065766
329.2,56.053,0.0079153,0.0074662,0.008,-0.0066525
329.12,55.971,0.0080677,0.0073635,0.008,-0.0067651
329.06,55.907,0.0081685,0.0072954,0.008,-0.0068393
328.98,55.827,0.008321,0.0071898,0.008,-0.0069494
328.91,55.756,0.0084218,0.0071199,0.008,-0.0070219
328.79,55.642,0.0085744,0.0070114,0.008,-0.0071293
328.7,55.546,0.0086752,0.0069396,0.008,-0.0072001
328.57,55.42,0.0088278,0.0068285,0.008,-0.0073047
328.49,55.344,0.0089285,0.006755,0.008,-0.0073736
328.38,55.23,0.0090811,0.0066413,0.008,-0.0074753
328.3,55.146,0.0091818,0.0065661,0.008,-0.0075423
328.19,55.037,0.0093343,0.0064499,0.008,-0.0076411
328.1,54.954,0.0094349,0.0063731,0.008,-0.0077061
328.01,54.858,0.0095872,0.0062546,0.008,-0.0078018
327.93,54.78,0.0096878,0.0061762,0.008,-0.0078647
327.76,54.614,0.0098399,0.0060555,0.008,-0.0079573
327.65,54.503,0.0099403,0.0059757,0.008,-0.0080182
327.47,54.318,0.010092,0.0058529,0.008,-0.0081075
327.34,54.189,0.010192,0.0057717,0.008,-0.0081662
327.19,54.043,0.010344,0.0056469,0.008,-0.0082523
327.07,53.923,0.010444,0.0055644,0.008,-0.0083088
326.91,53.757,0.010595,0.0054378,0.008,-0.0083915
326.8,53.652,0.010695,0.0053542,0.008,-0.0084459
326.64,53.489,0.010846,0.0052258,0.008,-0.0085252
326.54,53.386,0.010945,0.005141,0.008,-0.0085773
326.39,53.244,0.011096,0.0050111,0.008,-0.0086531
326.28,53.127,0.011195,0.0049253,0.008,-0.0087029
326.09,52.935,0.011345,0.004794,0.008,-0.0087753
325.96,52.806,0.011444,0.0047073,0.008,-0.0088228
325.78,52.628,0.011593,0.0045746,0.008,-0.0088916
325.65,52.501,0.011692,0.0044871,0.008,-0.0089368
325.47,52.323,0.011841,0.0043533,0.008,-0.009002
325.34,52.192,0.011939,0.004265,0.008,-0.0090449
325.2,52.05,0.012087,0.0041302,0.008,-0.0091066
325.07,51.921,0.012185,0.0040412,0.008,-0.009147
324.87,51.718,0.012332,0.0039055,0.008,-0.0092051
324.72,51.567,0.01243,0.003816,0.008,-0.0092433
324.55,51.401,0.012577,0.0036796,0.008,-0.0092978
324.43,51.284,0.012673,0.0035896,0.008,-0.0093335
324.19,51.043,0.01282,0.0034525,0.008,-0.0093845
324.02,50.87,0.012916,0.0033622,0.008,-0.0094178
323.77,50.621,0.013061,0.0032247,0.008,-0.0094652
323.63,50.478,0.013157,0.003134,0.008,-0.0094962
323.44,50.287,0.013302,0.0029961,0.008,-0.00954
323.28,50.132,0.013397,0.0029053,0.008,-0.0095687
323.05,49.902,0.013541,0.0027672,0.008,-0.0096089
322.87,49.725,0.013636,0.0026762,0.008,-0.0096352
322.64,49.486,0.013779,0.0025381,0.008,-0.0096719
322.45,49.299,0.013873,0.002447,0.008,-0.009696
322.16,49.013,0.014015,0.0023089,0.008,-0.0097292
321.99,48.84,0.014108,0.002218,0.008,-0.0097509
321.79,48.639,0.014249,0.00208,0.008,-0.0097807
321.61,48.462,0.014342,0.0019892,0.008,-0.0098002
321.34,48.194,0.014483,0.0018515,0.008,-0.0098265
321.18,48.026,0.014575,0.0017608,0.008,-0.0098437
320.95,47.796,0.014714,0.0016235,0.008,-0.0098667
320.76,47.61,0.014806,0.0015332,0.008,-0.0098818
320.48,47.332,0.014944,0.0013964,0.008,-0.0099015
320.3,47.15,0.015035,0.0013064,0.008,-0.0099143
320.01,46.857,0.015172,0.0011702,0.008,-0.0099307
319.79,46.644,0.015262,0.0010807,0.008,-0.0099414
319.52,46.374,0.015398,0.0009452,0.008,-0.0099547
319.37,46.218,0.015488,0.0008561,0.008,-0.0099633
319.15,46,0.015623,0.00072147,0.008,-0.0099734
318.99,45.84,0.015711,0.00063291,0.008,-0.0099799
318.69,45.545,0.015845,0.0004992,0.008,-0.009987
318.44,45.291,0.015933,0.00041125,0.008,-0.0099915
318.12,44.971,0.016066,0.00027854,0.008,-0.0099956
317.87,44.725,0.016153,0.00019133,0.008,-0.0099982
317.55,44.401,0.016285,6.0003e-05,0.008,-0.0099993
317.37,44.224,0.016371,-2.6224e-05,0.008,-0.01
317.15,43.999,0.0165,-0.00015508,0.008,-0.0099983
316.92,43.771,0.016584,-0.00023931,0.008,-0.0099971
316.58,43.43,0.016704,-0.00035892,0.008,-0.0099931
316.36,43.205,0.016781,-0.00043634,0.008,-0.0099905
316.17,43.017,0.016886,-0.00054111,0.008,-0.0099848
316.16,43.008,0.016935,-0.00058989,0.008,-0.0099825
316.31,43.164,0.017003,-0.00055685,0.008,-0.0099227
316.53,43.378,0.017085,-0.00051807,0.008,-0.0098508
317.13,43.98,0.017237,-0.00044462,0.008,-0.0097172
317.45,44.296,0.017312,-0.00040981,0.008,-0.0096515
318.09,44.938,0.017486,-0.00032756,0.008,-0.0094983
318.33,45.182,0.017557,-0.00029491,0.008,-0.0094344
318.93,45.779,0.017734,-0.00021428,0.008,-0.0092771
319.18,46.033,0.017806,-0.00018312,0.008,-0.0092124
319.77,46.62,0.017984,-0.00010645,0.008,-0.0090516
320.01,46.864,0.018057,-7.7197e-05,0.008,-0.0089854
320.59,47.439,0.018237,-5.7741e-06,0.008,-0.0088201
320.8,47.65,0.01831,2.1083e-05,0.008,-0.0087518
321.3,48.151,0.018493,8.6048e-05,0.008,-0.0085807
321.55,48.396,0.018568,0.00011003,0.008,-0.0085099
322.11,48.959,0.018754,0.0001676,0.008,-0.0083325
322.34,49.193,0.01883,0.00018855,0.008,-0.0082595
322.76,49.614,0.019018,0.00023879,0.008,-0.0080781
322.93,49.782,0.019095,0.00025682,0.008,-0.0080041
323.33,50.183,0.019282,0.00030004,0.008,-0.0078217
323.52,50.371,0.019357,0.00031529,0.008,-0.0077479
323.92,50.773,0.019542,0.00035179,0.008,-0.0075675
324.09,50.943,0.019615,0.00036441,0.008,-0.0074952
324.51,51.365,0.019793,0.00039449,0.008,-0.0073197
324.68,51.532,0.019863,0.00040461,0.008,-0.0072501
325.08,51.935,0.020032,0.0004286,0.008,-0.0070827
325.23,52.08,0.020099,0.00043635,0.008,-0.0070169
325.49,52.338,0.020256,0.00045452,0.008,-0.0068602
325.62,52.471,0.020318,0.00046001,0.008,-0.0067989
325.89,52.741,0.020466,0.00047243,0.008,-0.0066516
326.01,52.863,0.020524,0.00047559,0.008,-0.0065931
326.3,53.147,0.020667,0.00048212,0.008,-0.0064505
326.42,53.271,0.020725,0.00048289,0.008,-0.006393
326.66,53.511,0.020867,0.00048339,0.008,-0.0062502
326.78,53.628,0.020926,0.00048168,0.008,-0.0061917
327.07,53.918,0.021074,0.00047601,0.008,-0.006044
327.2,54.054,0.021135,0.00047175,0.008,-0.0059826
327.46,54.311,0.021293,0.00045978,0.008,-0.0058253
327.57,54.416,0.021359,0.00045293,0.008,-0.0057594
327.82,54.668,0.021528,0.0004349,0.008,-0.0055914
327.94,54.792,0.021598,0.00042569,0.008,-0.0055221
328.2,55.054,0.021774,0.00040236,0.008,-0.0053478
328.34,55.187,0.021846,0.00039116,0.008,-0.0052769
328.61,55.463,0.022024,0.00036333,0.008,-0.0051014
328.72,55.57,0.022095,0.00035049,0.008,-0.005031
328.95,55.804,0.02227,0.00031899,0.008,-0.004859
329.05,55.903,0.022339,0.00030485,0.008,-0.0047911
329.29,56.141,0.022506,0.00027049,0.008,-0.0046277
329.39,56.237,0.022571,0.00025541,0.008,-0.0045642
329.62,56.47,0.022726,0.000219,0.008,-0.0044142
329.73,56.576,0.022785,0.00020325,0.008,-0.0043568
329.91,56.756,0.022927,0.00016478,0.008,-0.004221
329.98,56.827,0.022982,0.00014799,0.008,-0.0041682
330.15,56.998,0.023117,0.00010603,0.008,-0.0040403
330.22,57.074,0.023171,8.7534e-05,0.008,-0.0039893
330.4,57.25,0.023306,4.0531e-05,0.008,-0.0038622
330.48,57.331,0.023362,1.9662e-05,0.008,-0.0038101
330.69,57.542,0.023506,-3.3956e-05,0.008,-0.0036768
330.78,57.627,0.023567,-5.7862e-05,0.008,-0.0036208
330.98,57.828,0.023726,-0.00011966,0.008,-0.0034743
331.08,57.928,0.023794,-0.00014722,0.008,-0.003412
331.26,58.111,0.023971,-0.00021825,0.008,-0.0032496
331.34,58.19,0.024046,-0.00024965,0.008,-0.003182
331.53,58.381,0.024236,-0.00032999,0.008,-0.0030101
331.65,58.499,0.024314,-0.00036517,0.008,-0.0029401
331.96,58.807,0.02451,-0.00045478,0.008,-0.0027658
332.08,58.933,0.02459,-0.00049369,0.008,-0.0026963
332.35,59.201,0.024786,-0.00059252,0.008,-0.0025269
332.43,59.284,0.024864,-0.00063511,0.008,-0.002461
332.66,59.512,0.025055,-0.0007431,0.008,-0.0023037
332.76,59.607,0.02513,-0.00078931,0.008,-0.0022441
332.92,59.773,0.025311,-0.00090643,0.008,-0.0021062
333.01,59.856,0.025382,-0.00095621,0.008,-0.002056
333.2,60.05,0.025551,-0.0010824,0.008,-0.0019442
333.26,60.11,0.025617,-0.0011356,0.008,-0.0019049
333.37,60.215,0.025777,-0.0012705,0.008,-0.0018182
333.41,60.256,0.025841,-0.001327,0.008,-0.0017879
333.45,60.304,0.025999,-0.00147,0.008,-0.0017201
333.48,60.333,0.026064,-0.0015296,0.008,-0.0016962
333.57,60.423,0.026224,-0.00168,0.008,-0.001641
333.61,60.455,0.02629,-0.0017425,0.008,-0.001621
333.68,60.534,0.026454,-0.0018998,0.008,-0.0015721
333.7,60.546,0.026522,-0.001965,0.008,-0.0015534
333.76,60.61,0.026693,-0.0021286,0.008,-0.0015044
333.81,60.663,0.026763,-0.0021962,0.008,-0.0014845
333.85,60.695,0.026941,-0.0023655,0.008,-0.0014302
333.88,60.733,0.027014,-0.0024352,0.008,-0.0014079
333.98,60.828,0.027198,-0.0026089,0.008,-0.0013483
333.96,60.811,0.027273,-0.0026801,0.008,-0.0013242
334.05,60.904,0.027461,-0.0028568,0.008,-0.0012613
334.1,60.953,0.027537,-0.002929,0.008,-0.0012363
334.18,61.029,0.027727,-0.0031075,0.008,-0.001172
334.23,61.081,0.027804,-0.0031801,0.008,-0.0011469
334.34,61.19,0.027993,-0.0033588,0.008,-0.0010833
334.39,61.235,0.02807,-0.0034312,0.008,-0.0010589
334.56,61.406,0.028258,-0.0036089,0.008,-0.00099807
334.62,61.469,0.028333,-0.0036806,0.008,-0.00097513
334.64,61.485,0.028517,-0.0038558,0.008,-0.00091899
334.65,61.505,0.02859,-0.0039263,0.008,-0.00089827
334.69,61.54,0.02877,-0.0040984,0.008,-0.00084792
334.68,61.533,0.028841,-0.0041677,0.008,-0.00082944
334.77,61.621,0.029017,-0.0043374,0.008,-0.00078427
334.82,61.67,0.029087,-0.0044059,0.008,-0.00076772
334.98,61.827,0.02926,-0.004574,0.008,-0.00072691
335,61.848,0.02933,-0.004642,0.008,-0.00071195
335.03,61.877,0.029501,-0.0048093,0.008,-0.00067469
335.08,61.929,0.029571,-0.0048772,0.008,-0.000661
335.1,61.953,0.029742,-0.0050446,0.008,-0.00062647
335.13,61.979,0.029811,-0.0051126,0.008,-0.00061372
335.1,61.95,0.029982,-0.005281,0.008,-0.00058111
335.1,61.95,0.030052,-0.0053496,0.008,-0.00056899
335.18,62.031,0.030225,-0.0055197,0.008,-0.00053772
335.13,61.982,0.030295,-0.0055891,0.008,-0.00052615
335.06,61.915,0.03047,-0.0057615,0.008,-0.00049636
335.06,61.905,0.030542,-0.005832,0.008,-0.00048547
335.01,61.859,0.030719,-0.0060074,0.008,-0.00045747
335,61.854,0.030792,-0.0060792,0.008,-0.00044738
334.92,61.769,0.030973,-0.0062581,0.008,-0.00042148
334.93,61.779,0.031046,-0.0063314,0.008,-0.00041232
334.89,61.74,0.031231,-0.0065146,0.008,-0.00038883
334.84,61.692,0.031307,-0.0065897,0.008,-0.00038072
334.71,61.561,0.031496,-0.0067776,0.008,-0.00035994
334.66,61.506,0.031573,-0.0068548,0.008,-0.00035302
334.56,61.406,0.031767,-0.0070478,0.008,-0.00033523
334.53,61.382,0.031846,-0.0071267,0.008,-0.00032956
334.39,61.243,0.032042,-0.0073223,0.008,-0.00031478
334.33,61.176,0.032121,-0.0074013,0.008,-0.00031029
334.14,60.991,0.032315,-0.0075947,0.008,-0.00029835
334.06,60.909,0.032392,-0.0076718,0.008,-0.00029495
333.87,60.716,0.032579,-0.0078583,0.008,-0.00028566
333.77,60.619,0.032652,-0.0079317,0.008,-0.00028325
333.47,60.318,0.032828,-0.0081067,0.008,-0.00027644
333.35,60.196,0.032895,-0.0081744,0.008,-0.00027494
333.16,60.007,0.033054,-0.008333,0.008,-0.00027043
333.05,59.9,0.033114,-0.0083932,0.008,-0.00026973
332.82,59.668,0.033252,-0.0085309,0.008,-0.00026734
332.74,59.595,0.033303,-0.008582,0.008,-0.00026736
332.5,59.349,0.03342,-0.0086989,0.008,-0.00026685
332.39,59.242,0.033464,-0.0087433,0.008,-0.00026747
332.16,59.008,0.033569,-0.008848,0.008,-0.00026845
332.06,58.91,0.03361,-0.0088893,0.008,-0.00026956
331.88,58.731,0.033712,-0.0089913,0.008,-0.00027164
331.79,58.638,0.033755,-0.0090334,0.008,-0.00027313
331.55,58.405,0.033863,-0.0091421,0.008,-0.00027593
331.47,58.322,0.033909,-0.0091883,0.008,-0.00027773
331.17,58.018,0.03403,-0.0093084,0.008,-0.00028133
331.05,57.897,0.03408,-0.0093591,0.008,-0.00028364
330.7,57.549,0.034211,-0.0094894,0.008,-0.00028872
330.52,57.374,0.034266,-0.0095442,0.008,-0.00029182
330.07,56.918,0.034403,-0.0096811,0.008,-0.00029895
329.87,56.725,0.034463,-0.0097414,0.008,-0.00030333
329.51,56.358,0.03459,-0.0098677,0.008,-0.00031186
329.38,56.231,0.034659,-0.0099368,0.008,-0.00031795
329.3,56.155,0.034717,-0.0099947,0.008,-0.00032264
329.31,56.159,0.034766,-0.0099962,0.008,-0.00027389
329.35,56.198,0.034871,-0.0099981,0.008,-0.00016901
329.39,56.24,0.034949,-0.0099996,0.008,-9.1367e-05
329.5,56.347,0.035068,-0.0099994,0.008,2.826e-05
329.58,56.426,0.035152,-0.0099994,0.008,0.00011239
329.76,56.614,0.035281,-0.0099966,0.008,0.00024133
329.87,56.72,0.035367,-0.0099946,0.008,0.0003275
330,56.852,0.035499,-0.0099889,0.008,0.00045867
330.04,56.893,0.035586,-0.0099851,0.008,0.00054586
330.1,56.951,0.035719,-0.0099764,0.008,0.00067835
330.15,56.998,0.035807,-0.0099706,0.008,0.00076622
330.25,57.102,0.035941,-0.0099589,0.008,0.00089961
330.34,57.187,0.03603,-0.0099511,0.008,0.00098806
330.45,57.296,0.036165,-0.0099363,0.008,0.0011223
330.51,57.36,0.036254,-0.0099264,0.008,0.0012112
330.65,57.495,0.03639,-0.0099084,0.008,0.0013461
330.66,57.509,0.03648,-0.0098964,0.008,0.0014356
330.69,57.544,0.036618,-0.0098753,0.008,0.0015711
330.72,57.567,0.036708,-0.0098611,0.008,0.0016609
330.73,57.582,0.036847,-0.0098367,0.008,0.0017969
330.78,57.628,0.036938,-0.0098203,0.008,0.001887
330.81,57.662,0.037077,-0.0097926,0.008,0.0020234
330.82,57.675,0.03717,-0.009774,0.008,0.0021138
330.85,57.699,0.03731,-0.0097429,0.008,0.0022505
330.88,57.732,0.037403,-0.0097221,0.008,0.002341
330.92,57.77,0.037544,-0.0096876,0.008,0.0024779
330.92,57.773,0.037637,-0.0096645,0.008,0.0025685
330.92,57.77,0.03778,-0.0096265,0.008,0.0027054
330.93,57.775,0.037874,-0.0096011,0.008,0.002796
330.92,57.773,0.038017,-0.0095596,0.008,0.0029328
330.91,57.758,0.038111,-0.009532,0.008,0.0030234
330.89,57.741,0.038255,-0.009487,0.008,0.00316
330.86,57.71,0.03835,-0.009457,0.008,0.0032505
330.82,57.666,0.038495,-0.0094084,0.008,0.0033867
330.81,57.661,0.038591,-0.0093761,0.008,0.0034769
330.8,57.645,0.038736,-0.009324,0.008,0.0036127
330.79,57.641,0.038833,-0.0092893,0.008,0.0037026
330.77,57.623,0.038979,-0.0092336,0.008,0.0038378
330.78,57.628,0.039076,-0.0091966,0.008,0.0039272
330.76,57.614,0.039223,-0.0091373,0.008,0.0040617
330.74,57.591,0.03932,-0.0090979,0.008,0.0041506
330.74,57.594,0.039468,-0.0090351,0.008,0.0042842
330.72,57.574,0.039565,-0.0089934,0.008,0.0043726
330.67,57.522,0.039714,-0.008927,0.008,0.0045052
330.6,57.452,0.039812,-0.0088829,0.008,0.0045928
330.52,57.368,0.039961,-0.008813,0.008,0.0047243
330.48,57.331,0.040059,-0.0087666,0.008,0.0048112
330.43,57.285,0.040208,-0.0086932,0.008,0.0049413
330.39,57.239,0.040307,-0.0086444,0.008,0.0050273
330.36,57.208,0.040457,-0.0085675,0.008,0.0051561
330.32,57.173,0.040557,-0.0085165,0.008,0.0052411
330.25,57.101,0.040707,-0.0084362,0.008,0.0053683
330.18,57.034,0.040806,-0.0083828,0.008,0.0054523
330.09,56.939,0.040957,-0.0082991,0.008,0.0055778
330.04,56.893,0.041057,-0.0082436,0.008,0.0056607
329.97,56.823,0.041208,-0.0081565,0.008,0.0057844
329.93,56.777,0.041308,-0.0080988,0.008,0.005866
329.83,56.682,0.04146,-0.0080084,0.008,0.0059877
329.76,56.609,0.04156,-0.0079485,0.008,0.006068
329.67,56.522,0.041712,-0.0078549,0.008,0.0061877
329.62,56.468,0.041812,-0.0077929,0.008,0.0062666
329.52,56.373,0.041964,-0.0076962,0.008,0.006384
329.48,56.329,0.042065,-0.0076321,0.008,0.0064615
329.35,56.204,0.042217,-0.0075323,0.008,0.0065766
329.26,56.114,0.042318,-0.0074662,0.008,0.0066525
329.13,55.98,0.04247,-0.0073635,0.008,0.0067651
329.03,55.882,0.042571,-0.0072954,0.008,0.0068393
328.93,55.778,0.042724,-0.0071898,0.008,0.0069494
328.84,55.686,0.042824,-0.0071199,0.008,0.0070219
328.73,55.577,0.042977,-0.0070114,0.008,0.0071293
328.65,55.497,0.043078,-0.0069396,0.008,0.0072001
328.54,55.387,0.04323,-0.0068285,0.008,0.0073047
328.45,55.301,0.043331,-0.006755,0.008,0.0073736
328.36,55.209,0.043484,-0.0066413,0.008,0.0074753
328.31,55.164,0.043584,-0.0065661,0.008,0.0075423
328.2,55.052,0.043737,-0.0064499,0.008,0.0076411
328.13,54.98,0.043838,-0.0063731,0.008,0.0077061
327.98,54.833,0.04399,-0.0062546,0.008,0.0078018
327.85,54.699,0.04409,-0.0061762,0.008,0.0078647
327.74,54.594,0.044243,-0.0060555,0.008,0.0079573
327.68,54.527,0.044343,-0.0059757,0.008,0.0080182
327.53,54.378,0.044495,-0.0058529,0.008,0.0081075
327.41,54.257,0.044595,-0.0057717,0.008,0.0081662
327.21,54.065,0.044747,-0.0056469,0.008,0.0082523
327.07,53.917,0.044847,-0.0055644,0.008,0.0083088
326.96,53.808,0.044998,-0.0054378,0.008,0.0083915
326.87,53.723,0.045098,-0.0053542,0.008,0.0084459
326.73,53.585,0.045248,-0.0052258,0.008,0.0085252
326.63,53.482,0.045348,-0.005141,0.008,0.0085773
326.43,53.281,0.045498,-0.0050111,0.008,0.0086531
326.3,53.148,0.045598,-0.0049253,0.008,0.0087029
326.14,52.991,0.045748,-0.004794,0.008,0.0087753
326.02,52.875,0.045846,-0.0047073,0.008,0.0088228
325.84,52.691,0.045996,-0.0045746,0.008,0.0088916
325.73,52.578,0.046094,-0.0044871,0.008,0.0089368
325.56,52.405,0.046243,-0.0043533,0.008,0.009002
325.4,52.253,0.046341,-0.004265,0.008,0.0090449
325.19,52.039,0.04649,-0.0041302,0.008,0.0091066
325.06,51.91,0.046587,-0.0040412,0.008,0.009147
324.85,51.697,0.046735,-0.0039055,0.008,0.0092051
324.68,51.533,0.046832,-0.003816,0.008,0.0092433
324.44,51.291,0.046979,-0.0036796,0.008,0.0092978
324.28,51.126,0.047076,-0.0035896,0.008,0.0093335
324.12,50.974,0.047222,-0.0034525,0.008,0.0093845
323.98,50.832,0.047319,-0.0033622,0.008,0.0094178
323.79,50.645,0.047464,-0.0032247,0.008,0.0094652
323.63,50.481,0.04756,-0.003134,0.008,0.0094962
323.39,50.24,0.047704,-0.0029961,0.008,0.00954
323.26,50.114,0.0478,-0.0029053,0.008,0.0095687
323.05,49.902,0.047944,-0.0027672,0.008,0.0096089
322.9,49.753,0.048038,-0.0026762,0.008,0.0096352
322.69,49.54,0.048181,-0.0025381,0.008,0.0096719
322.51,49.364,0.048275,-0.002447,0.008,0.009696
322.22,49.07,0.048417,-0.0023089,0.008,0.0097292
322.03,48.881,0.048511,-0.002218,0.008,0.0097509
321.77,48.622,0.048652,-0.00208,0.008,0.0097807
321.6,48.446,0.048745,-0.0019892,0.008,0.0098002
321.33,48.181,0.048885,-0.0018515,0.008,0.0098265
321.15,47.996,0.048977,-0.0017608,0.008,0.0098437
320.91,47.765,0.049117,-0.0016235,0.008,0.0098667
320.74,47.585,0.049208,-0.0015332,0.008,0.0098818
320.5,47.354,0.049346,-0.0013964,0.008,0.0099015
320.34,47.187,0.049437,-0.0013064,0.008,0.0099143
320.09,46.939,0.049575,-0.0011702,0.008,0.0099307
319.92,46.768,0.049665,-0.0010807,0.008,0.0099414
319.66,46.51,0.049801,-0.0009452,0.008,0.0099547
319.46,46.312,0.04989,-0.0008561,0.008,0.0099633
319.19,46.04,0.050025,-0.00072147,0.008,0.0099734
318.95,45.796,0.050114,-0.00063291,0.008,0.0099799
318.62,45.466,0.050248,-0.0004992,0.008,0.009987
318.39,45.245,0.050336,-0.00041125,0.008,0.0099915
318.11,44.955,0.050469,-0.00027854,0.008,0.0099956
317.94,44.786,0.050556,-0.00019133,0.008,0.0099982
317.67,44.518,0.050687,-6.0003e-05,0.008,0.0099993
317.49,44.343,0.050774,2.6224e-05,0.008,0.01
317.16,44.007,0.050903,0.00015508,0.008,0.0099983
316.89,43.742,0.050987,0.00023931,0.008,0.0099971
316.57,43.42,0.051106,0.00035892,0.008,0.0099931
316.38,43.226,0.051184,0.00043634,0.008,0.0099905
316.26,43.115,0.051289,0.00054111,0.008,0.0099848
316.26,43.11,0.051338,0.00058989,0.008,0.0099825
316.38,43.234,0.051406,0.00055685,0.008,0.0099227
316.57,43.42,0.051488,0.00051807,0.008,0.0098508
317.15,43.996,0.05164,0.00044462,0.008,0.0097172
317.4,44.254,0.051714,0.00040981,0.008,0.0096515
318.01,44.857,0.051888,0.00032756,0.008,0.0094983
318.3,45.147,0.05196,0.00029491,0.008,0.0094344
319.02,45.866,0.052137,0.00021428,0.008,0.0092771
319.28,46.135,0.052209,0.00018312,0.008,0.0092124
319.76,46.614,0.052387,0.00010645,0.008,0.0090516
319.97,46.824,0.052459,7.7197e-05,0.008,0.0089854
320.53,47.384,0.052639,5.7741e-06,0.008,0.0088201
320.79,47.645,0.052713,-2.1083e-05,0.008,0.0087518
321.41,48.261,0.052896,-8.6048e-05,0.008,0.0085807
321.66,48.509,0.05297,-0.00011003,0.008,0.0085099
322.1,48.95,0.053157,-0.0001676,0.008,0.0083325
322.27,49.119,0.053233,-0.00018855,0.008,0.0082595
322.74,49.589,0.053421,-0.00023879,0.008,0.0080781
322.98,49.825,0.053497,-0.00025682,0.008,0.0080041
323.48,50.332,0.053685,-0.00030004,0.008,0.0078217
323.69,50.536,0.05376,-0.00031529,0.008,0.0077479
324.04,50.886,0.053944,-0.00035179,0.008,0.0075675
324.18,51.03,0.054018,-0.00036441,0.008,0.0074952
324.54,51.386,0.054196,-0.00039449,0.008,0.0073197
324.69,51.54,0.054266,-0.00040461,0.008,0.0072501
325.02,51.872,0.054435,-0.0004286,0.008,0.0070827
325.17,52.022,0.054501,-0.00043635,0.008,0.0070169
325.49,52.343,0.054659,-0.00045452,0.008,0.0068602
325.63,52.482,0.054721,-0.00046001,0.008,0.0067989
325.95,52.799,0.054868,-0.00047243,0.008,0.0066516
326.08,52.931,0.054927,-0.00047559,0.008,0.0065931
326.36,53.207,0.05507,-0.00048212,0.008,0.0064505
326.46,53.314,0.055127,-0.00048289,0.008,0.006393
326.75,53.598,0.05527,-0.00048339,0.008,0.0062502
326.87,53.716,0.055329,-0.00048168,0.008,0.0061917
327.07,53.916,0.055476,-0.00047601,0.008,0.006044
327.18,54.029,0.055538,-0.00047175,0.008,0.0059826
327.44,54.294,0.055696,-0.00045978,0.008,0.0058253
327.56,54.406,0.055762,-0.00045293,0.008,0.0057594
327.82,54.666,0.055931,-0.0004349,0.008,0.0055914
327.93,54.785,0.056001,-0.00042569,0.008,0.0055221
328.18,55.034,0.056177,-0.00040236,0.008,0.0053478
328.31,55.156,0.056248,-0.00039116,0.008,0.0052769
328.57,55.422,0.056426,-0.00036333,0.008,0.0051014
328.66,55.513,0.056498,-0.00035049,0.008,0.005031
328.9,55.752,0.056673,-0.00031899,0.008,0.004859
329.01,55.855,0.056742,-0.00030485,0.008,0.0047911
329.26,56.11,0.056909,-0.00027049,0.008,0.0046277
329.38,56.228,0.056974,-0.00025541,0.008,0.0045642
329.59,56.443,0.057129,-0.000219,0.008,0.0044142
329.69,56.542,0.057188,-0.00020325,0.008,0.0043568
329.88,56.728,0.057329,-0.00016478,0.008,0.004221
329.96,56.809,0.057385,-0.00014799,0.008,0.0041682
330.13,56.98,0.057519,-0.00010603,0.008,0.0040403
330.19,57.041,0.057574,-8.7534e-05,0.008,0.0039893
330.39,57.24,0.057709,-4.0531e-05,0.008,0.0038622
330.48,57.333,0.057765,-1.9662e-05,0.008,0.0038101
330.69,57.538,0.057909,3.3956e-05,0.008,0.0036768
330.78,57.628,0.05797,5.7862e-05,0.008,0.0036208
330.99,57.837,0.058129,0.00011966,0.008,0.0034743
331.09,57.937,0.058197,0.00014722,0.008,0.003412
331.26,58.108,0.058374,0.00021825,0.008,0.0032496
331.34,58.185,0.058449,0.00024965,0.008,0.003182
331.58,58.435,0.058638,0.00032999,0.008,0.0030101
331.68,58.525,0.058717,0.00036517,0.008,0.0029401
331.9,58.751,0.058913,0.00045478,0.008,0.0027658
332.03,58.883,0.058992,0.00049369,0.008,0.0026963
332.28,59.128,0.059188,0.00059252,0.008,0.0025269
332.42,59.265,0.059267,0.00063511,0.008,0.002461
332.74,59.592,0.059458,0.0007431,0.008,0.0023037
332.83,59.681,0.059533,0.00078931,0.008,0.0022441
332.99,59.842,0.059714,0.00090643,0.008,0.0021062
333.06,59.913,0.059785,0.00095621,0.008,0.002056
333.18,60.035,0.059953,0.0010824,0.008,0.0019442
333.26,60.105,0.060019,0.0011356,0.008,0.0019049
333.42,60.274,0.06018,0.0012705,0.008,0.0018182
333.45,60.299,0.060244,0.001327,0.008,0.0017879
333.54,60.393,0.060402,0.00147,0.008,0.0017201
333.59,60.442,0.060466,0.0015296,0.008,0.0016962
333.63,60.484,0.060627,0.00168,0.008,0.001641
333.66,60.512,0.060692,0.0017425,0.008,0.001621
333.65,60.504,0.060857,0.0018998,0.008,0.0015721
333.66,60.511,0.060925,0.001965,0.008,0.0015534
333.69,60.539,0.061096,0.0021286,0.008,0.0015044
333.72,60.565,0.061166,0.0021962,0.008,0.0014845
333.8,60.646,0.061344,0.0023655,0.008,0.0014302
333.82,60.672,0.061417,0.0024352,0.008,0.0014079
333.88,60.734,0.061601,0.0026089,0.008,0.0013483
333.93,60.775,0.061676,0.0026801,0.008,0.0013242
334.09,60.938,0.061863,0.0028568,0.008,0.0012613
334.16,61.009,0.06194,0.002929,0.008,0.0012363
334.28,61.126,0.062129,0.0031075,0.008,0.001172
334.3,61.153,0.062206,0.0031801,0.008,0.0011469
334.43,61.279,0.062396,0.0033588,0.008,0.0010833
334.46,61.308,0.062472,0.0034312,0.008,0.0010589
334.57,61.42,0.06266,0.0036089,0.008,0.00099807
334.6,61.452,0.062736,0.0036806,0.008,0.00097513
334.66,61.513,0.06292,0.0038558,0.008,0.00091899
334.69,61.545,0.062993,0.0039263,0.008,0.00089827
334.71,61.565,0.063172,0.0040984,0.008,0.00084792
334.76,61.605,0.063244,0.0041677,0.008,0.00082944
334.82,61.666,0.06342,0.0043374,0.008,0.00078427
334.84,61.686,0.06349,0.0044059,0.008,0.00076772
334.87,61.72,0.063663,0.004574,0.008,0.00072691
334.88,61.732,0.063733,0.004642,0.008,0.00071195
334.89,61.744,0.063904,0.0048093,0.008,0.00067469
334.91,61.759,0.063973,0.0048772,0.008,0.000661
335.06,61.908,0.064144,0.0050446,0.008,0.00062647
335.13,61.976,0.064214,0.0051126,0.008,0.00061372
335.19,62.039,0.064385,0.005281,0.008,0.00058111
335.21,62.065,0.064455,0.0053496,0.008,0.00056899
335.2,62.049,0.064628,0.0055197,0.008,0.00053772
335.18,62.031,0.064698,0.0055891,0.008,0.00052615
335.12,61.971,0.064873,0.0057615,0.008,0.00049636
335.1,61.95,0.064944,0.005832,0.008,0.00048547
335.07,61.92,0.065122,0.0060074,0.008,0.00045747
335.03,61.875,0.065194,0.0060792,0.008,0.00044738
335.01,61.864,0.065375,0.0062581,0.008,0.00042148
335.02,61.867,0.065449,0.0063314,0.008,0.00041232
335.01,61.864,0.065634,0.0065146,0.008,0.00038883
334.97,61.815,0.065709,0.0065897,0.008,0.00038072
334.77,61.624,0.065898,0.0067776,0.008,0.00035994
334.71,61.556,0.065976,0.0068548,0.008,0.00035302
334.52,61.372,0.06617,0.0070478,0.008,0.00033523
334.47,61.324,0.066249,0.0071267,0.008,0.00032956
334.3,61.153,0.066445,0.0073223,0.008,0.00031478
334.23,61.082,0.066524,0.0074013,0.008,0.00031029
334.07,60.916,0.066718,0.0075947,0.008,0.00029835
333.99,60.837,0.066795,0.0076718,0.008,0.00029495
333.77,60.618,0.066982,0.0078583,0.008,0.00028566
333.69,60.535,0.067055,0.0079317,0.008,0.00028325
333.5,60.346,0.06723,0.0081067,0.008,0.00027644
333.39,60.239,0.067298,0.0081744,0.008,0.00027494
333.11,59.964,0.067457,0.008333,0.008,0.00027043
333,59.845,0.067517,0.0083932,0.008,0.00026973
332.74,59.59,0.067655,0.0085309,0.008,0.00026734
332.65,59.496,0.067706,0.008582,0.008,0.00026736
332.48,59.333,0.067823,0.0086989,0.008,0.00026685
332.41,59.263,0.067867,0.0087433,0.008,0.00026747
332.21,59.059,0.067972,0.008848,0.008,0.00026845
332.12,58.972,0.068013,0.0088893,0.008,0.00026956
331.88,58.731,0.068115,0.0089913,0.008,0.00027164
331.78,58.629,0.068157,0.0090334,0.008,0.00027313
331.6,58.453,0.068266,0.0091421,0.008,0.00027593
331.51,58.363,0.068312,0.0091883,0.008,0.00027773
331.3,58.148,0.068432,0.0093084,0.008,0.00028133
331.18,58.033,0.068483,0.0093591,0.008,0.00028364
330.74,57.587,0.068613,0.0094894,0.008,0.00028872
330.58,57.433,0.068668,0.0095442,0.008,0.00029182
330.12,56.965,0.068805,0.0096811,0.008,0.00029895
