"T","Temperatura (C)","arc_length","Points:0","Points:1","Points:2"
380.11,106.96,0,0.0092053,0.002,0.0036175
379.66,106.51,0.00010939,0.0093049,0.002,0.0036629
379.33,106.18,0.00022445,0.0093464,0.002,0.0035555
379.22,106.07,0.00027013,0.0093627,0.002,0.0035129
379.15,106,0.00029659,0.0093716,0.002,0.003488
378.8,105.65,0.00048193,0.009435,0.002,0.0033138
378.74,105.59,0.00051685,0.0094462,0.002,0.0032807
378.53,105.38,0.00069776,0.0095043,0.002,0.0031094
378.48,105.33,0.00073388,0.0095152,0.002,0.0030749
378.09,104.94,0.0009162,0.0095699,0.002,0.0029011
378.05,104.9,0.00095273,0.0095802,0.002,0.002866
377.91,104.76,0.0011365,0.0096315,0.002,0.0026895
377.85,104.7,0.0011734,0.0096411,0.002,0.0026539
377.51,104.36,0.0013587,0.0096889,0.002,0.0024749
377.41,104.26,0.0013959,0.0096977,0.002,0.0024388
377.27,104.12,0.0015827,0.0097419,0.002,0.0022572
377.23,104.08,0.0016202,0.00975,0.002,0.0022206
376.86,103.71,0.0018085,0.0097904,0.002,0.0020367
376.81,103.66,0.0018463,0.0097977,0.002,0.0019996
376.46,103.31,0.0020361,0.0098342,0.002,0.0018133
376.41,103.26,0.0020742,0.0098407,0.002,0.0017759
376.11,102.96,0.0022654,0.0098732,0.002,0.0015874
376.06,102.91,0.0023037,0.0098789,0.002,0.0015495
375.95,102.8,0.0024964,0.0099072,0.002,0.0013589
375.9,102.75,0.002535,0.0099121,0.002,0.0013206
375.69,102.54,0.0027291,0.0099362,0.002,0.0011281
375.62,102.47,0.0027679,0.0099401,0.002,0.0010894
375.38,102.23,0.0029633,0.0099599,0.002,0.00089504
375.35,102.2,0.0030024,0.009963,0.002,0.00085605
375.16,102.01,0.003199,0.0099782,0.002,0.00065999
375.13,101.98,0.0032384,0.0099804,0.002,0.00062068
374.8,101.65,0.0034363,0.009991,0.002,0.00042308
374.72,101.57,0.0034759,0.0099923,0.002,0.00038348
374.39,101.24,0.003675,0.0099983,0.002,0.00018448
374.34,101.19,0.0037149,0.0099986,0.002,0.00014464
374.06,100.91,0.0039151,0.0099998,0.002,-5.5598e-05
374.01,100.86,0.0039552,0.0099992,0.002,-9.5667e-05
373.79,100.64,0.0041565,0.0099956,0.002,-0.00029698
373.79,100.64,0.0041968,0.009994,0.002,-0.00033723
373.8,100.65,0.0043992,0.0099854,0.002,-0.00053945
373.77,100.62,0.0044397,0.0099828,0.002,-0.00057986
373.63,100.48,0.0046431,0.0099693,0.002,-0.0007828
373.6,100.45,0.0046838,0.0099657,0.002,-0.00082333
373.27,100.12,0.0048881,0.0099471,0.002,-0.0010268
373.22,100.07,0.004929,0.0099425,0.002,-0.0010674
372.92,99.773,0.0051342,0.0099189,0.002,-0.0012713
372.88,99.725,0.0051753,0.0099132,0.002,-0.001312
372.79,99.637,0.0053813,0.0098844,0.002,-0.001516
372.74,99.594,0.0054226,0.0098777,0.002,-0.0015567
372.34,99.19,0.0056294,0.0098438,0.002,-0.0017607
372.26,99.112,0.0056708,0.0098361,0.002,-0.0018013
372.01,98.858,0.0058783,0.0097969,0.002,-0.0020052
371.97,98.823,0.0059198,0.0097881,0.002,-0.0020457
371.84,98.692,0.006128,0.0097438,0.002,-0.0022492
371.81,98.655,0.0061697,0.009734,0.002,-0.0022896
371.63,98.483,0.0063785,0.0096844,0.002,-0.0024925
371.6,98.451,0.0064202,0.0096736,0.002,-0.0025328
371.25,98.098,0.0066296,0.0096188,0.002,-0.0027348
371.18,98.029,0.0066714,0.0096069,0.002,-0.0027749
371,97.846,0.0068812,0.0095469,0.002,-0.002976
370.95,97.796,0.0069231,0.009534,0.002,-0.0030159
370.77,97.625,0.0071333,0.0094688,0.002,-0.0032157
370.71,97.563,0.0071753,0.0094549,0.002,-0.0032554
370.16,97.007,0.0073859,0.0093846,0.002,-0.0034538
370.09,96.938,0.0074279,0.0093697,0.002,-0.0034931
369.82,96.666,0.0076388,0.0092943,0.002,-0.00369
369.77,96.623,0.0076809,0.0092783,0.002,-0.003729
369.63,96.479,0.0078919,0.0091979,0.002,-0.0039241
369.59,96.437,0.007934,0.009181,0.002,-0.0039627
369.41,96.263,0.0081452,0.0090956,0.002,-0.0041558
369.33,96.178,0.0081873,0.0090776,0.002,-0.0041939
368.84,95.693,0.0083986,0.0089874,0.002,-0.0043849
368.76,95.612,0.0084407,0.0089685,0.002,-0.0044226
368.41,95.26,0.008652,0.0088734,0.002,-0.0046112
368.32,95.171,0.0086941,0.0088535,0.002,-0.0046484
367.88,94.73,0.0089053,0.0087537,0.002,-0.0048345
367.78,94.625,0.0089474,0.008733,0.002,-0.0048711
367.34,94.189,0.0091584,0.0086285,0.002,-0.0050545
367.28,94.128,0.0092005,0.0086069,0.002,-0.0050906
366.98,93.835,0.0094114,0.0084979,0.002,-0.0052711
366.92,93.768,0.0094534,0.0084754,0.002,-0.0053066
366.52,93.366,0.009664,0.0083621,0.002,-0.0054841
366.42,93.267,0.0097059,0.0083387,0.002,-0.005519
365.87,92.722,0.0099162,0.0082211,0.002,-0.0056932
365.78,92.631,0.0099581,0.0081969,0.002,-0.0057274
365.21,92.06,0.010168,0.0080752,0.002,-0.0058984
365.12,91.968,0.01021,0.0080502,0.002,-0.0059319
364.64,91.492,0.010419,0.0079245,0.002,-0.0060993
364.54,91.386,0.010461,0.0078987,0.002,-0.0061321
364.04,90.891,0.01067,0.0077692,0.002,-0.0062959
363.94,90.786,0.010711,0.0077427,0.002,-0.006328
363.4,90.246,0.010919,0.0076095,0.002,-0.0064881
363.27,90.12,0.010961,0.0075823,0.002,-0.0065193
362.78,89.626,0.011169,0.0074456,0.002,-0.0066756
362.67,89.519,0.01121,0.0074177,0.002,-0.0067061
362.09,88.935,0.011417,0.0072776,0.002,-0.0068583
361.99,88.838,0.011458,0.007249,0.002,-0.006888
361.15,88.004,0.011664,0.0071058,0.002,-0.0070361
361.01,87.864,0.011705,0.0070766,0.002,-0.007065
360.42,87.266,0.01191,0.0069304,0.002,-0.007209
360.29,87.137,0.011951,0.0069006,0.002,-0.007237
359.81,86.66,0.012155,0.0067516,0.002,-0.0073768
359.67,86.518,0.012196,0.0067212,0.002,-0.0074039
359.03,85.878,0.0124,0.0065695,0.002,-0.0075393
358.91,85.757,0.01244,0.0065387,0.002,-0.0075656
358.07,84.923,0.012642,0.0063845,0.002,-0.0076967
357.94,84.786,0.012683,0.0063532,0.002,-0.0077221
357.28,84.134,0.012884,0.0061966,0.002,-0.0078487
357.09,83.938,0.012924,0.0061649,0.002,-0.0078732
356.16,83.006,0.013124,0.0060062,0.002,-0.0079953
355.97,82.818,0.013164,0.0059741,0.002,-0.0080189
355.1,81.948,0.013363,0.0058135,0.002,-0.0081365
355.01,81.857,0.013403,0.005781,0.002,-0.0081592
354.19,81.038,0.013601,0.0056186,0.002,-0.0082723
353.98,80.83,0.01364,0.0055858,0.002,-0.0082941
353.04,79.891,0.013837,0.0054218,0.002,-0.0084026
352.85,79.696,0.013876,0.0053887,0.002,-0.0084235
351.97,78.823,0.014071,0.0052233,0.002,-0.0085274
351.76,78.61,0.01411,0.00519,0.002,-0.0085474
350.81,77.66,0.014304,0.0050233,0.002,-0.0086467
350.65,77.497,0.014343,0.0049898,0.002,-0.0086658
349.55,76.4,0.014536,0.004822,0.002,-0.0087606
349.32,76.171,0.014574,0.0047883,0.002,-0.0087787
348.01,74.857,0.014765,0.0046196,0.002,-0.008869
347.77,74.622,0.014803,0.0045857,0.002,-0.0088862
346.69,73.545,0.014993,0.0044163,0.002,-0.008972
346.53,73.375,0.015031,0.0043823,0.002,-0.0089883
345.3,72.154,0.015219,0.0042124,0.002,-0.0090695
345.06,71.906,0.015257,0.0041782,0.002,-0.0090849
343.86,70.706,0.015443,0.0040079,0.002,-0.0091617
343.61,70.456,0.015481,0.0039737,0.002,-0.0091762
342.43,69.284,0.015666,0.003803,0.002,-0.0092486
342.22,69.07,0.015703,0.0037688,0.002,-0.0092623
341.09,67.937,0.015887,0.0035981,0.002,-0.0093303
340.79,67.643,0.015923,0.0035639,0.002,-0.0093431
339.38,66.227,0.016105,0.003393,0.002,-0.0094068
339.11,65.96,0.016142,0.0033589,0.002,-0.0094187
337.85,64.7,0.016323,0.003188,0.002,-0.0094782
337.61,64.463,0.016357,0.0031548,0.002,-0.009489
336.16,63.006,0.016543,0.0029785,0.002,-0.0095461
335.97,62.817,0.016569,0.0029533,0.002,-0.0095538
335.74,62.59,0.016615,0.0029095,0.002,-0.0095668
335.18,62.027,0.01673,0.0027993,0.002,-0.0096001
335.47,62.315,0.016858,0.0028196,0.002,-0.0094731
335.52,62.372,0.016877,0.0028225,0.002,-0.0094553
336.29,63.136,0.017005,0.0028424,0.002,-0.0093285
336.67,63.516,0.017068,0.0028523,0.002,-0.0092658
336.7,63.549,0.017073,0.002853,0.002,-0.0092608
338.48,65.328,0.017311,0.0028878,0.002,-0.0090257
338.55,65.399,0.017321,0.0028891,0.002,-0.0090158
340.13,66.975,0.017559,0.0029195,0.002,-0.0087795
340.19,67.045,0.01757,0.0029206,0.002,-0.0087685
341.55,68.404,0.017809,0.0029443,0.002,-0.0085306
341.62,68.473,0.017821,0.0029451,0.002,-0.0085194
343.25,70.103,0.018062,0.0029602,0.002,-0.0082783
343.33,70.181,0.018074,0.0029605,0.002,-0.0082668
344.95,71.801,0.018319,0.0029648,0.002,-0.0080214
345.03,71.883,0.018331,0.0029646,0.002,-0.0080097
346.56,73.411,0.018581,0.0029566,0.002,-0.0077597
346.63,73.482,0.018593,0.0029558,0.002,-0.0077479
348.1,74.95,0.018845,0.0029368,0.002,-0.007496
348.15,75.005,0.018857,0.0029355,0.002,-0.0074842
349.51,76.363,0.019109,0.0029072,0.002,-0.0072343
349.58,76.432,0.019121,0.0029055,0.002,-0.0072227
350.96,77.81,0.019368,0.0028696,0.002,-0.0069783
351.03,77.878,0.019379,0.0028676,0.002,-0.0069671
352.29,79.136,0.019618,0.0028259,0.002,-0.0067319
352.35,79.2,0.019629,0.0028237,0.002,-0.0067212
353.68,80.526,0.019856,0.0027779,0.002,-0.006499
353.73,80.58,0.019866,0.0027755,0.002,-0.0064889
354.9,81.754,0.020078,0.0027273,0.002,-0.0062829
354.96,81.81,0.020087,0.0027248,0.002,-0.0062736
355.83,82.676,0.020285,0.0026736,0.002,-0.006082
355.88,82.728,0.020295,0.002671,0.002,-0.0060733
357.08,83.928,0.020486,0.0026144,0.002,-0.0058903
357.12,83.971,0.020495,0.0026114,0.002,-0.0058818
357.97,84.824,0.020687,0.0025472,0.002,-0.0057014
358.01,84.863,0.020696,0.0025439,0.002,-0.0056929
359.05,85.901,0.020894,0.0024696,0.002,-0.005509
359.1,85.946,0.020904,0.0024657,0.002,-0.0055002
360.04,86.894,0.021115,0.0023792,0.002,-0.0053071
360.09,86.94,0.021126,0.0023747,0.002,-0.0052978
361.03,87.876,0.021352,0.0022756,0.002,-0.005094
361.08,87.931,0.021363,0.0022706,0.002,-0.0050843
361.99,88.844,0.021599,0.002162,0.002,-0.004875
362.05,88.9,0.02161,0.0021566,0.002,-0.0048652
363.16,90.014,0.021849,0.0020417,0.002,-0.0046562
363.2,90.054,0.02186,0.0020361,0.002,-0.0046466
364.18,91.029,0.022094,0.0019182,0.002,-0.0044439
364.21,91.064,0.022105,0.0019125,0.002,-0.0044346
365.07,91.916,0.022329,0.0017949,0.002,-0.004244
365.11,91.955,0.022339,0.0017894,0.002,-0.0042355
365.9,92.748,0.022546,0.0016753,0.002,-0.0040627
365.93,92.781,0.022556,0.0016699,0.002,-0.0040551
366.81,93.656,0.022745,0.0015597,0.002,-0.0039012
366.83,93.683,0.022754,0.0015544,0.002,-0.0038943
367.37,94.22,0.022934,0.0014433,0.002,-0.0037519
367.41,94.259,0.022943,0.0014379,0.002,-0.0037454
367.98,94.828,0.023124,0.0013209,0.002,-0.0036064
368.01,94.859,0.023133,0.001315,0.002,-0.0035998
368.86,95.712,0.023326,0.0011868,0.002,-0.0034559
368.89,95.745,0.023335,0.0011803,0.002,-0.003449
369.42,96.273,0.023549,0.0010358,0.002,-0.0032921
369.46,96.31,0.023559,0.0010284,0.002,-0.0032844
370.41,97.255,0.023797,0.00086505,0.002,-0.0031118
370.43,97.283,0.023809,0.00085686,0.002,-0.0031036
370.89,97.741,0.024063,0.00067734,0.002,-0.0029231
370.93,97.783,0.024075,0.00066847,0.002,-0.0029146
371.69,98.536,0.024338,0.00047619,0.002,-0.0027353
371.72,98.572,0.024351,0.0004668,0.002,-0.0027272
372.71,99.558,0.024614,0.00026511,0.002,-0.0025583
372.75,99.598,0.024626,0.00025537,0.002,-0.0025509
373.53,100.38,0.024882,4.7613e-05,0.002,-0.0024014
373.56,100.41,0.024894,3.7678e-05,0.002,-0.0023951
374.03,100.88,0.025136,-0.00017278,0.002,-0.0022743
374.06,100.91,0.025148,-0.00018274,0.002,-0.0022695
374.7,101.55,0.025374,-0.00039279,0.002,-0.0021857
374.73,101.58,0.025384,-0.00040269,0.002,-0.0021827
375.35,102.2,0.025599,-0.00061227,0.002,-0.0021345
375.38,102.23,0.025609,-0.00062218,0.002,-0.0021331
376.02,102.87,0.025821,-0.00083337,0.002,-0.0021124
376.05,102.9,0.025831,-0.00084339,0.002,-0.0021121
376.38,103.23,0.026046,-0.0010583,0.002,-0.0021107
376.39,103.24,0.026056,-0.0010685,0.002,-0.0021111
376.77,103.62,0.026277,-0.0012893,0.002,-0.0021208
376.79,103.64,0.026288,-0.0012999,0.002,-0.0021215
377.23,104.08,0.026517,-0.0015286,0.002,-0.0021341
377.25,104.1,0.026528,-0.0015396,0.002,-0.0021348
377.47,104.32,0.026767,-0.0017779,0.002,-0.0021432
377.48,104.33,0.026778,-0.0017893,0.002,-0.0021436
377.85,104.7,0.027024,-0.0020356,0.002,-0.0021473
377.87,104.72,0.027036,-0.0020473,0.002,-0.0021475
378.25,105.1,0.027288,-0.002299,0.002,-0.0021484
378.27,105.12,0.0273,-0.0023109,0.002,-0.0021485
378.64,105.49,0.027554,-0.0025653,0.002,-0.0021485
378.66,105.51,0.027566,-0.0025773,0.002,-0.0021486
379.09,105.94,0.02782,-0.0028317,0.002,-0.0021496
379.11,105.96,0.027832,-0.0028436,0.002,-0.0021499
379.49,106.34,0.028084,-0.0030955,0.002,-0.0021538
379.51,106.36,0.028096,-0.0031072,0.002,-0.0021542
379.99,106.84,0.028343,-0.0033539,0.002,-0.002163
380.01,106.86,0.028354,-0.0033653,0.002,-0.0021636
380.48,107.33,0.028595,-0.0036054,0.002,-0.0021783
380.5,107.35,0.028606,-0.0036166,0.002,-0.0021793
380.89,107.74,0.028842,-0.0038513,0.002,-0.0021993
380.91,107.76,0.028853,-0.0038622,0.002,-0.0022005
381.27,108.12,0.029085,-0.0040929,0.002,-0.0022254
381.29,108.14,0.029095,-0.0041037,0.002,-0.0022268
381.49,108.34,0.029325,-0.0043318,0.002,-0.0022558
381.51,108.36,0.029336,-0.0043425,0.002,-0.0022574
381.79,108.64,0.029566,-0.0045695,0.002,-0.0022899
381.8,108.65,0.029576,-0.0045802,0.002,-0.0022916
382.34,109.19,0.029806,-0.0048075,0.002,-0.002327
382.35,109.2,0.029817,-0.0048182,0.002,-0.0023288
382.72,109.57,0.030049,-0.0050471,0.002,-0.0023666
382.73,109.58,0.03006,-0.0050579,0.002,-0.0023686
382.82,109.67,0.030295,-0.0052891,0.002,-0.0024094
382.83,109.68,0.030306,-0.0053,0.002,-0.0024115
382.75,109.6,0.030544,-0.0055341,0.002,-0.0024559
382.75,109.6,0.030556,-0.0055452,0.002,-0.0024582
382.83,109.68,0.030798,-0.0057828,0.002,-0.0025068
382.83,109.68,0.03081,-0.0057941,0.002,-0.0025093
383.13,109.98,0.031058,-0.0060359,0.002,-0.0025629
383.14,109.99,0.031069,-0.0060474,0.002,-0.0025657
383.51,110.36,0.031323,-0.006294,0.002,-0.0026248
383.52,110.37,0.031335,-0.0063057,0.002,-0.0026279
383.24,110.09,0.031595,-0.0065574,0.002,-0.0026931
383.24,110.09,0.031607,-0.0065693,0.002,-0.0026965
382.89,109.74,0.03187,-0.0068228,0.002,-0.0027667
382.89,109.74,0.031883,-0.0068347,0.002,-0.0027702
383.38,110.23,0.032143,-0.0070842,0.002,-0.002843
383.38,110.23,0.032155,-0.0070957,0.002,-0.0028466
383.54,110.39,0.032405,-0.0073353,0.002,-0.0029196
383.54,110.39,0.032417,-0.0073462,0.002,-0.0029231
383.29,110.14,0.032652,-0.0075701,0.002,-0.002994
383.28,110.13,0.032662,-0.0075801,0.002,-0.0029974
383.04,109.89,0.032875,-0.0077824,0.002,-0.0030637
383.03,109.88,0.032884,-0.0077913,0.002,-0.0030668
382.56,109.41,0.033069,-0.0079661,0.002,-0.0031264
382.55,109.4,0.033077,-0.0079736,0.002,-0.0031291
382.25,109.1,0.033234,-0.0081214,0.002,-0.0031815
382.24,109.09,0.033241,-0.0081279,0.002,-0.003184
382.08,108.93,0.033381,-0.0082596,0.002,-0.0032328
382.07,108.92,0.033388,-0.0082656,0.002,-0.0032351
381.81,108.66,0.033525,-0.0083934,0.002,-0.0032841
381.8,108.65,0.033531,-0.0083995,0.002,-0.0032865
381.44,108.29,0.033677,-0.0085354,0.002,-0.0033394
381.42,108.27,0.033684,-0.008542,0.002,-0.0033421
381.12,107.97,0.033845,-0.008692,0.002,-0.0034013
381.1,107.95,0.033853,-0.0086993,0.002,-0.0034043
380.99,107.84,0.034029,-0.0088622,0.002,-0.0034702
380.97,107.82,0.034037,-0.0088694,0.002,-0.0034732
380.69,107.54,0.034224,-0.0090422,0.002,-0.0035459
380.68,107.53,0.034228,-0.0090459,0.002,-0.0035475
380.54,107.39,0.03428,-0.0090936,0.002,-0.0035684
380.22,107.07,0.034387,-0.0091913,0.002,-0.0036113
380.15,107,0.034402,-0.0092053,0.002,-0.0036175
379.58,106.43,0.034512,-0.0093049,0.002,-0.0036629
379.29,106.14,0.034627,-0.0093464,0.002,-0.0035555
379.2,106.05,0.034673,-0.0093627,0.002,-0.0035129
379.15,106,0.034699,-0.0093716,0.002,-0.003488
378.86,105.71,0.034884,-0.009435,0.002,-0.0033138
378.77,105.62,0.034919,-0.0094462,0.002,-0.0032807
378.47,105.32,0.0351,-0.0095043,0.002,-0.0031094
378.44,105.29,0.035136,-0.0095152,0.002,-0.0030749
378.23,105.08,0.035319,-0.0095699,0.002,-0.0029011
378.2,105.05,0.035355,-0.0095802,0.002,-0.002866
378,104.85,0.035539,-0.0096315,0.002,-0.0026895
377.95,104.8,0.035576,-0.0096411,0.002,-0.0026539
377.63,104.48,0.035761,-0.0096889,0.002,-0.0024749
377.55,104.4,0.035798,-0.0096977,0.002,-0.0024388
376.98,103.83,0.035985,-0.0097419,0.002,-0.0022572
376.91,103.76,0.036023,-0.00975,0.002,-0.0022206
376.65,103.5,0.036211,-0.0097904,0.002,-0.0020367
376.62,103.47,0.036249,-0.0097977,0.002,-0.0019996
376.41,103.26,0.036439,-0.0098342,0.002,-0.0018133
376.39,103.24,0.036477,-0.0098407,0.002,-0.0017759
376.02,102.87,0.036668,-0.0098732,0.002,-0.0015874
375.93,102.78,0.036706,-0.0098789,0.002,-0.0015495
375.8,102.65,0.036899,-0.0099072,0.002,-0.0013589
375.73,102.58,0.036938,-0.0099121,0.002,-0.0013206
375.55,102.4,0.037132,-0.0099362,0.002,-0.0011281
375.51,102.36,0.03717,-0.0099401,0.002,-0.0010894
375.28,102.13,0.037366,-0.0099599,0.002,-0.00089504
375.26,102.11,0.037405,-0.009963,0.002,-0.00085605
375.12,101.97,0.037602,-0.0099782,0.002,-0.00065999
375.11,101.96,0.037641,-0.0099804,0.002,-0.00062068
374.89,101.74,0.037839,-0.009991,0.002,-0.00042308
374.84,101.69,0.037878,-0.0099923,0.002,-0.00038348
374.75,101.6,0.038078,-0.0099983,0.002,-0.00018448
374.69,101.54,0.038117,-0.0099986,0.002,-0.00014464
374.45,101.3,0.038318,-0.0099998,0.002,5.5598e-05
374.37,101.22,0.038358,-0.0099992,0.002,9.5667e-05
374.01,100.86,0.038559,-0.0099956,0.002,0.00029698
373.97,100.82,0.038599,-0.009994,0.002,0.00033723
373.75,100.6,0.038802,-0.0099854,0.002,0.00053945
373.71,100.56,0.038842,-0.0099828,0.002,0.00057986
373.52,100.37,0.039046,-0.0099693,0.002,0.0007828
373.49,100.34,0.039086,-0.0099657,0.002,0.00082333
373.12,99.971,0.039291,-0.0099471,0.002,0.0010268
373.1,99.95,0.039331,-0.0099425,0.002,0.0010674
373.01,99.859,0.039537,-0.0099189,0.002,0.0012713
372.99,99.839,0.039578,-0.0099132,0.002,0.001312
372.85,99.695,0.039784,-0.0098844,0.002,0.001516
372.79,99.64,0.039825,-0.0098777,0.002,0.0015567
372.4,99.249,0.040032,-0.0098438,0.002,0.0017607
372.31,99.159,0.040073,-0.0098361,0.002,0.0018013
372.06,98.914,0.040281,-0.0097969,0.002,0.0020052
372.03,98.884,0.040322,-0.0097881,0.002,0.0020457
371.81,98.664,0.040531,-0.0097438,0.002,0.0022492
371.78,98.627,0.040572,-0.009734,0.002,0.0022896
371.63,98.478,0.040781,-0.0096844,0.002,0.0024925
371.57,98.418,0.040823,-0.0096736,0.002,0.0025328
371.28,98.129,0.041032,-0.0096188,0.002,0.0027348
371.24,98.086,0.041074,-0.0096069,0.002,0.0027749
370.99,97.842,0.041284,-0.0095469,0.002,0.002976
370.91,97.762,0.041326,-0.009534,0.002,0.0030159
370.63,97.479,0.041536,-0.0094688,0.002,0.0032157
370.6,97.449,0.041578,-0.0094549,0.002,0.0032554
370.43,97.281,0.041788,-0.0093846,0.002,0.0034538
370.4,97.253,0.04183,-0.0093697,0.002,0.0034931
370.25,97.103,0.042041,-0.0092943,0.002,0.00369
370.19,97.039,0.042083,-0.0092783,0.002,0.003729
369.67,96.521,0.042294,-0.0091979,0.002,0.0039241
369.6,96.454,0.042337,-0.009181,0.002,0.0039627
369.21,96.057,0.042548,-0.0090956,0.002,0.0041558
369.13,95.98,0.04259,-0.0090776,0.002,0.0041939
368.86,95.706,0.042801,-0.0089874,0.002,0.0043849
368.73,95.583,0.042843,-0.0089685,0.002,0.0044226
368.22,95.071,0.043054,-0.0088734,0.002,0.0046112
368.12,94.97,0.043097,-0.0088535,0.002,0.0046484
367.67,94.521,0.043308,-0.0087537,0.002,0.0048345
367.61,94.464,0.04335,-0.008733,0.002,0.0048711
367.14,93.989,0.043561,-0.0086285,0.002,0.0050545
367.05,93.895,0.043603,-0.0086069,0.002,0.0050906
366.68,93.527,0.043814,-0.0084979,0.002,0.0052711
366.65,93.496,0.043856,-0.0084754,0.002,0.0053066
366.39,93.239,0.044066,-0.0083621,0.002,0.0054841
366.31,93.16,0.044108,-0.0083387,0.002,0.005519
365.84,92.689,0.044319,-0.0082211,0.002,0.0056932
365.77,92.617,0.044361,-0.0081969,0.002,0.0057274
365.26,92.11,0.04457,-0.0080752,0.002,0.0058984
365.17,92.016,0.044612,-0.0080502,0.002,0.0059319
364.56,91.413,0.044822,-0.0079245,0.002,0.0060993
364.46,91.306,0.044863,-0.0078987,0.002,0.0061321
364.09,90.939,0.045072,-0.0077692,0.002,0.0062959
363.97,90.817,0.045114,-0.0077427,0.002,0.006328
363.55,90.398,0.045322,-0.0076095,0.002,0.0064881
363.43,90.28,0.045363,-0.0075823,0.002,0.0065193
362.74,89.589,0.045571,-0.0074456,0.002,0.0066756
362.6,89.454,0.045612,-0.0074177,0.002,0.0067061
362.01,88.861,0.045819,-0.0072776,0.002,0.0068583
361.9,88.75,0.04586,-0.007249,0.002,0.006888
361.31,88.157,0.046067,-0.0071058,0.002,0.0070361
361.18,88.034,0.046108,-0.0070766,0.002,0.007065
360.64,87.487,0.046313,-0.0069304,0.002,0.007209
360.51,87.357,0.046354,-0.0069006,0.002,0.007237
359.8,86.65,0.046558,-0.0067516,0.002,0.0073768
359.66,86.51,0.046599,-0.0067212,0.002,0.0074039
358.9,85.755,0.046802,-0.0065695,0.002,0.0075393
358.76,85.609,0.046843,-0.0065387,0.002,0.0075656
357.97,84.824,0.047045,-0.0063845,0.002,0.0076967
357.81,84.661,0.047085,-0.0063532,0.002,0.0077221
357.15,83.999,0.047287,-0.0061966,0.002,0.0078487
357.01,83.859,0.047327,-0.0061649,0.002,0.0078732
356.07,82.917,0.047527,-0.0060062,0.002,0.0079953
355.88,82.729,0.047567,-0.0059741,0.002,0.0080189
354.73,81.578,0.047766,-0.0058135,0.002,0.0081365
354.54,81.391,0.047805,-0.005781,0.002,0.0081592
353.72,80.566,0.048003,-0.0056186,0.002,0.0082723
353.55,80.399,0.048043,-0.0055858,0.002,0.0082941
352.7,79.548,0.048239,-0.0054218,0.002,0.0084026
352.52,79.367,0.048278,-0.0053887,0.002,0.0084235
351.58,78.43,0.048474,-0.0052233,0.002,0.0085274
351.37,78.215,0.048513,-0.00519,0.002,0.0085474
350.46,77.314,0.048707,-0.0050233,0.002,0.0086467
350.29,77.141,0.048745,-0.0049898,0.002,0.0086658
349.39,76.237,0.048938,-0.004822,0.002,0.0087606
349.18,76.032,0.048976,-0.0047883,0.002,0.0087787
348,74.854,0.049168,-0.0046196,0.002,0.008869
347.8,74.654,0.049206,-0.0045857,0.002,0.0088862
346.87,73.721,0.049395,-0.0044163,0.002,0.008972
346.69,73.536,0.049433,-0.0043823,0.002,0.0089883
345.73,72.582,0.049622,-0.0042124,0.002,0.0090695
345.5,72.354,0.049659,-0.0041782,0.002,0.0090849
344.06,70.906,0.049846,-0.0040079,0.002,0.0091617
343.77,70.619,0.049883,-0.0039737,0.002,0.0091762
342.46,69.315,0.050068,-0.003803,0.002,0.0092486
342.24,69.087,0.050105,-0.0037688,0.002,0.0092623
341.1,67.953,0.050289,-0.0035981,0.002,0.0093303
340.85,67.705,0.050326,-0.0035639,0.002,0.0093431
339.59,66.438,0.050508,-0.003393,0.002,0.0094068
339.35,66.202,0.050544,-0.0033589,0.002,0.0094187
338.08,64.93,0.050725,-0.003188,0.002,0.0094782
337.8,64.653,0.05076,-0.0031548,0.002,0.009489
336.31,63.164,0.050945,-0.0029785,0.002,0.0095461
336.12,62.971,0.050972,-0.0029533,0.002,0.0095538
335.88,62.732,0.051017,-0.0029095,0.002,0.0095668
335.3,62.147,0.051132,-0.0027993,0.002,0.0096001
335.53,62.379,0.051261,-0.0028196,0.002,0.0094731
335.58,62.433,0.051279,-0.0028225,0.002,0.0094553
336.47,63.316,0.051407,-0.0028424,0.002,0.0093285
336.91,63.759,0.051471,-0.0028523,0.002,0.0092658
336.94,63.794,0.051476,-0.002853,0.002,0.0092608
338.49,65.344,0.051714,-0.0028878,0.002,0.0090257
338.55,65.405,0.051724,-0.0028891,0.002,0.0090158
339.86,66.709,0.051962,-0.0029195,0.002,0.0087795
339.91,66.764,0.051973,-0.0029206,0.002,0.0087685
341.45,68.3,0.052212,-0.0029443,0.002,0.0085306
341.53,68.379,0.052223,-0.0029451,0.002,0.0085194
343.09,69.936,0.052465,-0.0029602,0.002,0.0082783
343.16,70.009,0.052476,-0.0029605,0.002,0.0082668
344.81,71.658,0.052722,-0.0029648,0.002,0.0080214
344.89,71.741,0.052733,-0.0029646,0.002,0.0080097
346.61,73.462,0.052984,-0.0029566,0.002,0.0077597
346.68,73.533,0.052995,-0.0029558,0.002,0.0077479
348.02,74.868,0.053248,-0.0029368,0.002,0.007496
348.09,74.935,0.05326,-0.0029355,0.002,0.0074842
349.52,76.366,0.053511,-0.0029072,0.002,0.0072343
349.58,76.432,0.053523,-0.0029055,0.002,0.0072227
350.86,77.715,0.05377,-0.0028696,0.002,0.0069783
350.92,77.772,0.053781,-0.0028676,0.002,0.0069671
352.21,79.065,0.05402,-0.0028259,0.002,0.0067319
352.28,79.132,0.054031,-0.0028237,0.002,0.0067212
353.79,80.644,0.054258,-0.0027779,0.002,0.006499
353.86,80.712,0.054268,-0.0027755,0.002,0.0064889
355.06,81.908,0.05448,-0.0027273,0.002,0.0062829
355.1,81.953,0.05449,-0.0027248,0.002,0.0062736
356.06,82.914,0.054688,-0.0026736,0.002,0.006082
356.1,82.954,0.054697,-0.002671,0.002,0.0060733
357.16,84.012,0.054889,-0.0026144,0.002,0.0058903
357.21,84.06,0.054898,-0.0026114,0.002,0.0058818
358.22,85.069,0.055089,-0.0025472,0.002,0.0057014
358.28,85.125,0.055098,-0.0025439,0.002,0.0056929
359.15,85.998,0.055297,-0.0024696,0.002,0.005509
359.2,86.052,0.055306,-0.0024657,0.002,0.0055002
360.22,87.067,0.055518,-0.0023792,0.002,0.0053071
360.25,87.103,0.055528,-0.0023747,0.002,0.0052978
361.48,88.33,0.055755,-0.0022756,0.002,0.005094
361.53,88.383,0.055766,-0.0022706,0.002,0.0050843
362.55,89.404,0.056001,-0.002162,0.002,0.004875
362.58,89.434,0.056013,-0.0021566,0.002,0.0048652
363.14,89.992,0.056251,-0.0020417,0.002,0.0046562
363.19,90.036,0.056262,-0.0020361,0.002,0.0046466
364.13,90.981,0.056497,-0.0019182,0.002,0.0044439
364.18,91.032,0.056508,-0.0019125,0.002,0.0044346
365.2,92.053,0.056732,-0.0017949,0.002,0.004244
365.24,92.088,0.056742,-0.0017894,0.002,0.0042355
365.99,92.843,0.056949,-0.0016753,0.002,0.0040627
366.02,92.866,0.056958,-0.0016699,0.002,0.0040551
366.7,93.554,0.057147,-0.0015597,0.002,0.0039012
366.75,93.602,0.057156,-0.0015544,0.002,0.0038943
367.45,94.3,0.057337,-0.0014433,0.002,0.0037519
367.47,94.323,0.057345,-0.0014379,0.002,0.0037454
367.97,94.817,0.057527,-0.0013209,0.002,0.0036064
368.01,94.857,0.057536,-0.001315,0.002,0.0035998
368.72,95.572,0.057728,-0.0011868,0.002,0.0034559
368.76,95.607,0.057738,-0.0011803,0.002,0.003449
369.59,96.436,0.057951,-0.0010358,0.002,0.0032921
369.61,96.464,0.057962,-0.0010284,0.002,0.0032844
370.24,97.086,0.0582,-0.00086505,0.002,0.0031118
370.27,97.121,0.058211,-0.00085686,0.002,0.0031036
371.01,97.864,0.058466,-0.00067734,0.002,0.0029231
371.05,97.897,0.058478,-0.00066847,0.002,0.0029146
371.61,98.46,0.058741,-0.00047619,0.002,0.0027353
371.64,98.489,0.058753,-0.0004668,0.002,0.0027272
372.55,99.401,0.059016,-0.00026511,0.002,0.0025583
372.59,99.436,0.059029,-0.00025537,0.002,0.0025509
373.56,100.41,0.059285,-4.7613e-05,0.002,0.0024014
373.6,100.45,0.059296,-3.7678e-05,0.002,0.0023951
374.19,101.04,0.059539,0.00017278,0.002,0.0022743
374.23,101.08,0.05955,0.00018274,0.002,0.0022695
374.95,101.8,0.059776,0.00039279,0.002,0.0021857
374.98,101.83,0.059787,0.00040269,0.002,0.0021827
375.46,102.31,0.060002,0.00061227,0.002,0.0021345
375.47,102.32,0.060012,0.00062218,0.002,0.0021331
375.82,102.67,0.060224,0.00083337,0.002,0.0021124
375.84,102.69,0.060234,0.00084339,0.002,0.0021121
376.42,103.27,0.060449,0.0010583,0.002,0.0021107
376.44,103.29,0.060459,0.0010685,0.002,0.0021111
376.71,103.56,0.06068,0.0012893,0.002,0.0021208
376.73,103.58,0.060691,0.0012999,0.002,0.0021215
377.03,103.88,0.06092,0.0015286,0.002,0.0021341
377.05,103.9,0.060931,0.0015396,0.002,0.0021348
377.48,104.33,0.061169,0.0017779,0.002,0.0021432
377.49,104.34,0.06118,0.0017893,0.002,0.0021436
377.92,104.77,0.061427,0.0020356,0.002,0.0021473
377.94,104.79,0.061439,0.0020473,0.002,0.0021475
378.26,105.11,0.06169,0.002299,0.002,0.0021484
378.27,105.12,0.061702,0.0023109,0.002,0.0021485
378.7,105.55,0.061956,0.0025653,0.002,0.0021485
378.71,105.56,0.061968,0.0025773,0.002,0.0021486
379.24,106.09,0.062223,0.0028317,0.002,0.0021496
379.26,106.11,0.062235,0.0028436,0.002,0.0021499
379.71,106.56,0.062487,0.0030955,0.002,0.0021538
379.74,106.59,0.062499,0.0031072,0.002,0.0021542
380.18,107.03,0.062745,0.0033539,0.002,0.002163
380.21,107.06,0.062757,0.0033653,0.002,0.0021636
380.5,107.35,0.062997,0.0036054,0.002,0.0021783
380.52,107.37,0.063009,0.0036166,0.002,0.0021793
380.83,107.68,0.063244,0.0038513,0.002,0.0021993
380.85,107.7,0.063255,0.0038622,0.002,0.0022005
381.31,108.16,0.063487,0.0040929,0.002,0.0022254
381.33,108.18,0.063498,0.0041037,0.002,0.0022268
381.75,108.6,0.063728,0.0043318,0.002,0.0022558
381.76,108.61,0.063739,0.0043425,0.002,0.0022574
382.12,108.97,0.063968,0.0045695,0.002,0.0022899
382.14,108.99,0.063979,0.0045802,0.002,0.0022916
382.11,108.96,0.064209,0.0048075,0.002,0.002327
382.13,108.98,0.06422,0.0048182,0.002,0.0023288
382.46,109.31,0.064452,0.0050471,0.002,0.0023666
382.47,109.32,0.064463,0.0050579,0.002,0.0023686
382.7,109.55,0.064698,0.0052891,0.002,0.0024094
382.71,109.56,0.064709,0.0053,0.002,0.0024115
383.08,109.93,0.064947,0.0055341,0.002,0.0024559
383.09,109.94,0.064958,0.0055452,0.002,0.0024582
383.41,110.26,0.065201,0.0057828,0.002,0.0025068
383.41,110.26,0.065212,0.0057941,0.002,0.0025093
383.14,109.99,0.06546,0.0060359,0.002,0.0025629
383.14,109.99,0.065472,0.0060474,0.002,0.0025657
383.21,110.06,0.065725,0.006294,0.002,0.0026248
383.22,110.07,0.065737,0.0063057,0.002,0.0026279
383.43,110.28,0.065998,0.0065574,0.002,0.0026931
383.44,110.29,0.06601,0.0065693,0.002,0.0026965
383.47,110.32,0.066273,0.0068228,0.002,0.0027667
383.48,110.33,0.066285,0.0068347,0.002,0.0027702
383.46,110.31,0.066545,0.0070842,0.002,0.002843
383.45,110.3,0.066557,0.0070957,0.002,0.0028466
383.32,110.17,0.066808,0.0073353,0.002,0.0029196
383.31,110.16,0.066819,0.0073462,0.002,0.0029231
383.22,110.07,0.067054,0.0075701,0.002,0.002994
383.22,110.07,0.067065,0.0075801,0.002,0.0029974
382.92,109.77,0.067278,0.0077824,0.002,0.0030637
382.91,109.76,0.067287,0.0077913,0.002,0.0030668
382.68,109.53,0.067472,0.0079661,0.002,0.0031264
382.67,109.52,0.06748,0.0079736,0.002,0.0031291
382.38,109.23,0.067636,0.0081214,0.002,0.0031815
382.37,109.22,0.067643,0.0081279,0.002,0.003184
382.22,109.07,0.067784,0.0082596,0.002,0.0032328
382.2,109.05,0.06779,0.0082656,0.002,0.0032351
382.05,108.9,0.067927,0.0083934,0.002,0.0032841
382.04,108.89,0.067934,0.0083995,0.002,0.0032865
381.68,108.53,0.068079,0.0085354,0.002,0.0033394
381.67,108.52,0.068087,0.008542,0.002,0.0033421
381.44,108.29,0.068248,0.008692,0.002,0.0034013
381.42,108.27,0.068256,0.0086993,0.002,0.0034043
380.98,107.83,0.068432,0.0088622,0.002,0.0034702
380.96,107.81,0.068439,0.0088694,0.002,0.0034732
380.54,107.39,0.068627,0.0090422,0.002,0.0035459
380.53,107.38,0.068631,0.0090459,0.002,0.0035475
380.41,107.26,0.068683,0.0090936,0.002,0.0035684
380.17,107.02,0.06879,0.0091913,0.002,0.0036113
380.11,106.96,0.068805,0.0092053,0.002,0.0036175
