This is BibTeX, Version 0.99d (TeX Live 2015/Debian)
Capacity: max_strings=35307, hash_size=35307, hash_prime=30011
The top-level auxiliary file: ./build/Dissertacao_do_Mestrado.aux
The style file: abntex2-alf.bst
Reallocated singl_function (elt_size=4) to 100 items from 50.
Reallocated singl_function (elt_size=4) to 100 items from 50.
Reallocated singl_function (elt_size=4) to 100 items from 50.
Reallocated singl_function (elt_size=4) to 100 items from 50.
Reallocated wiz_functions (elt_size=4) to 6000 items from 3000.
Reallocated singl_function (elt_size=4) to 100 items from 50.
Reallocated singl_function (elt_size=4) to 100 items from 50.
Reallocated singl_function (elt_size=4) to 100 items from 50.
Reallocated wiz_functions (elt_size=4) to 9000 items from 6000.
Database file #1: abntex2-options.bib
Database file #2: tex_includes/referencias.bib
Reallocated singl_function (elt_size=4) to 100 items from 50.
Reallocated glb_str_ptr (elt_size=4) to 20 items from 10.
Reallocated global_strs (elt_size=20001) to 20 items from 10.
Reallocated glb_str_end (elt_size=4) to 20 items from 10.
+---------------------------------------------------------+
| Estilo bibliográfico abntex2-alf.bst versão v-1.9.6           |
| Em caso de dúvidas ou problemas com este estilo procure |
| http://www.abntex.net.br/                               |
+---------------------------------------------------------+
You've used 3 entries,
            6714 wiz_defined-function locations,
            1207 strings with 9549 characters,
and the built_in function-call counts, 2180 in all, are:
= -- 281
> -- 35
< -- 6
+ -- 59
- -- 12
* -- 118
:= -- 316
add.period$ -- 3
call.type$ -- 4
change.case$ -- 17
chr.to.int$ -- 13
cite$ -- 1
duplicate$ -- 61
empty$ -- 169
format.name$ -- 47
if$ -- 531
int.to.chr$ -- 1
int.to.str$ -- 2
missing$ -- 39
newline$ -- 13
num.names$ -- 5
pop$ -- 54
preamble$ -- 1
purify$ -- 10
quote$ -- 0
skip$ -- 197
stack$ -- 1
substring$ -- 112
swap$ -- 32
text.length$ -- 3
text.prefix$ -- 0
top$ -- 0
type$ -- 0
warning$ -- 0
while$ -- 11
width$ -- 0
write$ -- 26
