\relax 
\providecommand\zref@newlabel[2]{}
\catcode `"\active 
\citation{abnt-url-package=url}
\citation{abnt-etal-cite=2}
\providecommand \oddpage@label [2]{}
\select@language{portuguese}
\@writefile{toc}{\select@language{portuguese}}
\@writefile{lof}{\select@language{portuguese}}
\@writefile{lot}{\select@language{portuguese}}
\@writefile{toc}{\contentsline {chapter}{Lista de Figuras}{xix}}
\@writefile{toc}{\contentsline {chapter}{Lista de Tabelas}{xxi}}
\@writefile{toc}{\contentsline {chapter}{Lista de S\IeC {\'\i }mbolos}{xxiii}}
\@writefile{toc}{\contentsline {chapter}{\numberline {1}Introdu\IeC {\c c}\IeC {\~a}o}{1}}
\@writefile{lof}{\addvspace {10\p@ }}
\@writefile{lot}{\addvspace {10\p@ }}
\newlabel{introducao}{{1}{1}}
\newlabel{introducao@cref}{{[chapter][1][]1}{1}}
\@writefile{toc}{\contentsline {chapter}{\numberline {2}Estado da Arte}{3}}
\@writefile{lof}{\addvspace {10\p@ }}
\@writefile{lot}{\addvspace {10\p@ }}
\newlabel{estado_da_arte}{{2}{3}}
\newlabel{estado_da_arte@cref}{{[chapter][2][]2}{3}}
\@writefile{toc}{\contentsline {chapter}{\numberline {3}Embasamento Te\IeC {\'o}rico}{5}}
\@writefile{lof}{\addvspace {10\p@ }}
\@writefile{lot}{\addvspace {10\p@ }}
\newlabel{embasamento_teorico}{{3}{5}}
\newlabel{embasamento_teorico@cref}{{[chapter][3][]3}{5}}
\@writefile{toc}{\contentsline {chapter}{\numberline {4}Aparato experimental}{7}}
\@writefile{lof}{\addvspace {10\p@ }}
\@writefile{lot}{\addvspace {10\p@ }}
\newlabel{aparato_experimental}{{4}{7}}
\newlabel{aparato_experimental@cref}{{[chapter][4][]4}{7}}
\@writefile{toc}{\contentsline {chapter}{\numberline {5}Modelamento num\IeC {\'e}rico}{9}}
\@writefile{lof}{\addvspace {10\p@ }}
\@writefile{lot}{\addvspace {10\p@ }}
\newlabel{modelamento_numerico}{{5}{9}}
\newlabel{modelamento_numerico@cref}{{[chapter][5][]5}{9}}
\newlabel{discretizacao:equacao_de_transporte_discretizada}{{5.0.2 }{9}}
\newlabel{discretizacao:equacao_de_transporte_discretizada@cref}{{[equation][2][5]5.0.2 }{9}}
\citation{referenciaUm}
\expandafter \gdef \csname pgfplots@labelstyle@rotacao:R5\endcsname {blue={\pgfkeysnovalue },every mark/.append style={fill=blue!80!black},mark={*},mark={square},color={blue}}
\expandafter \gdef \csname pgfplots@show@ref@rotacao:R5\endcsname {\begingroup \def \pgfplots@draw@image {\def \tikz@plot@handler {\pgfkeys {/pgf/plots/@handler options/.cd, start=\relax , end macro=\relax , point macro=\pgfutil@gobble , jump macro=\relax , special macro=\pgfutil@gobble , point macro=\pgf@plot@line@handler , jump=\global \let \pgf@plotstreampoint \pgf@plot@line@handler@move }\begingroup \escapechar =-1 \edef \pgfplotsplothandlername {\string \pgfplothandlerlineto }\pgfmath@smuggleone \pgfplotsplothandlername \endgroup \def \pgfplotsplothandlerLUAfactory {function(axis, pointmetainputhandler) return pgfplots.GenericPlothandler.new("\pgfplotsplothandlername ", axis,pointmetainputhandler) end}\def \pgfplotsplothandlerLUAvisualizerfactory {pgfplots.defaultPlotVisualizerFactory}}\pgfkeysdef {/pgfplots/legend image code}{\draw [/pgfplots/mesh=false,bar width=3pt,bar shift=0pt,mark repeat=2,mark phase=2,] plot coordinates { (0cm,0cm) (0.3cm,0cm) (0.6cm,0cm)};}\pgfkeysdef {/pgfplots/every legend image post}{}\pgfkeyssetvalue {/pgfplots/mark list fill}{.!80!black}\pgfkeysdef {/pgfplots/every crossref picture}{\pgfkeysalso {baseline,yshift=0.3em}}\pgfplots@show@small@legendplots {blue={\pgfkeysnovalue },every mark/.append style={fill=blue!80!black},mark={*},mark={square},color={blue}}{}}\ifpgfpicture \scope [/pgfplots/every crossref picture]\pgfplots@draw@image \endscope \else \expandafter \ifx \csname tikzappendtofigurename\endcsname \relax \else \begingroup \tikzappendtofigurename {_crossref}\fi \tikz [/pgfplots/every crossref picture]{\pgfplots@draw@image }\expandafter \ifx \csname tikzappendtofigurename\endcsname \relax \else \endgroup \fi \fi \endgroup }
\expandafter \gdef \csname pgfplots@labelstyle@rotacao:l_020\endcsname {blue={\pgfkeysnovalue },every mark/.append style={fill=blue!80!black},mark={*},mark={square},color={blue}}
\expandafter \gdef \csname pgfplots@show@ref@rotacao:l_020\endcsname {\begingroup \def \pgfplots@draw@image {\def \tikz@plot@handler {\pgfkeys {/pgf/plots/@handler options/.cd, start=\relax , end macro=\relax , point macro=\pgfutil@gobble , jump macro=\relax , special macro=\pgfutil@gobble , point macro=\pgf@plot@line@handler , jump=\global \let \pgf@plotstreampoint \pgf@plot@line@handler@move }\begingroup \escapechar =-1 \edef \pgfplotsplothandlername {\string \pgfplothandlerlineto }\pgfmath@smuggleone \pgfplotsplothandlername \endgroup \def \pgfplotsplothandlerLUAfactory {function(axis, pointmetainputhandler) return pgfplots.GenericPlothandler.new("\pgfplotsplothandlername ", axis,pointmetainputhandler) end}\def \pgfplotsplothandlerLUAvisualizerfactory {pgfplots.defaultPlotVisualizerFactory}}\pgfkeysdef {/pgfplots/legend image code}{\draw [/pgfplots/mesh=false,bar width=3pt,bar shift=0pt,mark repeat=2,mark phase=2,] plot coordinates { (0cm,0cm) (0.3cm,0cm) (0.6cm,0cm)};}\pgfkeysdef {/pgfplots/every legend image post}{}\pgfkeyssetvalue {/pgfplots/mark list fill}{.!80!black}\pgfkeysdef {/pgfplots/every crossref picture}{\pgfkeysalso {baseline,yshift=0.3em}}\pgfplots@show@small@legendplots {blue={\pgfkeysnovalue },every mark/.append style={fill=blue!80!black},mark={*},mark={square},color={blue}}{}}\ifpgfpicture \scope [/pgfplots/every crossref picture]\pgfplots@draw@image \endscope \else \expandafter \ifx \csname tikzappendtofigurename\endcsname \relax \else \begingroup \tikzappendtofigurename {_crossref}\fi \tikz [/pgfplots/every crossref picture]{\pgfplots@draw@image }\expandafter \ifx \csname tikzappendtofigurename\endcsname \relax \else \endgroup \fi \fi \endgroup }
\expandafter \gdef \csname pgfplots@labelstyle@rotacao:l_030\endcsname {red={\pgfkeysnovalue },every mark/.append style={fill=red!80!black},mark={square*},mark={triangle},color={red}}
\expandafter \gdef \csname pgfplots@show@ref@rotacao:l_030\endcsname {\begingroup \def \pgfplots@draw@image {\def \tikz@plot@handler {\pgfkeys {/pgf/plots/@handler options/.cd, start=\relax , end macro=\relax , point macro=\pgfutil@gobble , jump macro=\relax , special macro=\pgfutil@gobble , point macro=\pgf@plot@line@handler , jump=\global \let \pgf@plotstreampoint \pgf@plot@line@handler@move }\begingroup \escapechar =-1 \edef \pgfplotsplothandlername {\string \pgfplothandlerlineto }\pgfmath@smuggleone \pgfplotsplothandlername \endgroup \def \pgfplotsplothandlerLUAfactory {function(axis, pointmetainputhandler) return pgfplots.GenericPlothandler.new("\pgfplotsplothandlername ", axis,pointmetainputhandler) end}\def \pgfplotsplothandlerLUAvisualizerfactory {pgfplots.defaultPlotVisualizerFactory}}\pgfkeysdef {/pgfplots/legend image code}{\draw [/pgfplots/mesh=false,bar width=3pt,bar shift=0pt,mark repeat=2,mark phase=2,] plot coordinates { (0cm,0cm) (0.3cm,0cm) (0.6cm,0cm)};}\pgfkeysdef {/pgfplots/every legend image post}{}\pgfkeyssetvalue {/pgfplots/mark list fill}{.!80!black}\pgfkeysdef {/pgfplots/every crossref picture}{\pgfkeysalso {baseline,yshift=0.3em}}\pgfplots@show@small@legendplots {red={\pgfkeysnovalue },every mark/.append style={fill=red!80!black},mark={square*},mark={triangle},color={red}}{}}\ifpgfpicture \scope [/pgfplots/every crossref picture]\pgfplots@draw@image \endscope \else \expandafter \ifx \csname tikzappendtofigurename\endcsname \relax \else \begingroup \tikzappendtofigurename {_crossref}\fi \tikz [/pgfplots/every crossref picture]{\pgfplots@draw@image }\expandafter \ifx \csname tikzappendtofigurename\endcsname \relax \else \endgroup \fi \fi \endgroup }
\expandafter \gdef \csname pgfplots@labelstyle@rotacao:l_040\endcsname {brown!60!black={\pgfkeysnovalue },every mark/.append style={fill=brown!80!black},mark={otimes*},mark={otimes},color={green}}
\expandafter \gdef \csname pgfplots@show@ref@rotacao:l_040\endcsname {\begingroup \def \pgfplots@draw@image {\def \tikz@plot@handler {\pgfkeys {/pgf/plots/@handler options/.cd, start=\relax , end macro=\relax , point macro=\pgfutil@gobble , jump macro=\relax , special macro=\pgfutil@gobble , point macro=\pgf@plot@line@handler , jump=\global \let \pgf@plotstreampoint \pgf@plot@line@handler@move }\begingroup \escapechar =-1 \edef \pgfplotsplothandlername {\string \pgfplothandlerlineto }\pgfmath@smuggleone \pgfplotsplothandlername \endgroup \def \pgfplotsplothandlerLUAfactory {function(axis, pointmetainputhandler) return pgfplots.GenericPlothandler.new("\pgfplotsplothandlername ", axis,pointmetainputhandler) end}\def \pgfplotsplothandlerLUAvisualizerfactory {pgfplots.defaultPlotVisualizerFactory}}\pgfkeysdef {/pgfplots/legend image code}{\draw [/pgfplots/mesh=false,bar width=3pt,bar shift=0pt,mark repeat=2,mark phase=2,] plot coordinates { (0cm,0cm) (0.3cm,0cm) (0.6cm,0cm)};}\pgfkeysdef {/pgfplots/every legend image post}{}\pgfkeyssetvalue {/pgfplots/mark list fill}{.!80!black}\pgfkeysdef {/pgfplots/every crossref picture}{\pgfkeysalso {baseline,yshift=0.3em}}\pgfplots@show@small@legendplots {brown!60!black={\pgfkeysnovalue },every mark/.append style={fill=brown!80!black},mark={otimes*},mark={otimes},color={green}}{}}\ifpgfpicture \scope [/pgfplots/every crossref picture]\pgfplots@draw@image \endscope \else \expandafter \ifx \csname tikzappendtofigurename\endcsname \relax \else \begingroup \tikzappendtofigurename {_crossref}\fi \tikz [/pgfplots/every crossref picture]{\pgfplots@draw@image }\expandafter \ifx \csname tikzappendtofigurename\endcsname \relax \else \endgroup \fi \fi \endgroup }
\expandafter \gdef \csname pgfplots@labelstyle@rotacao:l_050\endcsname {black={\pgfkeysnovalue },mark={star},mark={diamond},color={purple}}
\expandafter \gdef \csname pgfplots@show@ref@rotacao:l_050\endcsname {\begingroup \def \pgfplots@draw@image {\def \tikz@plot@handler {\pgfkeys {/pgf/plots/@handler options/.cd, start=\relax , end macro=\relax , point macro=\pgfutil@gobble , jump macro=\relax , special macro=\pgfutil@gobble , point macro=\pgf@plot@line@handler , jump=\global \let \pgf@plotstreampoint \pgf@plot@line@handler@move }\begingroup \escapechar =-1 \edef \pgfplotsplothandlername {\string \pgfplothandlerlineto }\pgfmath@smuggleone \pgfplotsplothandlername \endgroup \def \pgfplotsplothandlerLUAfactory {function(axis, pointmetainputhandler) return pgfplots.GenericPlothandler.new("\pgfplotsplothandlername ", axis,pointmetainputhandler) end}\def \pgfplotsplothandlerLUAvisualizerfactory {pgfplots.defaultPlotVisualizerFactory}}\pgfkeysdef {/pgfplots/legend image code}{\draw [/pgfplots/mesh=false,bar width=3pt,bar shift=0pt,mark repeat=2,mark phase=2,] plot coordinates { (0cm,0cm) (0.3cm,0cm) (0.6cm,0cm)};}\pgfkeysdef {/pgfplots/every legend image post}{}\pgfkeyssetvalue {/pgfplots/mark list fill}{.!80!black}\pgfkeysdef {/pgfplots/every crossref picture}{\pgfkeysalso {baseline,yshift=0.3em}}\pgfplots@show@small@legendplots {black={\pgfkeysnovalue },mark={star},mark={diamond},color={purple}}{}}\ifpgfpicture \scope [/pgfplots/every crossref picture]\pgfplots@draw@image \endscope \else \expandafter \ifx \csname tikzappendtofigurename\endcsname \relax \else \begingroup \tikzappendtofigurename {_crossref}\fi \tikz [/pgfplots/every crossref picture]{\pgfplots@draw@image }\expandafter \ifx \csname tikzappendtofigurename\endcsname \relax \else \endgroup \fi \fi \endgroup }
\@writefile{toc}{\contentsline {chapter}{\numberline {6}Resultados e discuss\IeC {\~o}es}{11}}
\@writefile{lof}{\addvspace {10\p@ }}
\@writefile{lot}{\addvspace {10\p@ }}
\newlabel{resultados_e_discussoes}{{6}{11}}
\newlabel{resultados_e_discussoes@cref}{{[chapter][6][]6}{11}}
\@writefile{toc}{\contentsline {subsection}{\numberline {6.0.1}Exemplo de gr\IeC {\'a}fico bipartido}{11}}
\@writefile{lof}{\contentsline {figure}{\numberline {6.1}{\ignorespaces Temperatura da base (\Tbase ) em fun\IeC {\c c}\IeC {\~a}o a rota\IeC {\c c}\IeC {\~a}o da broca (\Nbiqueira ) para v\IeC {\'a}rias vaz\IeC {\~o}es de fluido (\lfluido ).\relax }}{11}}
\providecommand*\caption@xref[2]{\@setref\relax\@undefined{#1}}
\newlabel{rotacao:R5}{{\expandafter\protect\csname pgfplots@show@ref@rotacao:R5\endcsname}{11}}
\newlabel{rotacao:R5@cref}{{[figure][1][6]6.1}{11}}
\newlabel{rotacao:l_020}{{\expandafter\protect\csname pgfplots@show@ref@rotacao:l_020\endcsname}{11}}
\newlabel{rotacao:l_020@cref}{{[figure][1][6]6.1}{11}}
\newlabel{rotacao:l_030}{{\expandafter\protect\csname pgfplots@show@ref@rotacao:l_030\endcsname}{11}}
\newlabel{rotacao:l_030@cref}{{[figure][1][6]6.1}{11}}
\newlabel{rotacao:l_040}{{\expandafter\protect\csname pgfplots@show@ref@rotacao:l_040\endcsname}{11}}
\newlabel{rotacao:l_040@cref}{{[figure][1][6]6.1}{11}}
\newlabel{rotacao:l_050}{{\expandafter\protect\csname pgfplots@show@ref@rotacao:l_050\endcsname}{11}}
\newlabel{rotacao:l_050@cref}{{[figure][1][6]6.1}{11}}
\newlabel{t_base:rotacao_vazao}{{6.1}{11}}
\newlabel{t_base:rotacao_vazao@cref}{{[figure][1][6]6.1}{11}}
\expandafter \gdef \csname pgfplots@labelstyle@bar_011\endcsname {plot 1={\pgfkeysnovalue },bar group size={{0}{3}}}
\expandafter \gdef \csname pgfplots@show@ref@bar_011\endcsname {\begingroup \def \pgfplots@draw@image {\def \tikz@plot@handler {\pgfkeys {/pgf/plots/@handler options/.cd, start=\relax , end macro=\relax , point macro=\pgfutil@gobble , jump macro=\relax , special macro=\pgfutil@gobble ,start={ \pgfmathparse {\pgfplotbarwidth }\xdef \pgfplotbarwidth@ {\pgfmathresult pt}\pgfmathparse {\pgfplotbarshift }\xdef \pgfplotbarshift@ {\pgfmathresult pt}\pgfplotyzerolevelstreamstart }, end macro=\pgfplotyzerolevelstreamend , point macro=\pgf@plot@ybar@handler }\begingroup \escapechar =-1 \edef \pgfplotsplothandlername {\string \pgfplothandlerybar }\pgfmath@smuggleone \pgfplotsplothandlername \endgroup \def \pgfplotsplothandlerLUAfactory {function(axis, pointmetainputhandler) return pgfplots.GenericPlothandler.new("\pgfplotsplothandlername ", axis,pointmetainputhandler) end}\def \pgfplotsplothandlerLUAvisualizerfactory {pgfplots.defaultPlotVisualizerFactory}\let \pgfplotsplothandlersurveydifflen =\pgfplotsplothandlersurveydifflen@snaptonearest \let \pgfplotsplothandlersurveypointattime =\pgfplotsplothandlersurveypointattime@snaptonearest \def \pgfplotbarwidth {\pgfplots@ybar@width }\def \pgfplotbarshift {\pgfplots@ybar@shift }}\pgfkeysdef {/pgfplots/legend image code}{\draw [,/tikz/.cd,bar width=3pt,yshift=-0.2em,bar shift=0pt] plot coordinates {(0cm,0.8em) (2*\pgfplotbarwidth ,0.6em)};}\pgfkeysdef {/pgfplots/every legend image post}{}\pgfkeyssetvalue {/pgfplots/mark list fill}{.!80!black}\pgfkeysdef {/pgfplots/every crossref picture}{\pgfkeysalso {baseline,yshift=0.3em}}\pgfplots@show@small@legendplots {plot 1={\pgfkeysnovalue },bar group size={{0}{3}}}{}}\ifpgfpicture \scope [/pgfplots/every crossref picture]\pgfplots@draw@image \endscope \else \expandafter \ifx \csname tikzappendtofigurename\endcsname \relax \else \begingroup \tikzappendtofigurename {_crossref}\fi \tikz [/pgfplots/every crossref picture]{\pgfplots@draw@image }\expandafter \ifx \csname tikzappendtofigurename\endcsname \relax \else \endgroup \fi \fi \endgroup }
\expandafter \gdef \csname pgfplots@labelstyle@bar_022\endcsname {plot 2={\pgfkeysnovalue },bar group size={{1}{3}}}
\expandafter \gdef \csname pgfplots@show@ref@bar_022\endcsname {\begingroup \def \pgfplots@draw@image {\def \tikz@plot@handler {\pgfkeys {/pgf/plots/@handler options/.cd, start=\relax , end macro=\relax , point macro=\pgfutil@gobble , jump macro=\relax , special macro=\pgfutil@gobble ,start={ \pgfmathparse {\pgfplotbarwidth }\xdef \pgfplotbarwidth@ {\pgfmathresult pt}\pgfmathparse {\pgfplotbarshift }\xdef \pgfplotbarshift@ {\pgfmathresult pt}\pgfplotyzerolevelstreamstart }, end macro=\pgfplotyzerolevelstreamend , point macro=\pgf@plot@ybar@handler }\begingroup \escapechar =-1 \edef \pgfplotsplothandlername {\string \pgfplothandlerybar }\pgfmath@smuggleone \pgfplotsplothandlername \endgroup \def \pgfplotsplothandlerLUAfactory {function(axis, pointmetainputhandler) return pgfplots.GenericPlothandler.new("\pgfplotsplothandlername ", axis,pointmetainputhandler) end}\def \pgfplotsplothandlerLUAvisualizerfactory {pgfplots.defaultPlotVisualizerFactory}\let \pgfplotsplothandlersurveydifflen =\pgfplotsplothandlersurveydifflen@snaptonearest \let \pgfplotsplothandlersurveypointattime =\pgfplotsplothandlersurveypointattime@snaptonearest \def \pgfplotbarwidth {\pgfplots@ybar@width }\def \pgfplotbarshift {\pgfplots@ybar@shift }}\pgfkeysdef {/pgfplots/legend image code}{\draw [,/tikz/.cd,bar width=3pt,yshift=-0.2em,bar shift=0pt] plot coordinates {(0cm,0.8em) (2*\pgfplotbarwidth ,0.6em)};}\pgfkeysdef {/pgfplots/every legend image post}{}\pgfkeyssetvalue {/pgfplots/mark list fill}{.!80!black}\pgfkeysdef {/pgfplots/every crossref picture}{\pgfkeysalso {baseline,yshift=0.3em}}\pgfplots@show@small@legendplots {plot 2={\pgfkeysnovalue },bar group size={{1}{3}}}{}}\ifpgfpicture \scope [/pgfplots/every crossref picture]\pgfplots@draw@image \endscope \else \expandafter \ifx \csname tikzappendtofigurename\endcsname \relax \else \begingroup \tikzappendtofigurename {_crossref}\fi \tikz [/pgfplots/every crossref picture]{\pgfplots@draw@image }\expandafter \ifx \csname tikzappendtofigurename\endcsname \relax \else \endgroup \fi \fi \endgroup }
\expandafter \gdef \csname pgfplots@labelstyle@bar_033\endcsname {plot 3={\pgfkeysnovalue },bar group size={{2}{3}}}
\expandafter \gdef \csname pgfplots@show@ref@bar_033\endcsname {\begingroup \def \pgfplots@draw@image {\def \tikz@plot@handler {\pgfkeys {/pgf/plots/@handler options/.cd, start=\relax , end macro=\relax , point macro=\pgfutil@gobble , jump macro=\relax , special macro=\pgfutil@gobble ,start={ \pgfmathparse {\pgfplotbarwidth }\xdef \pgfplotbarwidth@ {\pgfmathresult pt}\pgfmathparse {\pgfplotbarshift }\xdef \pgfplotbarshift@ {\pgfmathresult pt}\pgfplotyzerolevelstreamstart }, end macro=\pgfplotyzerolevelstreamend , point macro=\pgf@plot@ybar@handler }\begingroup \escapechar =-1 \edef \pgfplotsplothandlername {\string \pgfplothandlerybar }\pgfmath@smuggleone \pgfplotsplothandlername \endgroup \def \pgfplotsplothandlerLUAfactory {function(axis, pointmetainputhandler) return pgfplots.GenericPlothandler.new("\pgfplotsplothandlername ", axis,pointmetainputhandler) end}\def \pgfplotsplothandlerLUAvisualizerfactory {pgfplots.defaultPlotVisualizerFactory}\let \pgfplotsplothandlersurveydifflen =\pgfplotsplothandlersurveydifflen@snaptonearest \let \pgfplotsplothandlersurveypointattime =\pgfplotsplothandlersurveypointattime@snaptonearest \def \pgfplotbarwidth {\pgfplots@ybar@width }\def \pgfplotbarshift {\pgfplots@ybar@shift }}\pgfkeysdef {/pgfplots/legend image code}{\draw [,/tikz/.cd,bar width=3pt,yshift=-0.2em,bar shift=0pt] plot coordinates {(0cm,0.8em) (2*\pgfplotbarwidth ,0.6em)};}\pgfkeysdef {/pgfplots/every legend image post}{}\pgfkeyssetvalue {/pgfplots/mark list fill}{.!80!black}\pgfkeysdef {/pgfplots/every crossref picture}{\pgfkeysalso {baseline,yshift=0.3em}}\pgfplots@show@small@legendplots {plot 3={\pgfkeysnovalue },bar group size={{2}{3}}}{}}\ifpgfpicture \scope [/pgfplots/every crossref picture]\pgfplots@draw@image \endscope \else \expandafter \ifx \csname tikzappendtofigurename\endcsname \relax \else \begingroup \tikzappendtofigurename {_crossref}\fi \tikz [/pgfplots/every crossref picture]{\pgfplots@draw@image }\expandafter \ifx \csname tikzappendtofigurename\endcsname \relax \else \endgroup \fi \fi \endgroup }
\expandafter \gdef \csname pgfplots@labelstyle@bar_044\endcsname {plot 0={\pgfkeysnovalue },bar group size={{0}{4}}}
\expandafter \gdef \csname pgfplots@show@ref@bar_044\endcsname {\begingroup \def \pgfplots@draw@image {\def \tikz@plot@handler {\pgfkeys {/pgf/plots/@handler options/.cd, start=\relax , end macro=\relax , point macro=\pgfutil@gobble , jump macro=\relax , special macro=\pgfutil@gobble ,start={ \pgfmathparse {\pgfplotbarwidth }\xdef \pgfplotbarwidth@ {\pgfmathresult pt}\pgfmathparse {\pgfplotbarshift }\xdef \pgfplotbarshift@ {\pgfmathresult pt}\pgfplotyzerolevelstreamstart }, end macro=\pgfplotyzerolevelstreamend , point macro=\pgf@plot@ybar@handler }\begingroup \escapechar =-1 \edef \pgfplotsplothandlername {\string \pgfplothandlerybar }\pgfmath@smuggleone \pgfplotsplothandlername \endgroup \def \pgfplotsplothandlerLUAfactory {function(axis, pointmetainputhandler) return pgfplots.GenericPlothandler.new("\pgfplotsplothandlername ", axis,pointmetainputhandler) end}\def \pgfplotsplothandlerLUAvisualizerfactory {pgfplots.defaultPlotVisualizerFactory}\let \pgfplotsplothandlersurveydifflen =\pgfplotsplothandlersurveydifflen@snaptonearest \let \pgfplotsplothandlersurveypointattime =\pgfplotsplothandlersurveypointattime@snaptonearest \def \pgfplotbarwidth {\pgfplots@ybar@width }\def \pgfplotbarshift {\pgfplots@ybar@shift }}\pgfkeysdef {/pgfplots/legend image code}{\draw [,/tikz/.cd,bar width=3pt,yshift=-0.2em,bar shift=0pt] plot coordinates {(0cm,0.8em) (2*\pgfplotbarwidth ,0.6em)};}\pgfkeysdef {/pgfplots/every legend image post}{}\pgfkeyssetvalue {/pgfplots/mark list fill}{.!80!black}\pgfkeysdef {/pgfplots/every crossref picture}{\pgfkeysalso {baseline,yshift=0.3em}}\pgfplots@show@small@legendplots {plot 0={\pgfkeysnovalue },bar group size={{0}{4}}}{}}\ifpgfpicture \scope [/pgfplots/every crossref picture]\pgfplots@draw@image \endscope \else \expandafter \ifx \csname tikzappendtofigurename\endcsname \relax \else \begingroup \tikzappendtofigurename {_crossref}\fi \tikz [/pgfplots/every crossref picture]{\pgfplots@draw@image }\expandafter \ifx \csname tikzappendtofigurename\endcsname \relax \else \endgroup \fi \fi \endgroup }
\@writefile{toc}{\contentsline {subsection}{\numberline {6.0.2}Exemplo de gr\IeC {\'a}fico de barras com n\IeC {\'u}mero de colunas diferentes}{12}}
\@writefile{lof}{\contentsline {figure}{\numberline {6.2}{\ignorespaces Quantidade de calor que vai para a broca \Qbroca .\relax }}{12}}
\newlabel{bar_011}{{\expandafter\protect\csname pgfplots@show@ref@bar_011\endcsname}{12}}
\newlabel{bar_011@cref}{{[figure][2][6]6.2}{12}}
\newlabel{bar_022}{{\expandafter\protect\csname pgfplots@show@ref@bar_022\endcsname}{12}}
\newlabel{bar_022@cref}{{[figure][2][6]6.2}{12}}
\newlabel{bar_033}{{\expandafter\protect\csname pgfplots@show@ref@bar_033\endcsname}{12}}
\newlabel{bar_033@cref}{{[figure][2][6]6.2}{12}}
\newlabel{bar_044}{{\expandafter\protect\csname pgfplots@show@ref@bar_044\endcsname}{12}}
\newlabel{bar_044@cref}{{[figure][2][6]6.2}{12}}
\newlabel{perda_de_calor:grafico}{{6.2}{12}}
\newlabel{perda_de_calor:grafico@cref}{{[figure][2][6]6.2}{12}}
\@writefile{toc}{\contentsline {section}{\numberline {6.1}Exemplo de gr\IeC {\'a}fico 3D com execu\IeC {\c c}\IeC {\~a}o externa}{13}}
\@writefile{lof}{\contentsline {figure}{\numberline {6.3}{\ignorespaces Temperatura na superf\IeC {\'\i }cie da broca em fun\IeC {\c c}\IeC {\~a}o do arco $Arc$ e do comprimento $Y$, para as condi\IeC {\c c}\IeC {\~o}es de \lfluido \ $=0,2$ \unitvazao [s]\ e \Nbiqueira $=365$ \unitrotacao [s].\relax }}{13}}
\newlabel{temperatura:perfil_aberto}{{6.3}{13}}
\newlabel{temperatura:perfil_aberto@cref}{{[figure][3][6]6.3}{13}}
\expandafter \gdef \csname pgfplots@labelstyle@bar_0111\endcsname {plot 1={\pgfkeysnovalue },bar group size={{0}{3}}}
\expandafter \gdef \csname pgfplots@show@ref@bar_0111\endcsname {\begingroup \def \pgfplots@draw@image {\def \tikz@plot@handler {\pgfkeys {/pgf/plots/@handler options/.cd, start=\relax , end macro=\relax , point macro=\pgfutil@gobble , jump macro=\relax , special macro=\pgfutil@gobble ,start={ \pgfmathparse {\pgfplotbarwidth }\xdef \pgfplotbarwidth@ {\pgfmathresult pt}\pgfmathparse {\pgfplotbarshift }\xdef \pgfplotbarshift@ {\pgfmathresult pt}\pgfplotyzerolevelstreamstart }, end macro=\pgfplotyzerolevelstreamend , point macro=\pgf@plot@ybar@handler }\begingroup \escapechar =-1 \edef \pgfplotsplothandlername {\string \pgfplothandlerybar }\pgfmath@smuggleone \pgfplotsplothandlername \endgroup \def \pgfplotsplothandlerLUAfactory {function(axis, pointmetainputhandler) return pgfplots.GenericPlothandler.new("\pgfplotsplothandlername ", axis,pointmetainputhandler) end}\def \pgfplotsplothandlerLUAvisualizerfactory {pgfplots.defaultPlotVisualizerFactory}\let \pgfplotsplothandlersurveydifflen =\pgfplotsplothandlersurveydifflen@snaptonearest \let \pgfplotsplothandlersurveypointattime =\pgfplotsplothandlersurveypointattime@snaptonearest \def \pgfplotbarwidth {\pgfplots@ybar@width }\def \pgfplotbarshift {\pgfplots@ybar@shift }}\pgfkeysdef {/pgfplots/legend image code}{\draw [,/tikz/.cd,bar width=3pt,yshift=-0.2em,bar shift=0pt] plot coordinates {(0cm,0.8em) (2*\pgfplotbarwidth ,0.6em)};}\pgfkeysdef {/pgfplots/every legend image post}{}\pgfkeyssetvalue {/pgfplots/mark list fill}{.!80!black}\pgfkeysdef {/pgfplots/every crossref picture}{\pgfkeysalso {baseline,yshift=0.3em}}\pgfplots@show@small@legendplots {plot 1={\pgfkeysnovalue },bar group size={{0}{3}}}{}}\ifpgfpicture \scope [/pgfplots/every crossref picture]\pgfplots@draw@image \endscope \else \expandafter \ifx \csname tikzappendtofigurename\endcsname \relax \else \begingroup \tikzappendtofigurename {_crossref}\fi \tikz [/pgfplots/every crossref picture]{\pgfplots@draw@image }\expandafter \ifx \csname tikzappendtofigurename\endcsname \relax \else \endgroup \fi \fi \endgroup }
\expandafter \gdef \csname pgfplots@labelstyle@bar_0222\endcsname {plot 2={\pgfkeysnovalue },bar group size={{1}{3}}}
\expandafter \gdef \csname pgfplots@show@ref@bar_0222\endcsname {\begingroup \def \pgfplots@draw@image {\def \tikz@plot@handler {\pgfkeys {/pgf/plots/@handler options/.cd, start=\relax , end macro=\relax , point macro=\pgfutil@gobble , jump macro=\relax , special macro=\pgfutil@gobble ,start={ \pgfmathparse {\pgfplotbarwidth }\xdef \pgfplotbarwidth@ {\pgfmathresult pt}\pgfmathparse {\pgfplotbarshift }\xdef \pgfplotbarshift@ {\pgfmathresult pt}\pgfplotyzerolevelstreamstart }, end macro=\pgfplotyzerolevelstreamend , point macro=\pgf@plot@ybar@handler }\begingroup \escapechar =-1 \edef \pgfplotsplothandlername {\string \pgfplothandlerybar }\pgfmath@smuggleone \pgfplotsplothandlername \endgroup \def \pgfplotsplothandlerLUAfactory {function(axis, pointmetainputhandler) return pgfplots.GenericPlothandler.new("\pgfplotsplothandlername ", axis,pointmetainputhandler) end}\def \pgfplotsplothandlerLUAvisualizerfactory {pgfplots.defaultPlotVisualizerFactory}\let \pgfplotsplothandlersurveydifflen =\pgfplotsplothandlersurveydifflen@snaptonearest \let \pgfplotsplothandlersurveypointattime =\pgfplotsplothandlersurveypointattime@snaptonearest \def \pgfplotbarwidth {\pgfplots@ybar@width }\def \pgfplotbarshift {\pgfplots@ybar@shift }}\pgfkeysdef {/pgfplots/legend image code}{\draw [,/tikz/.cd,bar width=3pt,yshift=-0.2em,bar shift=0pt] plot coordinates {(0cm,0.8em) (2*\pgfplotbarwidth ,0.6em)};}\pgfkeysdef {/pgfplots/every legend image post}{}\pgfkeyssetvalue {/pgfplots/mark list fill}{.!80!black}\pgfkeysdef {/pgfplots/every crossref picture}{\pgfkeysalso {baseline,yshift=0.3em}}\pgfplots@show@small@legendplots {plot 2={\pgfkeysnovalue },bar group size={{1}{3}}}{}}\ifpgfpicture \scope [/pgfplots/every crossref picture]\pgfplots@draw@image \endscope \else \expandafter \ifx \csname tikzappendtofigurename\endcsname \relax \else \begingroup \tikzappendtofigurename {_crossref}\fi \tikz [/pgfplots/every crossref picture]{\pgfplots@draw@image }\expandafter \ifx \csname tikzappendtofigurename\endcsname \relax \else \endgroup \fi \fi \endgroup }
\expandafter \gdef \csname pgfplots@labelstyle@bar_0333\endcsname {plot 3={\pgfkeysnovalue },bar group size={{2}{3}}}
\expandafter \gdef \csname pgfplots@show@ref@bar_0333\endcsname {\begingroup \def \pgfplots@draw@image {\def \tikz@plot@handler {\pgfkeys {/pgf/plots/@handler options/.cd, start=\relax , end macro=\relax , point macro=\pgfutil@gobble , jump macro=\relax , special macro=\pgfutil@gobble ,start={ \pgfmathparse {\pgfplotbarwidth }\xdef \pgfplotbarwidth@ {\pgfmathresult pt}\pgfmathparse {\pgfplotbarshift }\xdef \pgfplotbarshift@ {\pgfmathresult pt}\pgfplotyzerolevelstreamstart }, end macro=\pgfplotyzerolevelstreamend , point macro=\pgf@plot@ybar@handler }\begingroup \escapechar =-1 \edef \pgfplotsplothandlername {\string \pgfplothandlerybar }\pgfmath@smuggleone \pgfplotsplothandlername \endgroup \def \pgfplotsplothandlerLUAfactory {function(axis, pointmetainputhandler) return pgfplots.GenericPlothandler.new("\pgfplotsplothandlername ", axis,pointmetainputhandler) end}\def \pgfplotsplothandlerLUAvisualizerfactory {pgfplots.defaultPlotVisualizerFactory}\let \pgfplotsplothandlersurveydifflen =\pgfplotsplothandlersurveydifflen@snaptonearest \let \pgfplotsplothandlersurveypointattime =\pgfplotsplothandlersurveypointattime@snaptonearest \def \pgfplotbarwidth {\pgfplots@ybar@width }\def \pgfplotbarshift {\pgfplots@ybar@shift }}\pgfkeysdef {/pgfplots/legend image code}{\draw [,/tikz/.cd,bar width=3pt,yshift=-0.2em,bar shift=0pt] plot coordinates {(0cm,0.8em) (2*\pgfplotbarwidth ,0.6em)};}\pgfkeysdef {/pgfplots/every legend image post}{}\pgfkeyssetvalue {/pgfplots/mark list fill}{.!80!black}\pgfkeysdef {/pgfplots/every crossref picture}{\pgfkeysalso {baseline,yshift=0.3em}}\pgfplots@show@small@legendplots {plot 3={\pgfkeysnovalue },bar group size={{2}{3}}}{}}\ifpgfpicture \scope [/pgfplots/every crossref picture]\pgfplots@draw@image \endscope \else \expandafter \ifx \csname tikzappendtofigurename\endcsname \relax \else \begingroup \tikzappendtofigurename {_crossref}\fi \tikz [/pgfplots/every crossref picture]{\pgfplots@draw@image }\expandafter \ifx \csname tikzappendtofigurename\endcsname \relax \else \endgroup \fi \fi \endgroup }
\expandafter \gdef \csname pgfplots@labelstyle@bar_0444\endcsname {plot 0={\pgfkeysnovalue },bar group size={{0}{4}}}
\expandafter \gdef \csname pgfplots@show@ref@bar_0444\endcsname {\begingroup \def \pgfplots@draw@image {\def \tikz@plot@handler {\pgfkeys {/pgf/plots/@handler options/.cd, start=\relax , end macro=\relax , point macro=\pgfutil@gobble , jump macro=\relax , special macro=\pgfutil@gobble ,start={ \pgfmathparse {\pgfplotbarwidth }\xdef \pgfplotbarwidth@ {\pgfmathresult pt}\pgfmathparse {\pgfplotbarshift }\xdef \pgfplotbarshift@ {\pgfmathresult pt}\pgfplotyzerolevelstreamstart }, end macro=\pgfplotyzerolevelstreamend , point macro=\pgf@plot@ybar@handler }\begingroup \escapechar =-1 \edef \pgfplotsplothandlername {\string \pgfplothandlerybar }\pgfmath@smuggleone \pgfplotsplothandlername \endgroup \def \pgfplotsplothandlerLUAfactory {function(axis, pointmetainputhandler) return pgfplots.GenericPlothandler.new("\pgfplotsplothandlername ", axis,pointmetainputhandler) end}\def \pgfplotsplothandlerLUAvisualizerfactory {pgfplots.defaultPlotVisualizerFactory}\let \pgfplotsplothandlersurveydifflen =\pgfplotsplothandlersurveydifflen@snaptonearest \let \pgfplotsplothandlersurveypointattime =\pgfplotsplothandlersurveypointattime@snaptonearest \def \pgfplotbarwidth {\pgfplots@ybar@width }\def \pgfplotbarshift {\pgfplots@ybar@shift }}\pgfkeysdef {/pgfplots/legend image code}{\draw [,/tikz/.cd,bar width=3pt,yshift=-0.2em,bar shift=0pt] plot coordinates {(0cm,0.8em) (2*\pgfplotbarwidth ,0.6em)};}\pgfkeysdef {/pgfplots/every legend image post}{}\pgfkeyssetvalue {/pgfplots/mark list fill}{.!80!black}\pgfkeysdef {/pgfplots/every crossref picture}{\pgfkeysalso {baseline,yshift=0.3em}}\pgfplots@show@small@legendplots {plot 0={\pgfkeysnovalue },bar group size={{0}{4}}}{}}\ifpgfpicture \scope [/pgfplots/every crossref picture]\pgfplots@draw@image \endscope \else \expandafter \ifx \csname tikzappendtofigurename\endcsname \relax \else \begingroup \tikzappendtofigurename {_crossref}\fi \tikz [/pgfplots/every crossref picture]{\pgfplots@draw@image }\expandafter \ifx \csname tikzappendtofigurename\endcsname \relax \else \endgroup \fi \fi \endgroup }
\@writefile{toc}{\contentsline {subsection}{\numberline {6.1.1}Exemplo de gr\IeC {\'a}fico de barras com n\IeC {\'u}mero de colunas diferentes e linha m\IeC {\'e}dia}{14}}
\@writefile{lof}{\contentsline {figure}{\numberline {6.4}{\ignorespaces Temperaturas m\IeC {\'e}dias na superf\IeC {\'\i }cie da broca \Tbrocafluido .\relax }}{14}}
\newlabel{bar_0111}{{\expandafter\protect\csname pgfplots@show@ref@bar_0111\endcsname}{14}}
\newlabel{bar_0111@cref}{{[figure][4][6]6.4}{14}}
\newlabel{bar_0222}{{\expandafter\protect\csname pgfplots@show@ref@bar_0222\endcsname}{14}}
\newlabel{bar_0222@cref}{{[figure][4][6]6.4}{14}}
\newlabel{bar_0333}{{\expandafter\protect\csname pgfplots@show@ref@bar_0333\endcsname}{14}}
\newlabel{bar_0333@cref}{{[figure][4][6]6.4}{14}}
\newlabel{bar_0444}{{\expandafter\protect\csname pgfplots@show@ref@bar_0444\endcsname}{14}}
\newlabel{bar_0444@cref}{{[figure][4][6]6.4}{14}}
\newlabel{temperatura_media:superficie_da_broca}{{6.4}{14}}
\newlabel{temperatura_media:superficie_da_broca@cref}{{[figure][4][6]6.4}{14}}
\expandafter \gdef \csname pgfplots@labelstyle@analise_dimensional_prandt_experimental\endcsname {color={blue},mark={diamond}}
\expandafter \gdef \csname pgfplots@show@ref@analise_dimensional_prandt_experimental\endcsname {\begingroup \def \pgfplots@draw@image {\def \tikz@plot@handler {\pgfkeys {/pgf/plots/@handler options/.cd, start=\relax , end macro=\relax , point macro=\pgfutil@gobble , jump macro=\relax , special macro=\pgfutil@gobble , point macro=\pgf@plot@line@handler , jump=\global \let \pgf@plotstreampoint \pgf@plot@line@handler@move }\begingroup \escapechar =-1 \edef \pgfplotsplothandlername {\string \pgfplothandlerlineto }\pgfmath@smuggleone \pgfplotsplothandlername \endgroup \def \pgfplotsplothandlerLUAfactory {function(axis, pointmetainputhandler) return pgfplots.GenericPlothandler.new("\pgfplotsplothandlername ", axis,pointmetainputhandler) end}\def \pgfplotsplothandlerLUAvisualizerfactory {pgfplots.defaultPlotVisualizerFactory}}\pgfkeysdef {/pgfplots/legend image code}{\draw [/pgfplots/mesh=false,bar width=3pt,bar shift=0pt,mark repeat=2,mark phase=2,] plot coordinates { (0cm,0cm) (0.3cm,0cm) (0.6cm,0cm)};}\pgfkeysdef {/pgfplots/every legend image post}{}\pgfkeyssetvalue {/pgfplots/mark list fill}{.!80!black}\pgfkeysdef {/pgfplots/every crossref picture}{\pgfkeysalso {baseline,yshift=0.3em}}\pgfplots@show@small@legendplots {color={blue},mark={diamond}}{}}\ifpgfpicture \scope [/pgfplots/every crossref picture]\pgfplots@draw@image \endscope \else \expandafter \ifx \csname tikzappendtofigurename\endcsname \relax \else \begingroup \tikzappendtofigurename {_crossref}\fi \tikz [/pgfplots/every crossref picture]{\pgfplots@draw@image }\expandafter \ifx \csname tikzappendtofigurename\endcsname \relax \else \endgroup \fi \fi \endgroup }
\expandafter \gdef \csname pgfplots@labelstyle@analise_dimensional_prandt_ajustado\endcsname {color={red},mark={none},/utils/exec={\if 0\pgfplotsplothandlermesh@matrixinput \pgfkeysalso {/pgfplots/mesh input=lattice}\fi }}
\expandafter \gdef \csname pgfplots@show@ref@analise_dimensional_prandt_ajustado\endcsname {\begingroup \def \pgfplots@draw@image {\def \tikz@plot@handler {\pgfkeys {/pgf/plots/@handler options/.cd, start=\relax , end macro=\relax , point macro=\pgfutil@gobble , jump macro=\relax , special macro=\pgfutil@gobble , point macro=\pgf@plot@line@handler , jump=\global \let \pgf@plotstreampoint \pgf@plot@line@handler@move }\begingroup \escapechar =-1 \edef \pgfplotsplothandlername {\string \pgfplothandlerlineto }\pgfmath@smuggleone \pgfplotsplothandlername \endgroup \def \pgfplotsplothandlerLUAfactory {function(axis, pointmetainputhandler) return pgfplots.GenericPlothandler.new("\pgfplotsplothandlername ", axis,pointmetainputhandler) end}\def \pgfplotsplothandlerLUAvisualizerfactory {pgfplots.defaultPlotVisualizerFactory}}\pgfkeysdef {/pgfplots/legend image code}{\draw [/pgfplots/mesh=false,bar width=3pt,bar shift=0pt,mark repeat=2,mark phase=2,] plot coordinates { (0cm,0cm) (0.3cm,0cm) (0.6cm,0cm)};}\pgfkeysdef {/pgfplots/every legend image post}{}\pgfkeyssetvalue {/pgfplots/mark list fill}{.!80!black}\pgfkeysdef {/pgfplots/every crossref picture}{\pgfkeysalso {baseline,yshift=0.3em}}\pgfplots@show@small@legendplots {color={red},mark={none},/utils/exec={\if 0\pgfplotsplothandlermesh@matrixinput \pgfkeysalso {/pgfplots/mesh input=lattice}\fi }}{}}\ifpgfpicture \scope [/pgfplots/every crossref picture]\pgfplots@draw@image \endscope \else \expandafter \ifx \csname tikzappendtofigurename\endcsname \relax \else \begingroup \tikzappendtofigurename {_crossref}\fi \tikz [/pgfplots/every crossref picture]{\pgfplots@draw@image }\expandafter \ifx \csname tikzappendtofigurename\endcsname \relax \else \endgroup \fi \fi \endgroup }
\@writefile{toc}{\contentsline {subsection}{\numberline {6.1.2}Exemplo de gr\IeC {\'a}fico que pega dados de um arquivo e plota uma curva segundo uma equa\IeC {\c c}\IeC {\~a}o simultaneamente.}{15}}
\@writefile{lof}{\contentsline {figure}{\numberline {6.5}{\ignorespaces Valores de \Nusselt em fun\IeC {\c c}\IeC {\~a}o de \textit  {Reynolds} e \textit  {Prandt}.\relax }}{15}}
\newlabel{analise_dimensional_prandt_experimental}{{\expandafter\protect\csname pgfplots@show@ref@analise_dimensional_prandt_experimental\endcsname}{15}}
\newlabel{analise_dimensional_prandt_experimental@cref}{{[figure][5][6]6.5}{15}}
\newlabel{analise_dimensional_prandt_ajustado}{{\expandafter\protect\csname pgfplots@show@ref@analise_dimensional_prandt_ajustado\endcsname}{15}}
\newlabel{analise_dimensional_prandt_ajustado@cref}{{[figure][5][6]6.5}{15}}
\newlabel{analise_dimensional}{{6.5}{15}}
\newlabel{analise_dimensional@cref}{{[figure][5][6]6.5}{15}}
\@writefile{toc}{\contentsline {chapter}{\numberline {7}Conclus\IeC {\~o}es}{17}}
\@writefile{lof}{\addvspace {10\p@ }}
\@writefile{lot}{\addvspace {10\p@ }}
\newlabel{conclusoes}{{7}{17}}
\newlabel{conclusoes@cref}{{[chapter][7][]7}{17}}
\@writefile{toc}{\contentsline {chapter}{\numberline {8}Propostas para trabalhos futuros}{19}}
\@writefile{lof}{\addvspace {10\p@ }}
\@writefile{lot}{\addvspace {10\p@ }}
\newlabel{propostas_para_trabalhos_futuros}{{8}{19}}
\newlabel{propostas_para_trabalhos_futuros@cref}{{[chapter][8][]8}{19}}
\@writefile{toc}{\contentsline {chapter}{Ap\IeC {\^e}ndices}{19}}
\@writefile{toc}{\contentsline {chapter}{\numberline {A}Tabelas}{21}}
\@writefile{lof}{\addvspace {10\p@ }}
\@writefile{lot}{\addvspace {10\p@ }}
\newlabel{apendice:tabelas}{{A}{21}}
\newlabel{apendice:tabelas@cref}{{[appendix][1][2147483647]A}{21}}
\bibdata{abntex2-options,tex_includes/referencias}
\@writefile{toc}{\contentsline {chapter}{\numberline {B}An\IeC {\'a}lise Dimensional}{23}}
\@writefile{lof}{\addvspace {10\p@ }}
\@writefile{lot}{\addvspace {10\p@ }}
\newlabel{apendice:analise_dimensional}{{B}{23}}
\newlabel{apendice:analise_dimensional@cref}{{[appendix][2][2147483647]B}{23}}
\bibcite{referenciaUm}{Fulano e Beltrano 2000}
\bibcite{referenciaUm++EXPL}{Fulano e Beltrano}
\bibcite{referenciaUm++IMPL}{FULANO; BELTRANO}
\bibcite{referenciaUm++YEAR}{2000}
\bibstyle{abntex2-alf}
\@writefile{toc}{\contentsline {chapter}{Bibliografia}{25}}
