"T","Temperatura (C)","arc_length","Points:0","Points:1","Points:2"
329.37,56.217,0,0.0082866,0.0099,-0.00062876
329.29,56.143,0.00015095,0.0084365,0.0099,-0.00064631
329.19,56.036,0.00025345,0.0085386,0.0099,-0.00065576
328.75,55.596,0.0008173,0.0090996,0.0099,-0.00071251
328.6,55.447,0.0009135,0.0091956,0.0099,-0.00071889
328.44,55.292,0.0010032,0.0092852,0.0099,-0.00072327
327.93,54.783,0.0015915,0.0098726,0.0099,-0.00075673
327.89,54.739,0.0016893,0.0099703,0.0099,-0.0007586
328.16,55.006,0.0023542,0.00989,0.0099,-0.0014186
328.25,55.104,0.002471,0.0098797,0.0099,-0.0015349
328.34,55.188,0.0025595,0.0098674,0.0099,-0.0016226
328.77,55.622,0.0031721,0.0097455,0.0099,-0.0022229
328.85,55.701,0.0032728,0.0097256,0.0099,-0.0023217
328.84,55.691,0.0033801,0.0097008,0.0099,-0.002426
328.87,55.719,0.0039821,0.0095348,0.0099,-0.0030046
328.92,55.767,0.0040856,0.0095056,0.0099,-0.003104
328.88,55.725,0.004293,0.0094355,0.0099,-0.0032992
328.96,55.813,0.0048796,0.0092297,0.0099,-0.0038485
328.95,55.804,0.0054662,0.008981,0.0099,-0.0043797
328.96,55.811,0.0056869,0.0088892,0.0099,-0.0045805
328.92,55.767,0.0063076,0.0085825,0.0099,-0.0051201
328.9,55.754,0.0064753,0.0085007,0.0099,-0.0052665
328.76,55.613,0.0070938,0.0081535,0.0099,-0.0057783
328.75,55.6,0.0072363,0.0080749,0.0099,-0.0058973
328.71,55.559,0.0073887,0.0079834,0.0099,-0.0060191
328.78,55.625,0.0079996,0.0076016,0.0099,-0.0064959
328.79,55.637,0.0082036,0.0074665,0.0099,-0.0066488
328.84,55.688,0.0087854,0.0070681,0.0099,-0.0070728
328.6,55.448,0.0093672,0.0066374,0.0099,-0.0074639
328.56,55.405,0.0095844,0.0064801,0.0099,-0.0076137
328.51,55.358,0.0096992,0.0063933,0.0099,-0.007689
328.38,55.226,0.010301,0.0059173,0.0099,-0.008057
328.36,55.209,0.01041,0.0058311,0.0099,-0.0081232
328.34,55.193,0.010561,0.0057068,0.0099,-0.0082092
328.47,55.324,0.011171,0.0051958,0.0099,-0.0085432
328.46,55.306,0.011377,0.0050184,0.0099,-0.0086467
328.5,55.353,0.011959,0.0045072,0.0099,-0.0089258
328.05,54.895,0.012541,0.0039756,0.0099,-0.0091636
327.92,54.773,0.012757,0.003781,0.0099,-0.0092559
327.88,54.728,0.012901,0.003647,0.0099,-0.0093101
327.89,54.737,0.01352,0.0030641,0.0099,-0.0095173
327.83,54.677,0.01369,0.0029023,0.0099,-0.0095685
327.75,54.603,0.014312,0.0023009,0.0099,-0.00973
327.69,54.544,0.014549,0.0020699,0.0099,-0.0097802
327.78,54.628,0.015149,0.0014796,0.0099,-0.0098896
327.52,54.368,0.015749,0.00088254,0.0099,-0.0099519
327.43,54.279,0.015961,0.00067248,0.0099,-0.0099772
326.82,53.674,0.016576,5.7596e-05,0.0099,-0.0099926
326.57,53.424,0.016719,-8.4736e-05,0.0099,-0.0099983
326.7,53.552,0.016821,-0.00018766,0.0099,-0.0099979
326.38,53.23,0.017432,-0.00079681,0.0099,-0.0099649
326.09,52.942,0.017523,-0.00088837,0.0099,-0.0099595
326.25,53.099,0.017641,-0.0010054,0.0099,-0.009948
327.04,53.891,0.018306,-0.0016644,0.0099,-0.0098597
327.15,53.998,0.018955,-0.0012955,0.0099,-0.0093249
327.33,54.177,0.01912,-0.0012088,0.0099,-0.0091855
327.67,54.517,0.019782,-0.00087714,0.0099,-0.0086118
327.83,54.685,0.019927,-0.00081828,0.0099,-0.008479
328.11,54.961,0.020582,-0.00056832,0.0099,-0.0078736
328.19,55.043,0.020754,-0.00052273,0.0099,-0.0077086
328.36,55.206,0.021396,-0.00034025,0.0099,-0.0070926
328.42,55.272,0.021475,-0.00032723,0.0099,-0.0070143
328.47,55.318,0.022141,-0.00020381,0.0099,-0.0063601
328.48,55.327,0.02221,-0.00019919,0.0099,-0.0062912
328.56,55.414,0.022866,-0.00017097,0.0099,-0.0056358
328.61,55.461,0.022999,-0.00017605,0.0099,-0.0055031
328.71,55.56,0.023654,-0.00020825,0.0099,-0.0048487
328.75,55.602,0.023785,-0.00022543,0.0099,-0.004719
328.8,55.646,0.024441,-0.00032117,0.0099,-0.0040703
328.83,55.675,0.02451,-0.00033771,0.0099,-0.004003
328.96,55.812,0.025169,-0.00051508,0.0099,-0.003369
329,55.854,0.025253,-0.00054169,0.0099,-0.0032884
329.1,55.955,0.025892,-0.00075946,0.0099,-0.0026883
329.19,56.037,0.026078,-0.00083279,0.0099,-0.0025166
329.41,56.259,0.026731,-0.0011656,0.0099,-0.0019557
329.46,56.307,0.026874,-0.0012646,0.0099,-0.0018522
329.56,56.406,0.027523,-0.0017935,0.0099,-0.001476
329.58,56.427,0.027697,-0.0019537,0.0099,-0.0014081
329.55,56.397,0.028335,-0.0025379,0.0099,-0.001152
329.59,56.439,0.028973,-0.0031123,0.0099,-0.00087442
329.62,56.475,0.029164,-0.0032868,0.0099,-0.00079726
329.71,56.563,0.029817,-0.0038787,0.0099,-0.00051935
329.76,56.612,0.02997,-0.0040214,0.0099,-0.00046409
329.81,56.656,0.030624,-0.0046304,0.0099,-0.00022618
329.79,56.638,0.030802,-0.0048004,0.0099,-0.00017584
329.75,56.598,0.031437,-0.0054051,0.0099,2.0058e-05
329.89,56.742,0.032073,-0.0060164,0.0099,0.00019385
329.88,56.731,0.032238,-0.0061771,0.0099,0.00023314
329.71,56.559,0.032888,-0.0068093,0.0099,0.0003821
329.72,56.568,0.032995,-0.0069147,0.0099,0.00040198
329.59,56.442,0.033152,-0.0070695,0.0099,0.00042585
329.42,56.267,0.033769,-0.0076762,0.0099,0.00053823
329.2,56.046,0.034386,-0.0082866,0.0099,0.00062876
329.13,55.983,0.034537,-0.0084365,0.0099,0.00064631
329.03,55.88,0.034639,-0.0085386,0.0099,0.00065576
328.61,55.46,0.035203,-0.0090996,0.0099,0.00071251
328.47,55.323,0.035299,-0.0091956,0.0099,0.00071889
328.32,55.165,0.035389,-0.0092852,0.0099,0.00072327
327.83,54.679,0.035977,-0.0098726,0.0099,0.00075673
327.79,54.642,0.036075,-0.0099703,0.0099,0.0007586
328.1,54.947,0.03674,-0.00989,0.0099,0.0014186
328.2,55.049,0.036858,-0.0098796,0.0099,0.0015359
328.28,55.135,0.03695,-0.0098666,0.0099,0.001627
328.73,55.581,0.037559,-0.0097454,0.0099,0.002224
328.81,55.661,0.037662,-0.009725,0.0099,0.0023246
328.79,55.641,0.037794,-0.0096932,0.0099,0.0024536
328.85,55.696,0.038412,-0.0095227,0.0099,0.0030474
328.86,55.705,0.038566,-0.0094757,0.0099,0.0031934
328.89,55.744,0.039184,-0.0092585,0.0099,0.003773
328.9,55.746,0.039333,-0.0092035,0.0099,0.0039105
328.84,55.69,0.039921,-0.0089539,0.0099,0.0044437
328.84,55.689,0.04005,-0.0088995,0.0099,0.0045598
328.82,55.674,0.040182,-0.0088378,0.0099,0.0046768
328.81,55.661,0.040743,-0.0085603,0.0099,0.0051649
328.8,55.655,0.040879,-0.0084913,0.0099,0.0052818
328.66,55.511,0.041511,-0.0081365,0.0099,0.0058048
328.65,55.504,0.041626,-0.0080726,0.0099,0.0059008
328.64,55.486,0.041743,-0.0080031,0.0099,0.005994
328.67,55.516,0.042389,-0.0075991,0.0099,0.0064984
328.64,55.494,0.042566,-0.0074823,0.0099,0.0066315
328.76,55.605,0.043184,-0.007059,0.0099,0.0070819
328.61,55.461,0.043802,-0.0066013,0.0099,0.0074975
328.59,55.436,0.04398,-0.0064735,0.0099,0.0076204
328.56,55.414,0.044095,-0.0063857,0.0099,0.0076951
328.45,55.3,0.04468,-0.0059228,0.0099,0.0080531
328.43,55.282,0.044785,-0.0058394,0.0099,0.0081169
328.41,55.256,0.044937,-0.005715,0.0099,0.0082039
328.42,55.272,0.045553,-0.0051994,0.0099,0.0085409
328.38,55.233,0.045736,-0.0050414,0.0099,0.0086338
328.44,55.286,0.046351,-0.0045017,0.0099,0.0089285
328.06,54.914,0.046966,-0.0039405,0.0099,0.0091796
327.95,54.799,0.047148,-0.0037765,0.0099,0.009258
327.99,54.838,0.047256,-0.0036762,0.0099,0.0092994
327.95,54.802,0.047858,-0.0031088,0.0099,0.0095011
327.86,54.707,0.047963,-0.0030096,0.0099,0.0095358
327.93,54.783,0.04811,-0.002869,0.0099,0.0095775
328.08,54.929,0.048724,-0.0022765,0.0099,0.0097366
327.99,54.841,0.04892,-0.0020848,0.0099,0.0097778
328.07,54.92,0.049509,-0.0015057,0.0099,0.0098852
327.19,54.037,0.050098,-0.00091987,0.0099,0.0099464
326.88,53.734,0.050296,-0.00072341,0.0099,0.0099716
326.91,53.764,0.050399,-0.00062052,0.0099,0.0099806
326.63,53.476,0.051,-1.9324e-05,0.0099,0.0099956
326.46,53.313,0.051107,8.7728e-05,0.0099,0.0099984
326.59,53.438,0.051209,0.00018929,0.0099,0.0099979
326.31,53.156,0.051818,0.00079729,0.0099,0.0099649
326.02,52.866,0.051909,0.00088861,0.0099,0.0099595
326.12,52.968,0.052027,0.0010054,0.0099,0.009948
326.75,53.596,0.052692,0.0016644,0.0099,0.0098597
326.97,53.821,0.053341,0.0012955,0.0099,0.0093249
327.17,54.018,0.053505,0.0012088,0.0099,0.0091855
327.73,54.576,0.054168,0.00087714,0.0099,0.0086118
327.94,54.793,0.054313,0.00081828,0.0099,0.008479
328.14,54.986,0.054968,0.00056832,0.0099,0.0078736
328.17,55.015,0.055139,0.00052273,0.0099,0.0077086
328.17,55.016,0.055782,0.00034025,0.0099,0.0070926
328.25,55.096,0.055861,0.00032723,0.0099,0.0070143
328.44,55.291,0.056527,0.00020381,0.0099,0.0063601
328.45,55.304,0.056596,0.00019919,0.0099,0.0062912
328.53,55.385,0.057252,0.00017097,0.0099,0.0056358
328.6,55.448,0.057385,0.00017605,0.0099,0.0055031
328.7,55.546,0.05804,0.00020825,0.0099,0.0048487
328.75,55.604,0.058171,0.00022543,0.0099,0.004719
328.9,55.75,0.058827,0.00032117,0.0099,0.0040703
328.93,55.783,0.058896,0.00033771,0.0099,0.004003
329.03,55.88,0.059554,0.00051508,0.0099,0.003369
329.07,55.921,0.059639,0.00054169,0.0099,0.0032884
329.2,56.053,0.060278,0.00075946,0.0099,0.0026883
329.25,56.104,0.060464,0.00083279,0.0099,0.0025166
329.41,56.261,0.061117,0.0011656,0.0099,0.0019557
329.46,56.306,0.06126,0.0012646,0.0099,0.0018522
329.55,56.404,0.061909,0.0017935,0.0099,0.001476
329.57,56.417,0.062083,0.0019537,0.0099,0.0014081
329.51,56.358,0.062721,0.0025379,0.0099,0.001152
329.58,56.431,0.063359,0.0031123,0.0099,0.00087442
329.63,56.476,0.063549,0.0032868,0.0099,0.00079726
329.71,56.564,0.064203,0.0038787,0.0099,0.00051935
329.78,56.628,0.064356,0.0040214,0.0099,0.00046409
329.89,56.736,0.06501,0.0046304,0.0099,0.00022618
329.86,56.712,0.065187,0.0048004,0.0099,0.00017584
329.79,56.639,0.065823,0.0054051,0.0099,-2.0058e-05
329.77,56.616,0.066459,0.0060164,0.0099,-0.00019385
329.75,56.604,0.066624,0.0061771,0.0099,-0.00023314
329.91,56.759,0.067274,0.0068093,0.0099,-0.0003821
329.95,56.798,0.067381,0.0069147,0.0099,-0.00040198
329.82,56.674,0.067537,0.0070695,0.0099,-0.00042585
329.48,56.333,0.068154,0.0076762,0.0099,-0.00053823
329.37,56.217,0.068772,0.0082866,0.0099,-0.00062876
