"T","Temperatura (C)","arc_length","Points:0","Points:1","Points:2"
333.68,60.528,0,-0.0016161,0.005,0.0065717
334.87,61.718,0.00024402,-0.001582,0.005,0.0063301
336.46,63.311,0.00051957,-0.0015354,0.005,0.0060585
337.46,64.313,0.00077911,-0.001488,0.005,0.0058034
338.54,65.387,0.0011835,-0.0013751,0.005,0.005415
340.74,67.586,0.0018942,-0.001152,0.005,0.0047403
342.03,68.881,0.0021986,-0.0010309,0.005,0.004461
344.29,71.135,0.0028278,-0.00075905,0.005,0.0038935
345.08,71.926,0.0030623,-0.00063251,0.005,0.0036961
346.72,73.571,0.0037934,-0.0002363,0.005,0.0030817
347.26,74.109,0.0041015,-4.2036e-05,0.005,0.0028426
348.76,75.607,0.0049054,0.00050872,0.005,0.0022569
349.56,76.411,0.0052107,0.00077472,0.005,0.002107
350.88,77.729,0.0057672,0.0012974,0.005,0.001916
351.42,78.269,0.0063558,0.0018815,0.005,0.0018443
351.74,78.587,0.0065745,0.002098,0.005,0.0018127
351.89,78.735,0.0068708,0.0023899,0.005,0.0017618
352.13,78.98,0.0073568,0.0028703,0.005,0.0016882
352.91,79.761,0.007705,0.0032148,0.005,0.0016378
353.24,80.091,0.0081127,0.0036167,0.005,0.0015696
353.46,80.311,0.0085746,0.0040763,0.005,0.001523
353.44,80.287,0.0087313,0.0042324,0.005,0.0015093
353.48,80.332,0.0087931,0.0042942,0.005,0.0015075
353.55,80.401,0.0092821,0.0047826,0.005,0.0014839
353.57,80.418,0.009326,0.0048265,0.005,0.0014841
353.79,80.642,0.0097998,0.0053003,0.005,0.0014753
353.82,80.667,0.010075,0.0055749,0.005,0.0014815
353.89,80.745,0.010316,0.0058164,0.005,0.0014813
353.87,80.723,0.010466,0.0059662,0.005,0.0014815
354.04,80.895,0.010926,0.0064261,0.005,0.0015068
354.3,81.146,0.011235,0.0067339,0.005,0.0015234
354.25,81.1,0.011371,0.0068699,0.005,0.001538
353.95,80.797,0.011745,0.0072418,0.005,0.0015766
353.85,80.7,0.011863,0.0073586,0.005,0.0015874
353.65,80.5,0.012043,0.0075373,0.005,0.0016098
353.24,80.089,0.012485,0.0079759,0.005,0.0016655
353.13,79.982,0.012606,0.0080947,0.005,0.0016872
352.21,79.06,0.013198,0.0086791,0.005,0.0017823
352.17,79.016,0.013235,0.0087152,0.005,0.0017901
351.97,78.817,0.013275,0.0087545,0.005,0.0017994
350.06,76.912,0.013691,0.0091623,0.005,0.0018815
349.8,76.653,0.013823,0.0092906,0.005,0.0019135
349.32,76.168,0.014205,0.0096615,0.005,0.0020018
349.01,75.859,0.014336,0.0097901,0.005,0.0020308
349.32,76.172,0.014486,0.0098147,0.005,0.0018828
349.27,76.118,0.014853,0.0098823,0.005,0.0015224
348.6,75.447,0.015288,0.0099391,0.005,0.0010915
348.34,75.195,0.01544,0.0099543,0.005,0.0009396
347.87,74.722,0.015879,0.0099872,0.005,0.00050196
347.88,74.728,0.016173,0.0099914,0.005,0.00020859
347.87,74.723,0.016728,0.0099939,0.005,-0.00034691
347.76,74.611,0.017131,0.0099623,0.005,-0.00074818
347.61,74.46,0.017688,0.0099147,0.005,-0.0013031
347.11,73.964,0.018151,0.0098328,0.005,-0.0017594
346.9,73.747,0.018706,0.0097307,0.005,-0.0023049
346.81,73.656,0.019163,0.0096047,0.005,-0.0027435
346.37,73.219,0.01974,0.0094407,0.005,-0.003297
346.02,72.865,0.02021,0.0092648,0.005,-0.0037327
345.25,72.105,0.020804,0.0090369,0.005,-0.0042816
344.61,71.463,0.021263,0.0088221,0.005,-0.0046872
344.02,70.87,0.021706,0.0086145,0.005,-0.0050784
343.89,70.741,0.02189,0.0085129,0.005,-0.0052322
343.55,70.403,0.022399,0.0082395,0.005,-0.0056618
343.01,69.863,0.022782,0.0080091,0.005,-0.0059675
342.51,69.364,0.023148,0.0077945,0.005,-0.0062643
341.97,68.822,0.023508,0.0075558,0.005,-0.0065337
340.74,67.594,0.024048,0.0071999,0.005,-0.0069397
339.71,66.562,0.024494,0.0068757,0.005,-0.0072461
338.39,65.237,0.025075,0.0064503,0.005,-0.0076414
337.08,63.927,0.025597,0.0060347,0.005,-0.0079572
335.81,62.663,0.026126,0.0056132,0.005,-0.008276
333.24,60.086,0.026848,0.0049999,0.005,-0.0086587
333.06,59.91,0.026899,0.0049569,0.005,-0.0086848
331.61,58.457,0.027593,0.004338,0.005,-0.0089992
330.64,57.491,0.027821,0.0041352,0.005,-0.0091026
329.06,55.911,0.028332,0.0036638,0.005,-0.009301
328.88,55.733,0.0284,0.003602,0.005,-0.0093285
327.43,54.276,0.028656,0.0033608,0.005,-0.0094144
325.66,52.514,0.028992,0.003043,0.005,-0.0095257
325.28,52.126,0.029056,0.0029813,0.005,-0.0095423
324.98,51.826,0.029134,0.0029066,0.005,-0.009562
322.21,49.057,0.029811,0.0022536,0.005,-0.0097426
321.67,48.516,0.029994,0.0020737,0.005,-0.0097748
319.9,46.754,0.030461,0.0016156,0.005,-0.0098646
318.88,45.728,0.030804,0.0012765,0.005,-0.009918
318.37,45.22,0.030952,0.0011299,0.005,-0.0099344
319.78,46.63,0.031421,0.0012806,0.005,-0.0094895
320.56,47.414,0.031644,0.0013477,0.005,-0.0092776
321.25,48.099,0.031783,0.0013806,0.005,-0.009142
324.16,51.011,0.032353,0.0015268,0.005,-0.0085912
326.72,53.571,0.032971,0.0016126,0.005,-0.0079787
326.87,53.725,0.033005,0.0016177,0.005,-0.0079455
327.17,54.019,0.033073,0.001621,0.005,-0.0078778
329.65,56.498,0.033608,0.0016447,0.005,-0.0073429
330.41,57.26,0.03374,0.0016395,0.005,-0.007211
333.41,60.26,0.03438,0.0016161,0.005,-0.0065717
334.51,61.356,0.034624,0.001582,0.005,-0.0063301
335.75,62.601,0.0349,0.0015354,0.005,-0.0060585
336.79,63.645,0.035159,0.001488,0.005,-0.0058034
338.15,65.001,0.035564,0.0013751,0.005,-0.005415
340.2,67.051,0.036274,0.001152,0.005,-0.0047403
341.49,68.339,0.036579,0.0010309,0.005,-0.004461
344.05,70.903,0.037208,0.00075905,0.005,-0.0038935
344.97,71.819,0.037442,0.00063251,0.005,-0.0036961
346.67,73.517,0.038173,0.0002363,0.005,-0.0030817
347.34,74.187,0.038481,4.2036e-05,0.005,-0.0028426
349.23,76.079,0.039285,-0.00050872,0.005,-0.0022569
349.85,76.696,0.039591,-0.00077472,0.005,-0.002107
350.86,77.71,0.040147,-0.0012974,0.005,-0.001916
351.68,78.527,0.040736,-0.0018815,0.005,-0.0018443
352.01,78.863,0.040954,-0.002098,0.005,-0.0018127
351.92,78.769,0.041251,-0.0023899,0.005,-0.0017618
351.7,78.546,0.041737,-0.0028703,0.005,-0.0016882
352.41,79.256,0.042085,-0.0032148,0.005,-0.0016378
352.6,79.451,0.042493,-0.0036167,0.005,-0.0015696
352.88,79.728,0.042955,-0.0040763,0.005,-0.001523
352.94,79.795,0.043111,-0.0042324,0.005,-0.0015093
353.02,79.869,0.043173,-0.0042942,0.005,-0.0015075
353.81,80.661,0.043662,-0.0047826,0.005,-0.0014839
353.82,80.669,0.043706,-0.0048265,0.005,-0.0014841
353.36,80.212,0.04418,-0.0053003,0.005,-0.0014753
353.38,80.228,0.044455,-0.0055749,0.005,-0.0014815
353.39,80.243,0.044696,-0.0058164,0.005,-0.0014813
353.52,80.369,0.044846,-0.0059662,0.005,-0.0014815
353.7,80.553,0.045306,-0.0064261,0.005,-0.0015068
353.93,80.783,0.045615,-0.0067339,0.005,-0.0015234
353.85,80.701,0.045751,-0.0068699,0.005,-0.001538
353.65,80.498,0.046125,-0.0072418,0.005,-0.0015766
353.56,80.414,0.046243,-0.0073586,0.005,-0.0015874
353.3,80.149,0.046423,-0.0075373,0.005,-0.0016098
352.74,79.59,0.046865,-0.0079759,0.005,-0.0016655
352.67,79.52,0.046986,-0.0080947,0.005,-0.0016872
351.69,78.537,0.047578,-0.0086791,0.005,-0.0017823
351.62,78.469,0.047615,-0.0087152,0.005,-0.0017901
351.47,78.323,0.047655,-0.0087545,0.005,-0.0017994
350.29,77.138,0.048071,-0.0091623,0.005,-0.0018815
349.97,76.819,0.048203,-0.0092906,0.005,-0.0019135
349.21,76.061,0.048585,-0.0096615,0.005,-0.0020018
348.88,75.732,0.048716,-0.0097901,0.005,-0.0020308
349.15,76.001,0.048866,-0.0098146,0.005,-0.0018828
349.16,76.013,0.049233,-0.0098823,0.005,-0.0015224
348.57,75.416,0.049668,-0.0099391,0.005,-0.0010915
348.38,75.234,0.04982,-0.0099543,0.005,-0.00093961
348.2,75.047,0.050259,-0.0099872,0.005,-0.00050197
348.08,74.926,0.050553,-0.0099914,0.005,-0.0002086
347.77,74.625,0.051108,-0.0099939,0.005,0.00034692
347.79,74.636,0.05151,-0.0099624,0.005,0.00074785
347.54,74.394,0.052068,-0.0099147,0.005,0.0013031
347.42,74.271,0.052531,-0.0098329,0.005,0.0017591
347.33,74.183,0.053086,-0.0097306,0.005,0.0023051
346.98,73.833,0.053542,-0.0096048,0.005,0.0027433
346.57,73.419,0.05412,-0.0094407,0.005,0.0032971
346.07,72.922,0.05459,-0.0092648,0.005,0.0037327
345.29,72.144,0.055184,-0.0090369,0.005,0.0042816
344.71,71.558,0.055643,-0.0088221,0.005,0.0046872
344.26,71.11,0.056086,-0.0086145,0.005,0.0050784
344.1,70.947,0.05627,-0.0085129,0.005,0.0052322
343.3,70.145,0.056779,-0.0082395,0.005,0.0056618
342.73,69.584,0.057162,-0.0080091,0.005,0.0059675
342.43,69.284,0.057528,-0.0077945,0.005,0.0062643
342.01,68.861,0.057888,-0.0075558,0.005,0.0065337
340.73,67.581,0.058428,-0.0071999,0.005,0.0069397
339.66,66.507,0.058874,-0.0068757,0.005,0.0072461
338.13,64.983,0.059455,-0.0064503,0.005,0.0076414
337.28,64.127,0.059977,-0.0060347,0.005,0.0079572
336.31,63.157,0.060506,-0.0056132,0.005,0.008276
333.82,60.669,0.061228,-0.0049999,0.005,0.0086587
333.65,60.5,0.061279,-0.0049568,0.005,0.0086849
331.81,58.665,0.061973,-0.004338,0.005,0.0089992
330.88,57.732,0.062201,-0.0041351,0.005,0.0091026
329.05,55.896,0.062712,-0.0036638,0.005,0.009301
328.82,55.672,0.06278,-0.003602,0.005,0.0093285
327.52,54.374,0.063036,-0.0033608,0.005,0.0094144
325.99,52.841,0.063372,-0.003043,0.005,0.0095257
325.66,52.508,0.063436,-0.0029813,0.005,0.0095423
325.33,52.178,0.063514,-0.0029066,0.005,0.009562
322.47,49.324,0.064191,-0.0022536,0.005,0.0097426
321.88,48.73,0.064374,-0.0020737,0.005,0.0097748
319.94,46.787,0.064841,-0.0016156,0.005,0.0098646
318.98,45.83,0.065184,-0.0012765,0.005,0.009918
318.58,45.425,0.065332,-0.0011299,0.005,0.0099344
319.59,46.445,0.065801,-0.0012806,0.005,0.0094895
320.27,47.12,0.066024,-0.0013477,0.005,0.0092776
320.93,47.778,0.066163,-0.0013806,0.005,0.009142
323.78,50.628,0.066733,-0.0015268,0.005,0.0085912
327.12,53.965,0.067351,-0.0016126,0.005,0.0079787
327.31,54.157,0.067385,-0.0016177,0.005,0.0079455
327.62,54.466,0.067453,-0.001621,0.005,0.0078778
330.14,56.988,0.067988,-0.0016447,0.005,0.0073429
330.77,57.624,0.06812,-0.0016395,0.005,0.007211
333.68,60.528,0.06876,-0.0016161,0.005,0.0065717
