"T","Temperatura (C)","arc_length","Points:0","Points:1","Points:2"
400.78,127.63,0,0.0087624,0.0001,0.0046025
400.12,126.97,0.00010146,0.0088509,0.0001,0.0046522
400.09,126.94,0.00020549,0.0088956,0.0001,0.0045583
398.75,125.6,0.00081823,0.0091622,0.0001,0.0040065
398.4,125.25,0.00092318,0.0092017,0.0001,0.0039093
398.42,125.27,0.0010948,0.0092606,0.0001,0.0037481
398.32,125.17,0.0016815,0.0094733,0.0001,0.0032013
396.37,123.22,0.0022682,0.0096421,0.0001,0.0026394
395.66,122.51,0.0024405,0.0096891,0.0001,0.0024737
395.68,122.53,0.002546,0.0097121,0.0001,0.0023707
395.11,121.96,0.003153,0.0098403,0.0001,0.0017773
395.01,121.86,0.0032523,0.0098575,0.0001,0.0016796
394.99,121.84,0.0033553,0.0098714,0.0001,0.0015775
393.76,120.61,0.003954,0.0099511,0.0001,0.00098412
393.27,120.12,0.0040666,0.0099606,0.0001,0.00087193
393.39,120.24,0.0041751,0.0099652,0.0001,0.00076352
392.78,119.63,0.0047954,0.009999,0.0001,0.00014413
392.54,119.39,0.0048966,0.0099965,0.0001,4.3017e-05
392.63,119.48,0.0050903,0.0099872,0.0001,-0.00015043
393.19,120.04,0.0056631,0.009973,0.0001,-0.00072312
391.32,118.17,0.006236,0.0099136,0.0001,-0.0012929
390.74,117.59,0.0064214,0.0098897,0.0001,-0.0014768
390.86,117.71,0.0065296,0.0098703,0.0001,-0.0015833
390.12,116.97,0.0071183,0.0097632,0.0001,-0.002162
389.81,116.66,0.0072303,0.0097374,0.0001,-0.0022711
389.87,116.72,0.0073583,0.0097029,0.0001,-0.0023944
389.45,116.3,0.0079639,0.0095459,0.0001,-0.0029792
389.21,116.06,0.0080988,0.0095011,0.0001,-0.0031065
387.96,114.81,0.0087276,0.0092906,0.0001,-0.003699
387.72,114.57,0.0088843,0.0092288,0.0001,-0.003843
386.87,113.72,0.0094893,0.0089818,0.0001,-0.0043953
386.46,113.31,0.0096681,0.0088997,0.0001,-0.0045541
384.55,111.4,0.010277,0.0086081,0.0001,-0.0050884
384.01,110.86,0.010408,0.0085395,0.0001,-0.0052002
383.95,110.8,0.010547,0.0084617,0.0001,-0.005315
383.33,110.18,0.01115,0.0081317,0.0001,-0.0058201
383.04,109.89,0.011332,0.0080206,0.0001,-0.0059643
382.01,108.86,0.011875,0.0076888,0.0001,-0.0063936
381.67,108.52,0.012057,0.0075705,0.0001,-0.0065319
379.96,106.81,0.01246,0.0072994,0.0001,-0.0068305
378.8,105.65,0.012647,0.0071719,0.0001,-0.0069678
378.24,105.09,0.012755,0.0070966,0.0001,-0.0070444
377.92,104.77,0.012874,0.0070091,0.0001,-0.007125
375.7,102.55,0.013497,0.006555,0.0001,-0.007552
375.14,101.99,0.013642,0.006442,0.0001,-0.0076435
371.38,98.234,0.014263,0.0059575,0.0001,-0.0080315
370.55,97.399,0.014382,0.0058603,0.0001,-0.0080995
370,96.846,0.014556,0.0057141,0.0001,-0.0081943
368.37,95.219,0.015139,0.0052315,0.0001,-0.0085218
363.72,90.572,0.015722,0.0047246,0.0001,-0.0088101
362.2,89.049,0.015896,0.0045717,0.0001,-0.0088935
361.34,88.194,0.016002,0.0044767,0.0001,-0.0089386
356.81,83.659,0.016614,0.003922,0.0001,-0.0091984
356.17,83.024,0.016718,0.0038259,0.0001,-0.0092381
356.81,83.663,0.016826,0.0038327,0.0001,-0.0091307
359.72,86.567,0.017376,0.0038506,0.0001,-0.0085805
360.11,86.962,0.017479,0.0038549,0.0001,-0.0084777
361.99,88.841,0.017755,0.0038496,0.0001,-0.0082016
365.53,92.376,0.018216,0.0038278,0.0001,-0.0077417
366.9,93.753,0.018373,0.0038094,0.0001,-0.0075855
369.72,96.568,0.018956,0.0037052,0.0001,-0.0070119
370.6,97.447,0.019128,0.0036684,0.0001,-0.0068442
372.29,99.136,0.019675,0.0035154,0.0001,-0.0063186
372.51,99.359,0.019809,0.0034782,0.0001,-0.0061901
373.18,100.03,0.019912,0.0034448,0.0001,-0.0060923
375.06,101.91,0.020456,0.0032408,0.0001,-0.0055886
375.04,101.89,0.020543,0.003207,0.0001,-0.0055082
375.28,102.13,0.020602,0.003184,0.0001,-0.0054538
376.21,103.06,0.020696,0.0031394,0.0001,-0.0053714
380.42,107.27,0.02131,0.0028295,0.0001,-0.0048404
380.84,107.69,0.021427,0.0027675,0.0001,-0.0047415
383.34,110.19,0.022059,0.0024,0.0001,-0.0042271
383.8,110.65,0.022189,0.002324,0.0001,-0.0041224
385.78,112.63,0.022802,0.001921,0.0001,-0.0036608
386.14,112.99,0.022933,0.0018332,0.0001,-0.003563
387.86,114.71,0.023549,0.0013729,0.0001,-0.0031537
388.18,115.03,0.023657,0.0012932,0.0001,-0.00308
388.65,115.5,0.023749,0.0012237,0.0001,-0.0030199
390.64,117.49,0.024362,0.00073615,0.0001,-0.0026482
390.77,117.62,0.024468,0.00065228,0.0001,-0.0025849
391.41,118.26,0.024631,0.00050639,0.0001,-0.0025114
393.78,120.63,0.025221,-2.1752e-05,0.0001,-0.0022472
393.82,120.67,0.02581,-0.00060937,0.0001,-0.0022195
393.86,120.71,0.025958,-0.00075687,0.0001,-0.0022065
394.19,121.04,0.026057,-0.0008555,0.0001,-0.0022174
395.62,122.47,0.02668,-0.0014703,0.0001,-0.0023156
395.89,122.74,0.026826,-0.0016157,0.0001,-0.0023325
397.13,123.98,0.027423,-0.0022086,0.0001,-0.0024046
397.21,124.06,0.027546,-0.002331,0.0001,-0.0024154
397.85,124.7,0.027721,-0.0025052,0.0001,-0.0024352
399.68,126.53,0.028306,-0.0030847,0.0001,-0.0025123
399.43,126.28,0.028891,-0.0036576,0.0001,-0.0026278
399.35,126.2,0.029055,-0.0038192,0.0001,-0.0026563
399.72,126.57,0.029143,-0.0039057,0.0001,-0.0026745
401.1,127.95,0.029768,-0.0045096,0.0001,-0.0028338
401.08,127.93,0.029856,-0.0045954,0.0001,-0.0028546
401.52,128.37,0.029945,-0.0046818,0.0001,-0.0028775
402.59,129.44,0.030569,-0.005279,0.0001,-0.0030585
402.38,129.23,0.030659,-0.0053657,0.0001,-0.0030832
402.88,129.73,0.030831,-0.0055284,0.0001,-0.0031385
404.32,131.17,0.031416,-0.0060801,0.0001,-0.0033336
403.72,130.57,0.032002,-0.0066218,0.0001,-0.0035551
403.58,130.43,0.032162,-0.0067715,0.0001,-0.0036126
403.68,130.53,0.032271,-0.0068723,0.0001,-0.003654
403.33,130.18,0.032873,-0.0074209,0.0001,-0.0039016
403.12,129.97,0.032966,-0.0075059,0.0001,-0.0039384
403.36,130.21,0.033057,-0.0075886,0.0001,-0.0039778
402.5,129.35,0.033608,-0.0080799,0.0001,-0.0042276
401.83,128.68,0.03369,-0.0081523,0.0001,-0.0042646
401.61,128.46,0.033747,-0.0082042,0.0001,-0.0042895
401.91,128.76,0.033833,-0.0082796,0.0001,-0.0043297
400.65,127.5,0.034387,-0.0087624,0.0001,-0.0046025
399.97,126.82,0.034489,-0.0088509,0.0001,-0.0046522
399.83,126.68,0.034593,-0.0088956,0.0001,-0.0045583
398.42,125.27,0.035205,-0.0091622,0.0001,-0.0040065
398.04,124.89,0.03531,-0.0092017,0.0001,-0.0039093
398.12,124.97,0.035482,-0.0092606,0.0001,-0.0037481
397.85,124.7,0.036069,-0.0094733,0.0001,-0.0032013
395.73,122.58,0.036655,-0.0096421,0.0001,-0.0026394
395.09,121.94,0.036828,-0.0096891,0.0001,-0.0024737
395.13,121.98,0.036933,-0.0097121,0.0001,-0.0023707
394.72,121.57,0.03754,-0.0098403,0.0001,-0.0017773
394.58,121.43,0.037639,-0.0098575,0.0001,-0.0016796
394.56,121.41,0.037742,-0.0098714,0.0001,-0.0015775
393.61,120.46,0.038341,-0.0099511,0.0001,-0.00098412
393.21,120.06,0.038454,-0.0099606,0.0001,-0.00087193
393.27,120.12,0.038562,-0.0099652,0.0001,-0.00076352
392.56,119.41,0.039183,-0.009999,0.0001,-0.00014413
392.32,119.17,0.039284,-0.0099965,0.0001,-4.3017e-05
392.46,119.31,0.039477,-0.0099872,0.0001,0.00015043
392.92,119.77,0.04005,-0.009973,0.0001,0.00072312
391.52,118.37,0.040623,-0.0099136,0.0001,0.0012929
391.01,117.86,0.040809,-0.0098897,0.0001,0.0014768
391.06,117.91,0.040917,-0.0098703,0.0001,0.0015833
389.98,116.83,0.041505,-0.0097632,0.0001,0.002162
389.62,116.47,0.041617,-0.0097374,0.0001,0.0022711
389.73,116.58,0.041745,-0.0097029,0.0001,0.0023944
389.24,116.09,0.042351,-0.0095459,0.0001,0.0029792
388.92,115.77,0.042486,-0.0095011,0.0001,0.0031065
388.29,115.14,0.043115,-0.0092906,0.0001,0.003699
388.02,114.87,0.043271,-0.0092288,0.0001,0.003843
387.06,113.91,0.043876,-0.0089818,0.0001,0.0043953
386.66,113.51,0.044055,-0.0088997,0.0001,0.0045541
384.74,111.59,0.044664,-0.0086081,0.0001,0.0050884
384.3,111.15,0.044795,-0.0085395,0.0001,0.0052002
384.33,111.18,0.044934,-0.0084617,0.0001,0.005315
383.47,110.32,0.045537,-0.0081317,0.0001,0.0058201
383.08,109.93,0.045719,-0.0080206,0.0001,0.0059643
381.96,108.81,0.046262,-0.0076888,0.0001,0.0063936
381.46,108.31,0.046444,-0.0075705,0.0001,0.0065319
379.52,106.37,0.046847,-0.0072994,0.0001,0.0068305
378.29,105.14,0.047034,-0.0071719,0.0001,0.0069678
377.74,104.59,0.047142,-0.0070966,0.0001,0.0070444
377.46,104.31,0.047261,-0.0070091,0.0001,0.007125
375.33,102.18,0.047884,-0.006555,0.0001,0.007552
374.76,101.61,0.048029,-0.006442,0.0001,0.0076435
371.12,97.972,0.04865,-0.0059575,0.0001,0.0080315
370.27,97.115,0.048769,-0.0058603,0.0001,0.0080995
369.72,96.574,0.048943,-0.0057141,0.0001,0.0081943
368.41,95.264,0.049526,-0.0052315,0.0001,0.0085218
363.75,90.599,0.050109,-0.0047246,0.0001,0.0088101
362.28,89.134,0.050284,-0.0045717,0.0001,0.0088935
361.57,88.419,0.050389,-0.0044767,0.0001,0.0089386
357.34,84.194,0.051001,-0.003922,0.0001,0.0091984
356.64,83.489,0.051105,-0.0038259,0.0001,0.0092381
357.27,84.124,0.051213,-0.0038327,0.0001,0.0091307
359.93,86.775,0.051763,-0.0038506,0.0001,0.0085805
360.32,87.168,0.051866,-0.0038549,0.0001,0.0084777
361.95,88.795,0.052142,-0.0038496,0.0001,0.0082016
365.21,92.055,0.052603,-0.0038278,0.0001,0.0077417
366.64,93.491,0.05276,-0.0038094,0.0001,0.0075855
369.48,96.325,0.053343,-0.0037052,0.0001,0.0070119
370.42,97.265,0.053515,-0.0036684,0.0001,0.0068442
372.7,99.551,0.054062,-0.0035154,0.0001,0.0063186
373.04,99.894,0.054196,-0.0034782,0.0001,0.0061901
374.03,100.88,0.054299,-0.0034448,0.0001,0.0060923
376.26,103.11,0.054843,-0.0032408,0.0001,0.0055886
376.04,102.89,0.05493,-0.003207,0.0001,0.0055082
376.25,103.1,0.054989,-0.003184,0.0001,0.0054538
377.13,103.98,0.055083,-0.0031394,0.0001,0.0053714
380.9,107.75,0.055698,-0.0028295,0.0001,0.0048404
381.34,108.19,0.055814,-0.0027675,0.0001,0.0047415
383.48,110.33,0.056447,-0.0024,0.0001,0.0042271
384,110.85,0.056576,-0.002324,0.0001,0.0041224
386.28,113.13,0.057189,-0.001921,0.0001,0.0036608
386.62,113.47,0.05732,-0.0018332,0.0001,0.003563
387.8,114.65,0.057936,-0.0013729,0.0001,0.0031537
387.93,114.78,0.058045,-0.0012932,0.0001,0.00308
388.35,115.2,0.058137,-0.0012237,0.0001,0.0030199
390.57,117.42,0.05875,-0.00073615,0.0001,0.0026482
390.84,117.69,0.058855,-0.00065228,0.0001,0.0025849
391.54,118.39,0.059018,-0.00050639,0.0001,0.0025114
393.9,120.75,0.059609,2.1752e-05,0.0001,0.0022472
393.69,120.54,0.060197,0.00060937,0.0001,0.0022195
393.7,120.55,0.060345,0.00075687,0.0001,0.0022065
393.98,120.83,0.060444,0.0008555,0.0001,0.0022174
395.43,122.28,0.061067,0.0014703,0.0001,0.0023156
395.71,122.56,0.061213,0.0016157,0.0001,0.0023325
396.82,123.67,0.06181,0.0022086,0.0001,0.0024046
396.8,123.65,0.061933,0.002331,0.0001,0.0024154
397.48,124.33,0.062109,0.0025052,0.0001,0.0024352
399.69,126.54,0.062693,0.0030847,0.0001,0.0025123
399.7,126.55,0.063278,0.0036576,0.0001,0.0026278
399.74,126.59,0.063442,0.0038192,0.0001,0.0026563
400.03,126.88,0.06353,0.0039057,0.0001,0.0026745
401.06,127.91,0.064155,0.0045096,0.0001,0.0028338
401.1,127.95,0.064243,0.0045954,0.0001,0.0028546
401.53,128.38,0.064332,0.0046818,0.0001,0.0028775
402.51,129.36,0.064956,0.005279,0.0001,0.0030585
402.38,129.23,0.065047,0.0053657,0.0001,0.0030832
402.86,129.71,0.065218,0.0055284,0.0001,0.0031385
404.43,131.28,0.065804,0.0060801,0.0001,0.0033336
403.91,130.76,0.066389,0.0066218,0.0001,0.0035551
403.67,130.52,0.066549,0.0067715,0.0001,0.0036126
403.67,130.52,0.066658,0.0068723,0.0001,0.003654
403.22,130.07,0.06726,0.0074209,0.0001,0.0039016
403,129.85,0.067353,0.0075059,0.0001,0.0039384
403.46,130.31,0.067444,0.0075886,0.0001,0.0039778
402.61,129.46,0.067995,0.0080799,0.0001,0.0042276
401.89,128.74,0.068077,0.0081523,0.0001,0.0042646
401.72,128.57,0.068134,0.0082042,0.0001,0.0042895
401.99,128.84,0.06822,0.0082796,0.0001,0.0043297
400.78,127.63,0.068774,0.0087624,0.0001,0.0046025
